EESchema Schematic File Version 4
LIBS:Fan controller-cache
EELAYER 29 0
EELAYER END
$Descr A4 11693 8268
encoding utf-8
Sheet 1 1
Title ""
Date ""
Rev ""
Comp ""
Comment1 ""
Comment2 ""
Comment3 ""
Comment4 ""
$EndDescr
Wire Wire Line
	7700 1950 8050 1950
Wire Wire Line
	7700 1850 8050 1850
$Comp
L Connector_Generic:Conn_02x03_Odd_Even J8
U 1 1 5D1DF913
P 1550 4100
F 0 "J8" H 1600 4300 50  0000 C CNN
F 1 "ICSP" H 1600 3900 50  0000 C CNN
F 2 "Pin_Headers:Pin_Header_Straight_2x03_Pitch2.54mm" H 1550 4100 50  0001 C CNN
F 3 "~" H 1550 4100 50  0001 C CNN
	1    1550 4100
	1    0    0    -1  
$EndComp
Text GLabel 8050 1350 2    50   Input ~ 0
SCK
Text GLabel 8050 1450 2    50   Input ~ 0
MOSI
Wire Wire Line
	7700 1350 8050 1350
Text GLabel 1150 4200 0    50   Output ~ 0
RESET
Wire Wire Line
	1150 4200 1350 4200
Text GLabel 1150 4100 0    50   Output ~ 0
SCK
Text GLabel 2050 4100 2    50   Output ~ 0
MOSI
Text GLabel 1150 4000 0    50   Input ~ 0
MISO
Wire Wire Line
	1150 4000 1350 4000
Wire Wire Line
	1150 4100 1350 4100
Wire Wire Line
	1850 4100 2050 4100
$Comp
L power:+5V #PWR05
U 1 1 5D246860
P 2050 3900
F 0 "#PWR05" H 2050 3750 50  0001 C CNN
F 1 "+5V" H 2065 4073 50  0000 C CNN
F 2 "" H 2050 3900 50  0001 C CNN
F 3 "" H 2050 3900 50  0001 C CNN
	1    2050 3900
	1    0    0    -1  
$EndComp
Wire Wire Line
	1850 4000 2050 4000
Wire Wire Line
	2050 4000 2050 3900
$Comp
L power:GND #PWR06
U 1 1 5D24E3CC
P 2050 4300
F 0 "#PWR06" H 2050 4050 50  0001 C CNN
F 1 "GND" H 2055 4127 50  0000 C CNN
F 2 "" H 2050 4300 50  0001 C CNN
F 3 "" H 2050 4300 50  0001 C CNN
	1    2050 4300
	1    0    0    -1  
$EndComp
Wire Wire Line
	2050 4300 2050 4200
Wire Wire Line
	1850 4200 2050 4200
Wire Wire Line
	8050 3450 7700 3450
Wire Wire Line
	7700 1450 8050 1450
Wire Wire Line
	7700 1550 8050 1550
$Comp
L Connector:USB_B_Micro J9
U 1 1 5D0AC264
P 9100 4650
F 0 "J9" H 9157 5117 50  0000 C CNN
F 1 "USB-link" H 9157 5026 50  0000 C CNN
F 2 "Connectors_USB:USB_Micro-B_Molex-105017-0001" H 9250 4600 50  0001 C CNN
F 3 "~" H 9250 4600 50  0001 C CNN
	1    9100 4650
	1    0    0    -1  
$EndComp
Wire Wire Line
	9400 4650 9950 4650
$Comp
L power:VBUS #PWR052
U 1 1 5D0CF50B
P 10000 4250
F 0 "#PWR052" H 10000 4100 50  0001 C CNN
F 1 "VBUS" H 10015 4423 50  0000 C CNN
F 2 "" H 10000 4250 50  0001 C CNN
F 3 "" H 10000 4250 50  0001 C CNN
	1    10000 4250
	1    0    0    -1  
$EndComp
Wire Wire Line
	10000 4250 10000 4450
Wire Wire Line
	9700 4450 9600 4450
$Comp
L power:GND #PWR044
U 1 1 5D0DC08E
P 9100 5150
F 0 "#PWR044" H 9100 4900 50  0001 C CNN
F 1 "GND" V 9105 4977 50  0000 C CNN
F 2 "" H 9100 5150 50  0001 C CNN
F 3 "" H 9100 5150 50  0001 C CNN
	1    9100 5150
	1    0    0    -1  
$EndComp
Wire Wire Line
	9100 5150 9100 5050
$Comp
L power:GND #PWR043
U 1 1 5D0F6822
P 9000 5150
F 0 "#PWR043" H 9000 4900 50  0001 C CNN
F 1 "GND" V 9005 4977 50  0000 C CNN
F 2 "" H 9000 5150 50  0001 C CNN
F 3 "" H 9000 5150 50  0001 C CNN
	1    9000 5150
	1    0    0    -1  
$EndComp
Wire Wire Line
	9000 5150 9000 5050
Wire Wire Line
	7700 1650 8050 1650
Wire Wire Line
	7700 1750 8050 1750
$Comp
L Device:Polyfuse_Small F1
U 1 1 5D624A75
P 9800 4450
F 0 "F1" V 9595 4450 50  0000 C CNN
F 1 "500mA" V 9686 4450 50  0000 C CNN
F 2 "Resistors_SMD:R_0805" H 9850 4250 50  0001 L CNN
F 3 "~" H 9800 4450 50  0001 C CNN
	1    9800 4450
	0    1    1    0   
$EndComp
Wire Wire Line
	10000 4450 9900 4450
$Comp
L MCU_Microchip_ATmega:ATmega32U4-AU U1
U 1 1 5D632587
P 7100 2750
F 0 "U1" H 7500 4600 50  0000 C CNN
F 1 "ATmega32U4-AU" H 7600 4500 50  0000 C CNN
F 2 "Housings_QFP:TQFP-44_10x10mm_Pitch0.8mm" H 7100 2750 50  0001 C CIN
F 3 "http://ww1.microchip.com/downloads/en/DeviceDoc/Atmel-7766-8-bit-AVR-ATmega16U4-32U4_Datasheet.pdf" H 7100 2750 50  0001 C CNN
	1    7100 2750
	1    0    0    -1  
$EndComp
$Comp
L Device:Varistor RV1
U 1 1 5D64B4DC
P 9950 5050
F 0 "RV1" V 10050 5000 50  0000 L CNN
F 1 "CG0603MLC-05E" V 9800 4650 50  0000 L CNN
F 2 "Resistors_SMD:R_0603" V 9880 5050 50  0001 C CNN
F 3 "~" H 9950 5050 50  0001 C CNN
	1    9950 5050
	1    0    0    -1  
$EndComp
$Comp
L Device:Varistor RV2
U 1 1 5D64C6B9
P 10300 5050
F 0 "RV2" V 10400 5000 50  0000 L CNN
F 1 "CG0603MLC-05E" V 10150 4650 50  0000 L CNN
F 2 "Resistors_SMD:R_0603" V 10230 5050 50  0001 C CNN
F 3 "~" H 10300 5050 50  0001 C CNN
	1    10300 5050
	1    0    0    -1  
$EndComp
Wire Wire Line
	10400 4750 10300 4750
Wire Wire Line
	9950 4900 9950 4650
Connection ~ 9950 4650
Wire Wire Line
	9950 4650 10400 4650
Wire Wire Line
	10300 4900 10300 4750
Connection ~ 10300 4750
Wire Wire Line
	10300 4750 9400 4750
Text GLabel 10800 4750 2    50   BiDi ~ 0
RD-
Text GLabel 10800 4650 2    50   BiDi ~ 0
RD+
$Comp
L power:GND #PWR051
U 1 1 5D665277
P 9950 5300
F 0 "#PWR051" H 9950 5050 50  0001 C CNN
F 1 "GND" H 9955 5127 50  0000 C CNN
F 2 "" H 9950 5300 50  0001 C CNN
F 3 "" H 9950 5300 50  0001 C CNN
	1    9950 5300
	1    0    0    -1  
$EndComp
Wire Wire Line
	9950 5300 9950 5200
$Comp
L power:GND #PWR055
U 1 1 5D66AA8E
P 10300 5300
F 0 "#PWR055" H 10300 5050 50  0001 C CNN
F 1 "GND" H 10305 5127 50  0000 C CNN
F 2 "" H 10300 5300 50  0001 C CNN
F 3 "" H 10300 5300 50  0001 C CNN
	1    10300 5300
	1    0    0    -1  
$EndComp
Wire Wire Line
	10300 5300 10300 5200
Text GLabel 6300 2350 0    50   BiDi ~ 0
RD-
Text GLabel 6300 2250 0    50   BiDi ~ 0
RD+
Wire Wire Line
	6500 2250 6300 2250
Wire Wire Line
	6300 2350 6500 2350
$Comp
L Device:Crystal_Small Y1
U 1 1 5D06ED11
P 5650 1450
F 0 "Y1" H 5650 1675 50  0000 C CNN
F 1 "16MHz" H 5650 1584 50  0000 C CNN
F 2 "Crystals:Crystal_HC49-4H_Vertical" H 5650 1450 50  0001 C CNN
F 3 "~" H 5650 1450 50  0001 C CNN
	1    5650 1450
	-1   0    0    -1  
$EndComp
Wire Wire Line
	5500 1450 5550 1450
Wire Wire Line
	5800 1900 5800 1750
Wire Wire Line
	6500 1450 5800 1450
Wire Wire Line
	5800 1450 5750 1450
Connection ~ 5800 1450
$Comp
L power:GND #PWR025
U 1 1 5D080962
P 5800 2150
F 0 "#PWR025" H 5800 1900 50  0001 C CNN
F 1 "GND" H 5805 1977 50  0000 C CNN
F 2 "" H 5800 2150 50  0001 C CNN
F 3 "" H 5800 2150 50  0001 C CNN
	1    5800 2150
	-1   0    0    -1  
$EndComp
$Comp
L power:GND #PWR024
U 1 1 5D080D3C
P 5500 2150
F 0 "#PWR024" H 5500 1900 50  0001 C CNN
F 1 "GND" H 5505 1977 50  0000 C CNN
F 2 "" H 5500 2150 50  0001 C CNN
F 3 "" H 5500 2150 50  0001 C CNN
	1    5500 2150
	-1   0    0    -1  
$EndComp
Wire Wire Line
	5800 2100 5800 2150
Wire Wire Line
	5500 2100 5500 2150
$Comp
L Device:C_Small C2
U 1 1 5D0776CF
P 5500 2000
F 0 "C2" H 5592 2046 50  0000 L CNN
F 1 "22p" H 5592 1955 50  0000 L CNN
F 2 "Capacitors_SMD:C_0805" H 5500 2000 50  0001 C CNN
F 3 "~" H 5500 2000 50  0001 C CNN
	1    5500 2000
	-1   0    0    -1  
$EndComp
$Comp
L Device:C_Small C3
U 1 1 5D0771FD
P 5800 2000
F 0 "C3" H 5892 2046 50  0000 L CNN
F 1 "22p" H 5892 1955 50  0000 L CNN
F 2 "Capacitors_SMD:C_0805" H 5800 2000 50  0001 C CNN
F 3 "~" H 5800 2000 50  0001 C CNN
	1    5800 2000
	-1   0    0    -1  
$EndComp
Wire Wire Line
	5500 1450 5500 1650
Wire Wire Line
	5500 1650 6500 1650
Connection ~ 5500 1650
Wire Wire Line
	5500 1650 5500 1750
$Comp
L power:VBUS #PWR032
U 1 1 5D10E1B3
P 6400 2000
F 0 "#PWR032" H 6400 1850 50  0001 C CNN
F 1 "VBUS" H 6300 2000 50  0000 C CNN
F 2 "" H 6400 2000 50  0001 C CNN
F 3 "" H 6400 2000 50  0001 C CNN
	1    6400 2000
	1    0    0    -1  
$EndComp
Wire Wire Line
	6400 2000 6400 2050
Wire Wire Line
	6400 2050 6500 2050
Text GLabel 6400 1250 0    50   Input ~ 0
RESET
Wire Wire Line
	6400 1250 6500 1250
$Comp
L power:+5V #PWR033
U 1 1 5D12897B
P 7000 850
F 0 "#PWR033" H 7000 700 50  0001 C CNN
F 1 "+5V" V 7015 1023 50  0000 C CNN
F 2 "" H 7000 850 50  0001 C CNN
F 3 "" H 7000 850 50  0001 C CNN
	1    7000 850 
	1    0    0    -1  
$EndComp
Wire Wire Line
	7000 950  7000 850 
$Comp
L power:+5V #PWR035
U 1 1 5D1352BA
P 7100 850
F 0 "#PWR035" H 7100 700 50  0001 C CNN
F 1 "+5V" V 7115 1023 50  0000 C CNN
F 2 "" H 7100 850 50  0001 C CNN
F 3 "" H 7100 850 50  0001 C CNN
	1    7100 850 
	1    0    0    -1  
$EndComp
Wire Wire Line
	7100 950  7100 850 
$Comp
L power:+5V #PWR037
U 1 1 5D13B854
P 7200 850
F 0 "#PWR037" H 7200 700 50  0001 C CNN
F 1 "+5V" V 7215 1023 50  0000 C CNN
F 2 "" H 7200 850 50  0001 C CNN
F 3 "" H 7200 850 50  0001 C CNN
	1    7200 850 
	1    0    0    -1  
$EndComp
Wire Wire Line
	7200 950  7200 850 
Wire Wire Line
	7000 4550 7000 4650
$Comp
L power:GND #PWR036
U 1 1 5D1486CF
P 7100 4650
F 0 "#PWR036" H 7100 4400 50  0001 C CNN
F 1 "GND" V 7105 4477 50  0000 C CNN
F 2 "" H 7100 4650 50  0001 C CNN
F 3 "" H 7100 4650 50  0001 C CNN
	1    7100 4650
	1    0    0    -1  
$EndComp
Wire Wire Line
	7100 4550 7100 4650
$Comp
L power:GND #PWR034
U 1 1 5D141FFA
P 7000 4650
F 0 "#PWR034" H 7000 4400 50  0001 C CNN
F 1 "GND" V 7005 4477 50  0000 C CNN
F 2 "" H 7000 4650 50  0001 C CNN
F 3 "" H 7000 4650 50  0001 C CNN
	1    7000 4650
	1    0    0    -1  
$EndComp
Wire Wire Line
	7700 2650 8050 2650
Wire Wire Line
	7700 2750 8050 2750
Text GLabel 8050 1550 2    50   Output ~ 0
MISO
Wire Wire Line
	7700 1250 8050 1250
Text GLabel 8050 1250 2    50   Output ~ 0
UpRxLED
Wire Wire Line
	7700 2950 8050 2950
Text GLabel 8050 2950 2    50   Output ~ 0
UpTxLED
Wire Wire Line
	7700 3350 8050 3350
Text GLabel 8050 3350 2    50   Output ~ 0
HWB
$Comp
L power:+5V #PWR?
U 1 1 5D20285C
P 9000 2450
AR Path="/5D2A4E4B/5D20285C" Ref="#PWR?"  Part="1" 
AR Path="/5D378630/5D20285C" Ref="#PWR?"  Part="1" 
AR Path="/5D20285C" Ref="#PWR041"  Part="1" 
F 0 "#PWR041" H 9000 2300 50  0001 C CNN
F 1 "+5V" H 9015 2623 50  0000 C CNN
F 2 "" H 9000 2450 50  0001 C CNN
F 3 "" H 9000 2450 50  0001 C CNN
	1    9000 2450
	1    0    0    -1  
$EndComp
Wire Wire Line
	9000 2450 9000 2550
Wire Wire Line
	9000 2850 9000 2950
$Comp
L power:GND #PWR?
U 1 1 5D20286A
P 9000 3250
AR Path="/5D2A4E4B/5D20286A" Ref="#PWR?"  Part="1" 
AR Path="/5D378630/5D20286A" Ref="#PWR?"  Part="1" 
AR Path="/5D20286A" Ref="#PWR042"  Part="1" 
F 0 "#PWR042" H 9000 3000 50  0001 C CNN
F 1 "GND" H 9005 3077 50  0000 C CNN
F 2 "" H 9000 3250 50  0001 C CNN
F 3 "" H 9000 3250 50  0001 C CNN
	1    9000 3250
	1    0    0    -1  
$EndComp
Wire Wire Line
	9000 3150 9000 3250
$Comp
L power:GND #PWR040
U 1 1 5D1CF67C
P 9000 1550
F 0 "#PWR040" H 9000 1300 50  0001 C CNN
F 1 "GND" H 9005 1377 50  0000 C CNN
F 2 "" H 9000 1550 50  0001 C CNN
F 3 "" H 9000 1550 50  0001 C CNN
	1    9000 1550
	1    0    0    -1  
$EndComp
Wire Wire Line
	9000 1100 9000 1000
Text GLabel 9000 1000 1    50   UnSpc ~ 0
HWB
Wire Wire Line
	9000 1550 9000 1400
$Comp
L Device:R R4
U 1 1 5D1B9CE9
P 9000 1250
F 0 "R4" H 9070 1296 50  0000 L CNN
F 1 "10K" H 9070 1205 50  0000 L CNN
F 2 "Resistors_SMD:R_0805" V 8930 1250 50  0001 C CNN
F 3 "~" H 9000 1250 50  0001 C CNN
	1    9000 1250
	1    0    0    -1  
$EndComp
Wire Wire Line
	10050 1500 10050 1600
Connection ~ 10050 1500
Wire Wire Line
	10150 1500 10050 1500
Wire Wire Line
	10550 1500 10650 1500
Wire Wire Line
	10650 1600 10650 1500
$Comp
L power:GND #PWR054
U 1 1 5D18052A
P 10650 1600
F 0 "#PWR054" H 10650 1350 50  0001 C CNN
F 1 "GND" H 10655 1427 50  0000 C CNN
F 2 "" H 10650 1600 50  0001 C CNN
F 3 "" H 10650 1600 50  0001 C CNN
	1    10650 1600
	1    0    0    -1  
$EndComp
$Comp
L Switch:SW_Push SW1
U 1 1 5D17FAD8
P 10350 1500
F 0 "SW1" H 10400 1750 50  0000 L CNN
F 1 "Reset" H 10400 1650 50  0000 L CNN
F 2 "Buttons_Switches_SMD:SW_SPST_PTS645" H 10350 1700 50  0001 C CNN
F 3 "~" H 10350 1700 50  0001 C CNN
	1    10350 1500
	1    0    0    -1  
$EndComp
Wire Wire Line
	10050 1400 10050 1500
Text GLabel 10050 1600 3    50   Output ~ 0
RESET
Wire Wire Line
	10050 1000 10050 1100
$Comp
L power:+5V #PWR049
U 1 1 5D39579B
P 10050 1000
F 0 "#PWR049" H 10050 850 50  0001 C CNN
F 1 "+5V" H 10065 1173 50  0000 C CNN
F 2 "" H 10050 1000 50  0001 C CNN
F 3 "" H 10050 1000 50  0001 C CNN
	1    10050 1000
	1    0    0    -1  
$EndComp
$Comp
L Device:R R9
U 1 1 5D395795
P 10050 1250
F 0 "R9" H 10120 1296 50  0000 L CNN
F 1 "10K" H 10120 1205 50  0000 L CNN
F 2 "Resistors_SMD:R_0805" V 9980 1250 50  0001 C CNN
F 3 "~" H 10050 1250 50  0001 C CNN
	1    10050 1250
	1    0    0    -1  
$EndComp
Wire Wire Line
	9300 2450 9300 2550
Wire Wire Line
	9300 2750 9300 2850
Wire Wire Line
	9300 3150 9300 3250
$Comp
L Device:LED_Small D2
U 1 1 5D2A36A8
P 9300 2650
AR Path="/5D2A36A8" Ref="D2"  Part="1" 
AR Path="/5D2A4E4B/5D2A36A8" Ref="D?"  Part="1" 
AR Path="/5D378630/5D2A36A8" Ref="D?"  Part="1" 
F 0 "D2" V 9350 2600 50  0000 R CNN
F 1 "Green" V 9250 2600 50  0000 R CNN
F 2 "LEDs:LED_0603" V 9300 2650 50  0001 C CNN
F 3 "~" V 9300 2650 50  0001 C CNN
F 4 "UpTx" V 9200 2600 24  0000 R CNN "Function"
	1    9300 2650
	0    -1   -1   0   
$EndComp
$Comp
L Device:R R?
U 1 1 5D2A369A
P 9300 3000
AR Path="/5D2A4E4B/5D2A369A" Ref="R?"  Part="1" 
AR Path="/5D378630/5D2A369A" Ref="R?"  Part="1" 
AR Path="/5D2A369A" Ref="R6"  Part="1" 
F 0 "R6" H 9370 3046 50  0000 L CNN
F 1 "330" H 9370 2955 50  0000 L CNN
F 2 "Resistors_SMD:R_0805" V 9230 3000 50  0001 C CNN
F 3 "~" H 9300 3000 50  0001 C CNN
	1    9300 3000
	1    0    0    -1  
$EndComp
$Comp
L Device:R R?
U 1 1 5D202863
P 9000 2700
AR Path="/5D2A4E4B/5D202863" Ref="R?"  Part="1" 
AR Path="/5D378630/5D202863" Ref="R?"  Part="1" 
AR Path="/5D202863" Ref="R5"  Part="1" 
F 0 "R5" H 9070 2746 50  0000 L CNN
F 1 "330" H 9070 2655 50  0000 L CNN
F 2 "Resistors_SMD:R_0805" V 8930 2700 50  0001 C CNN
F 3 "~" H 9000 2700 50  0001 C CNN
	1    9000 2700
	1    0    0    -1  
$EndComp
Wire Wire Line
	9600 2450 9600 2550
Wire Wire Line
	9600 2750 9600 2850
Wire Wire Line
	9600 3150 9600 3250
$Comp
L Device:LED_Small D3
U 1 1 5D2ADB21
P 9600 2650
AR Path="/5D2ADB21" Ref="D3"  Part="1" 
AR Path="/5D2A4E4B/5D2ADB21" Ref="D?"  Part="1" 
AR Path="/5D378630/5D2ADB21" Ref="D?"  Part="1" 
F 0 "D3" V 9650 2600 50  0000 R CNN
F 1 "Green" V 9550 2600 50  0000 R CNN
F 2 "LEDs:LED_0603" V 9600 2650 50  0001 C CNN
F 3 "~" V 9600 2650 50  0001 C CNN
F 4 "UpRx" V 9500 2600 24  0000 R CNN "Function"
	1    9600 2650
	0    -1   -1   0   
$EndComp
Text GLabel 9600 3250 3    50   Input ~ 0
UpRxLED
$Comp
L Device:R R?
U 1 1 5D2ADB28
P 9600 3000
AR Path="/5D2A4E4B/5D2ADB28" Ref="R?"  Part="1" 
AR Path="/5D378630/5D2ADB28" Ref="R?"  Part="1" 
AR Path="/5D2ADB28" Ref="R8"  Part="1" 
F 0 "R8" H 9670 3046 50  0000 L CNN
F 1 "330" H 9670 2955 50  0000 L CNN
F 2 "Resistors_SMD:R_0805" V 9530 3000 50  0001 C CNN
F 3 "~" H 9600 3000 50  0001 C CNN
	1    9600 3000
	1    0    0    -1  
$EndComp
$Comp
L power:GND #PWR048
U 1 1 5D35E29F
P 9600 5300
F 0 "#PWR048" H 9600 5050 50  0001 C CNN
F 1 "GND" H 9605 5127 50  0000 C CNN
F 2 "" H 9600 5300 50  0001 C CNN
F 3 "" H 9600 5300 50  0001 C CNN
	1    9600 5300
	1    0    0    -1  
$EndComp
Wire Wire Line
	9600 5300 9600 5200
Wire Wire Line
	9400 4450 9600 4450
Wire Wire Line
	9600 4450 9600 5000
Connection ~ 9600 4450
Wire Notes Line
	8800 2100 8800 3850
Wire Notes Line
	8800 3850 11100 3850
Wire Notes Line
	11100 3850 11100 2100
Wire Notes Line
	11100 2100 8800 2100
Text Notes 8850 2200 0    50   ~ 0
Status
Wire Notes Line
	8800 1950 8800 550 
Wire Notes Line
	8800 550  11100 550 
Wire Notes Line
	11100 550  11100 1950
Wire Notes Line
	11100 1950 8800 1950
Text Notes 8850 650  0    50   ~ 0
Pull-up/down
Wire Notes Line
	8800 4000 8800 5600
Text Notes 8850 4100 0    50   ~ 0
USB Interface
Text Notes 650  650  0    50   ~ 0
I/O
Wire Notes Line
	5200 550  5200 4950
Wire Notes Line
	5200 4950 8650 4950
Wire Notes Line
	8650 4950 8650 550 
Wire Notes Line
	8650 550  5200 550 
Text Notes 5250 650  0    50   ~ 0
Controller
$Comp
L Device:R R3
U 1 1 5DCEA727
P 5650 1750
F 0 "R3" V 5750 1700 50  0000 L CNN
F 1 "1M" V 5650 1700 50  0000 L CNN
F 2 "Resistors_SMD:R_0805" V 5580 1750 50  0001 C CNN
F 3 "~" H 5650 1750 50  0001 C CNN
	1    5650 1750
	0    1    1    0   
$EndComp
Connection ~ 5800 1750
Wire Wire Line
	5800 1750 5800 1450
Connection ~ 5500 1750
Wire Wire Line
	5500 1750 5500 1900
$Comp
L Device:R R13
U 1 1 5DD1B35A
P 10550 4650
F 0 "R13" V 10500 4450 50  0000 C CNN
F 1 "22R" V 10550 4650 50  0000 C CNN
F 2 "Resistors_SMD:R_0805" V 10480 4650 50  0001 C CNN
F 3 "~" H 10550 4650 50  0001 C CNN
	1    10550 4650
	0    1    1    0   
$EndComp
$Comp
L Device:R R14
U 1 1 5DD24752
P 10550 4750
F 0 "R14" V 10500 4550 50  0000 C CNN
F 1 "22R" V 10550 4750 50  0000 C CNN
F 2 "Resistors_SMD:R_0805" V 10480 4750 50  0001 C CNN
F 3 "~" H 10550 4750 50  0001 C CNN
	1    10550 4750
	0    1    1    0   
$EndComp
Wire Wire Line
	10700 4650 10800 4650
Wire Wire Line
	10700 4750 10800 4750
$Comp
L Device:CP_Small C8
U 1 1 5D35D8B9
P 9600 5100
F 0 "C8" V 9650 5150 50  0000 L CNN
F 1 "22µ" V 9500 5000 50  0000 L CNN
F 2 "Capacitors_SMD:CP_Elec_5x5.3" H 9600 5100 50  0001 C CNN
F 3 "~" H 9600 5100 50  0001 C CNN
	1    9600 5100
	1    0    0    -1  
$EndComp
Wire Notes Line
	11100 4000 8800 4000
Wire Notes Line
	8800 5600 11100 5600
Wire Notes Line
	11100 5600 11100 4000
Text Notes 9900 4550 0    24   ~ 0
Keep D+/D- traces short and equal length
Wire Wire Line
	6000 2550 6500 2550
$Comp
L Device:LED_Small D1
U 1 1 5D20289B
P 9000 3050
AR Path="/5D20289B" Ref="D1"  Part="1" 
AR Path="/5D2A4E4B/5D20289B" Ref="D?"  Part="1" 
AR Path="/5D378630/5D20289B" Ref="D?"  Part="1" 
F 0 "D1" V 9050 3000 50  0000 R CNN
F 1 "Green" V 8950 3000 50  0000 R CNN
F 2 "LEDs:LED_0603" V 9000 3050 50  0001 C CNN
F 3 "~" V 9000 3050 50  0001 C CNN
F 4 "Power" V 8900 3000 24  0000 R CNN "Function"
	1    9000 3050
	0    -1   -1   0   
$EndComp
Text Notes 7750 1650 0    39   ~ 0
D8
Text Notes 7750 1750 0    39   ~ 0
D9
Text Notes 7750 1850 0    39   ~ 0
D10
Text Notes 7750 1950 0    39   ~ 0
D11
Text Notes 7750 2150 0    39   ~ 0
D5
Text Notes 7750 2250 0    39   ~ 0
D13
Text Notes 7750 2850 0    39   ~ 0
D4
Text Notes 7750 3050 0    39   ~ 0
D12
Text Notes 7750 3450 0    39   ~ 0
D7
Text Notes 7750 3650 0    39   ~ 0
A5
Text Notes 7750 3750 0    39   ~ 0
A4
Text Notes 7750 3850 0    39   ~ 0
A3
Text Notes 7750 3950 0    39   ~ 0
A2
Text Notes 7750 4050 0    39   ~ 0
A1
Text Notes 7750 4150 0    39   ~ 0
A0
$Comp
L Device:C_Small C5
U 1 1 5D38C4FC
P 6000 2750
F 0 "C5" H 6088 2796 50  0000 L CNN
F 1 "1µ" H 6088 2705 50  0000 L CNN
F 2 "Capacitors_SMD:C_0805" H 6000 2750 50  0001 C CNN
F 3 "~" H 6000 2750 50  0001 C CNN
	1    6000 2750
	1    0    0    -1  
$EndComp
Wire Wire Line
	6000 2550 6000 2650
$Comp
L power:GND #PWR029
U 1 1 5D3992F9
P 6000 2950
F 0 "#PWR029" H 6000 2700 50  0001 C CNN
F 1 "GND" H 6005 2777 50  0000 C CNN
F 2 "" H 6000 2950 50  0001 C CNN
F 3 "" H 6000 2950 50  0001 C CNN
	1    6000 2950
	1    0    0    -1  
$EndComp
Wire Wire Line
	6000 2850 6000 2950
$Comp
L power:+5V #PWR?
U 1 1 5D3A1C2E
P 9300 2450
AR Path="/5D2A4E4B/5D3A1C2E" Ref="#PWR?"  Part="1" 
AR Path="/5D378630/5D3A1C2E" Ref="#PWR?"  Part="1" 
AR Path="/5D3A1C2E" Ref="#PWR045"  Part="1" 
F 0 "#PWR045" H 9300 2300 50  0001 C CNN
F 1 "+5V" H 9315 2623 50  0000 C CNN
F 2 "" H 9300 2450 50  0001 C CNN
F 3 "" H 9300 2450 50  0001 C CNN
	1    9300 2450
	1    0    0    -1  
$EndComp
$Comp
L power:+5V #PWR?
U 1 1 5D3A7CC5
P 9600 2450
AR Path="/5D2A4E4B/5D3A7CC5" Ref="#PWR?"  Part="1" 
AR Path="/5D378630/5D3A7CC5" Ref="#PWR?"  Part="1" 
AR Path="/5D3A7CC5" Ref="#PWR047"  Part="1" 
F 0 "#PWR047" H 9600 2300 50  0001 C CNN
F 1 "+5V" H 9615 2623 50  0000 C CNN
F 2 "" H 9600 2450 50  0001 C CNN
F 3 "" H 9600 2450 50  0001 C CNN
	1    9600 2450
	1    0    0    -1  
$EndComp
Text GLabel 9300 3250 3    50   Input ~ 0
UpTxLED
Text Notes 7750 2750 0    39   ~ 0
D1/TX
Text Notes 7750 2650 0    39   ~ 0
D0/RX
$Comp
L Connector_Generic:Conn_01x02 J3
U 1 1 5D60F054
P 950 3100
F 0 "J3" H 950 3200 50  0000 C CNN
F 1 "Force Fan 1" H 1200 2900 50  0000 R CNN
F 2 "Pin_Headers:Pin_Header_Straight_1x02_Pitch2.54mm" H 950 3100 50  0001 C CNN
F 3 "~" H 950 3100 50  0001 C CNN
	1    950  3100
	-1   0    0    -1  
$EndComp
Wire Wire Line
	2350 3100 2250 3100
$Comp
L Isolator:TLP291 U?
U 1 1 5D64EA10
P 1950 3200
AR Path="/5D0787A0/5D64EA10" Ref="U?"  Part="1" 
AR Path="/5D64EA10" Ref="U3"  Part="1" 
F 0 "U3" H 1950 3525 50  0000 C CNN
F 1 "TLP291" H 1950 3434 50  0000 C CNN
F 2 "Housings_SSOP:SOP-4_4.4x2.8mm_Pitch1.27mm" H 1750 3000 50  0001 L CIN
F 3 "https://toshiba.semicon-storage.com/info/docget.jsp?did=12884&prodName=TLP291" H 1950 3200 50  0001 L CNN
	1    1950 3200
	1    0    0    -1  
$EndComp
$Comp
L Regulator_Switching:TSR_1-2450 U2
U 1 1 5D896CA1
P 3850 5900
AR Path="/5D896CA1" Ref="U2"  Part="1" 
AR Path="/5D228DDC/5D896CA1" Ref="U?"  Part="1" 
F 0 "U2" H 3850 6267 50  0000 C CNN
F 1 "TSR_1-2450" H 3850 6176 50  0000 C CNN
F 2 "Converters_DCDC_ACDC:DCDC-Conv_TRACO_TSR-1" H 3850 5750 50  0001 L CIN
F 3 "http://www.tracopower.com/products/tsr1.pdf" H 3850 5900 50  0001 C CNN
	1    3850 5900
	1    0    0    -1  
$EndComp
Wire Wire Line
	2850 5600 2850 5800
Wire Wire Line
	3350 5800 3450 5800
$Comp
L power:GND #PWR016
U 1 1 5D896CAF
P 3850 6200
AR Path="/5D896CAF" Ref="#PWR016"  Part="1" 
AR Path="/5D228DDC/5D896CAF" Ref="#PWR?"  Part="1" 
F 0 "#PWR016" H 3850 5950 50  0001 C CNN
F 1 "GND" H 3855 6027 50  0000 C CNN
F 2 "" H 3850 6200 50  0001 C CNN
F 3 "" H 3850 6200 50  0001 C CNN
	1    3850 6200
	1    0    0    -1  
$EndComp
Wire Wire Line
	3850 6200 3850 6100
$Comp
L power:+5V #PWR017
U 1 1 5D896CB6
P 4350 5600
AR Path="/5D896CB6" Ref="#PWR017"  Part="1" 
AR Path="/5D228DDC/5D896CB6" Ref="#PWR?"  Part="1" 
F 0 "#PWR017" H 4350 5450 50  0001 C CNN
F 1 "+5V" H 4365 5773 50  0000 C CNN
F 2 "" H 4350 5600 50  0001 C CNN
F 3 "" H 4350 5600 50  0001 C CNN
	1    4350 5600
	1    0    0    -1  
$EndComp
Wire Wire Line
	4250 5800 4350 5800
Wire Wire Line
	4350 5800 4350 5600
Wire Wire Line
	2550 5600 2550 5700
Wire Wire Line
	2450 5700 2550 5700
$Comp
L power:GND #PWR09
U 1 1 5D896CCE
P 2550 5900
AR Path="/5D896CCE" Ref="#PWR09"  Part="1" 
AR Path="/5D228DDC/5D896CCE" Ref="#PWR?"  Part="1" 
F 0 "#PWR09" H 2550 5650 50  0001 C CNN
F 1 "GND" H 2555 5727 50  0000 C CNN
F 2 "" H 2550 5900 50  0001 C CNN
F 3 "" H 2550 5900 50  0001 C CNN
	1    2550 5900
	1    0    0    -1  
$EndComp
Wire Wire Line
	2450 5800 2550 5800
Wire Wire Line
	2550 5800 2550 5900
$Comp
L Device:C_Small C4
U 1 1 5D896CD7
P 6050 5800
AR Path="/5D896CD7" Ref="C4"  Part="1" 
AR Path="/5D228DDC/5D896CD7" Ref="C?"  Part="1" 
F 0 "C4" H 6142 5846 50  0000 L CNN
F 1 "100n" H 6142 5755 50  0000 L CNN
F 2 "Capacitors_SMD:C_0805" H 6050 5800 50  0001 C CNN
F 3 "~" H 6050 5800 50  0001 C CNN
F 4 "Place close to U1" V 5950 5800 24  0000 C CNN "Notes"
	1    6050 5800
	1    0    0    -1  
$EndComp
$Comp
L power:+5V #PWR026
U 1 1 5D896CDD
P 6050 5600
AR Path="/5D896CDD" Ref="#PWR026"  Part="1" 
AR Path="/5D228DDC/5D896CDD" Ref="#PWR?"  Part="1" 
F 0 "#PWR026" H 6050 5450 50  0001 C CNN
F 1 "+5V" H 6065 5773 50  0000 C CNN
F 2 "" H 6050 5600 50  0001 C CNN
F 3 "" H 6050 5600 50  0001 C CNN
	1    6050 5600
	1    0    0    -1  
$EndComp
Wire Wire Line
	6050 5700 6050 5600
$Comp
L power:+5V #PWR022
U 1 1 5D896CE4
P 5600 5600
AR Path="/5D896CE4" Ref="#PWR022"  Part="1" 
AR Path="/5D228DDC/5D896CE4" Ref="#PWR?"  Part="1" 
F 0 "#PWR022" H 5600 5450 50  0001 C CNN
F 1 "+5V" H 5615 5773 50  0000 C CNN
F 2 "" H 5600 5600 50  0001 C CNN
F 3 "" H 5600 5600 50  0001 C CNN
	1    5600 5600
	1    0    0    -1  
$EndComp
Wire Wire Line
	5600 5700 5600 5600
$Comp
L power:GND #PWR027
U 1 1 5D896CEB
P 6050 6000
AR Path="/5D896CEB" Ref="#PWR027"  Part="1" 
AR Path="/5D228DDC/5D896CEB" Ref="#PWR?"  Part="1" 
F 0 "#PWR027" H 6050 5750 50  0001 C CNN
F 1 "GND" H 6055 5827 50  0000 C CNN
F 2 "" H 6050 6000 50  0001 C CNN
F 3 "" H 6050 6000 50  0001 C CNN
	1    6050 6000
	1    0    0    -1  
$EndComp
Wire Wire Line
	6050 6000 6050 5900
$Comp
L power:GND #PWR023
U 1 1 5D896CF2
P 5600 6000
AR Path="/5D896CF2" Ref="#PWR023"  Part="1" 
AR Path="/5D228DDC/5D896CF2" Ref="#PWR?"  Part="1" 
F 0 "#PWR023" H 5600 5750 50  0001 C CNN
F 1 "GND" H 5605 5827 50  0000 C CNN
F 2 "" H 5600 6000 50  0001 C CNN
F 3 "" H 5600 6000 50  0001 C CNN
	1    5600 6000
	1    0    0    -1  
$EndComp
Wire Wire Line
	5600 6000 5600 5900
$Comp
L power:+5V #PWR021
U 1 1 5D896CF9
P 5250 5600
AR Path="/5D896CF9" Ref="#PWR021"  Part="1" 
AR Path="/5D228DDC/5D896CF9" Ref="#PWR?"  Part="1" 
F 0 "#PWR021" H 5250 5450 50  0001 C CNN
F 1 "+5V" H 5265 5773 50  0000 C CNN
F 2 "" H 5250 5600 50  0001 C CNN
F 3 "" H 5250 5600 50  0001 C CNN
	1    5250 5600
	1    0    0    -1  
$EndComp
Wire Wire Line
	5250 5800 5250 5600
$Comp
L power:VBUS #PWR019
U 1 1 5D896D00
P 4650 5600
AR Path="/5D896D00" Ref="#PWR019"  Part="1" 
AR Path="/5D228DDC/5D896D00" Ref="#PWR?"  Part="1" 
F 0 "#PWR019" H 4650 5450 50  0001 C CNN
F 1 "VBUS" H 4665 5773 50  0000 C CNN
F 2 "" H 4650 5600 50  0001 C CNN
F 3 "" H 4650 5600 50  0001 C CNN
	1    4650 5600
	1    0    0    -1  
$EndComp
Wire Wire Line
	4650 5600 4650 5800
$Comp
L Device:C_Small C7
U 1 1 5D896D08
P 6500 5800
AR Path="/5D896D08" Ref="C7"  Part="1" 
AR Path="/5D228DDC/5D896D08" Ref="C?"  Part="1" 
F 0 "C7" H 6592 5846 50  0000 L CNN
F 1 "100n" H 6592 5755 50  0000 L CNN
F 2 "Capacitors_SMD:C_0805" H 6500 5800 50  0001 C CNN
F 3 "~" H 6500 5800 50  0001 C CNN
F 4 "Place close to U1, pin 7" V 6400 5800 24  0000 C CNN "Notes"
	1    6500 5800
	1    0    0    -1  
$EndComp
Wire Wire Line
	6500 5700 6500 5600
$Comp
L power:GND #PWR031
U 1 1 5D896D0F
P 6500 6000
AR Path="/5D896D0F" Ref="#PWR031"  Part="1" 
AR Path="/5D228DDC/5D896D0F" Ref="#PWR?"  Part="1" 
F 0 "#PWR031" H 6500 5750 50  0001 C CNN
F 1 "GND" H 6505 5827 50  0000 C CNN
F 2 "" H 6500 6000 50  0001 C CNN
F 3 "" H 6500 6000 50  0001 C CNN
	1    6500 6000
	1    0    0    -1  
$EndComp
Wire Wire Line
	6500 6000 6500 5900
$Comp
L power:VBUS #PWR030
U 1 1 5D896D16
P 6500 5600
AR Path="/5D896D16" Ref="#PWR030"  Part="1" 
AR Path="/5D228DDC/5D896D16" Ref="#PWR?"  Part="1" 
F 0 "#PWR030" H 6500 5450 50  0001 C CNN
F 1 "VBUS" H 6515 5773 50  0000 C CNN
F 2 "" H 6500 5600 50  0001 C CNN
F 3 "" H 6500 5600 50  0001 C CNN
	1    6500 5600
	1    0    0    -1  
$EndComp
$Comp
L Transistor_FET:BSS83P Q?
U 1 1 5D896D69
P 4950 5700
AR Path="/5D228DDC/5D896D69" Ref="Q?"  Part="1" 
AR Path="/5D896D69" Ref="Q2"  Part="1" 
F 0 "Q2" V 5201 5700 50  0000 C CNN
F 1 "BSS83PH6327" V 5292 5700 50  0000 C CNN
F 2 "TO_SOT_Packages_SMD:SOT-23" H 5150 5625 50  0001 L CIN
F 3 "https://docs-emea.rs-online.com/webdocs/12e0/0900766b812e0578.pdf" H 4950 5700 50  0001 L CNN
	1    4950 5700
	0    1    1    0   
$EndComp
Wire Wire Line
	5250 5800 5150 5800
Wire Wire Line
	4650 5800 4750 5800
Wire Wire Line
	4950 5400 4950 5500
$Comp
L Transistor_FET:BSS83P Q?
U 1 1 5D896D78
P 3150 5700
AR Path="/5D228DDC/5D896D78" Ref="Q?"  Part="1" 
AR Path="/5D896D78" Ref="Q1"  Part="1" 
F 0 "Q1" V 3401 5700 50  0000 C CNN
F 1 "BSS83PH6327" V 3492 5700 50  0000 C CNN
F 2 "TO_SOT_Packages_SMD:SOT-23" H 3350 5625 50  0001 L CIN
F 3 "https://docs-emea.rs-online.com/webdocs/12e0/0900766b812e0578.pdf" H 3150 5700 50  0001 L CNN
	1    3150 5700
	0    1    1    0   
$EndComp
$Comp
L power:+5V #PWR011
U 1 1 5D896D7E
P 3150 5400
AR Path="/5D896D7E" Ref="#PWR011"  Part="1" 
AR Path="/5D228DDC/5D896D7E" Ref="#PWR?"  Part="1" 
F 0 "#PWR011" H 3150 5250 50  0001 C CNN
F 1 "+5V" H 3165 5573 50  0000 C CNN
F 2 "" H 3150 5400 50  0001 C CNN
F 3 "" H 3150 5400 50  0001 C CNN
	1    3150 5400
	1    0    0    -1  
$EndComp
Wire Wire Line
	3150 5500 3150 5400
Wire Wire Line
	2850 5800 2950 5800
Wire Notes Line
	1900 6450 6850 6450
Wire Notes Line
	6850 6450 6850 5100
Wire Notes Line
	6850 5100 1900 5100
Text Notes 1950 5200 0    50   ~ 0
Power
$Comp
L Device:CP_Small C1
U 1 1 5D896DAD
P 5600 5800
AR Path="/5D896DAD" Ref="C1"  Part="1" 
AR Path="/5D228DDC/5D896DAD" Ref="C?"  Part="1" 
F 0 "C1" H 5688 5846 50  0000 L CNN
F 1 "22µ" H 5688 5755 50  0000 L CNN
F 2 "Capacitors_SMD:CP_Elec_5x5.3" H 5600 5800 50  0001 C CNN
F 3 "~" H 5600 5800 50  0001 C CNN
F 4 "Place close to U2" V 5500 5800 24  0000 C CNN "Notes"
	1    5600 5800
	1    0    0    -1  
$EndComp
$Comp
L Connector_Generic:Conn_01x04 J2
U 1 1 5DAADBF9
P 950 2300
F 0 "J2" H 950 2500 50  0000 C CNN
F 1 "Fan 1" H 1050 2000 50  0000 R CNN
F 2 "Pin_Headers:Pin_Header_Straight_1x04_Pitch2.54mm" H 950 2300 50  0001 C CNN
F 3 "~" H 950 2300 50  0001 C CNN
	1    950  2300
	-1   0    0    -1  
$EndComp
Text GLabel 1350 2300 2    50   Input ~ 0
FAN1_PWM
Wire Wire Line
	1150 2300 1350 2300
Wire Wire Line
	1150 2200 1350 2200
Wire Wire Line
	1350 2200 1350 2100
$Comp
L power:GND #PWR04
U 1 1 5DAADC09
P 1350 2600
F 0 "#PWR04" H 1350 2350 50  0001 C CNN
F 1 "GND" H 1355 2427 50  0000 C CNN
F 2 "" H 1350 2600 50  0001 C CNN
F 3 "" H 1350 2600 50  0001 C CNN
	1    1350 2600
	1    0    0    -1  
$EndComp
Wire Wire Line
	1350 2600 1350 2500
Wire Wire Line
	1150 2500 1350 2500
$Comp
L power:+24V #PWR08
U 1 1 5DAB6118
P 2550 5600
F 0 "#PWR08" H 2550 5450 50  0001 C CNN
F 1 "+24V" H 2565 5773 50  0000 C CNN
F 2 "" H 2550 5600 50  0001 C CNN
F 3 "" H 2550 5600 50  0001 C CNN
	1    2550 5600
	1    0    0    -1  
$EndComp
$Comp
L power:+24V #PWR010
U 1 1 5DAB72F3
P 2850 5600
F 0 "#PWR010" H 2850 5450 50  0001 C CNN
F 1 "+24V" H 2865 5773 50  0000 C CNN
F 2 "" H 2850 5600 50  0001 C CNN
F 3 "" H 2850 5600 50  0001 C CNN
	1    2850 5600
	1    0    0    -1  
$EndComp
$Comp
L power:+24V #PWR020
U 1 1 5DAB7D93
P 4950 5400
F 0 "#PWR020" H 4950 5250 50  0001 C CNN
F 1 "+24V" H 4965 5573 50  0000 C CNN
F 2 "" H 4950 5400 50  0001 C CNN
F 3 "" H 4950 5400 50  0001 C CNN
	1    4950 5400
	1    0    0    -1  
$EndComp
Text GLabel 1350 2400 2    50   Output ~ 0
FAN1_TACH
Wire Wire Line
	1150 2400 1350 2400
$Comp
L Connector_Generic:Conn_01x04 J5
U 1 1 5DACB14E
P 3050 2300
F 0 "J5" H 3050 2500 50  0000 C CNN
F 1 "Fan 2" H 3150 2000 50  0000 R CNN
F 2 "Pin_Headers:Pin_Header_Straight_1x04_Pitch2.54mm" H 3050 2300 50  0001 C CNN
F 3 "~" H 3050 2300 50  0001 C CNN
	1    3050 2300
	-1   0    0    -1  
$EndComp
Text GLabel 3450 2300 2    50   Input ~ 0
FAN2_PWM
Wire Wire Line
	3250 2300 3450 2300
Wire Wire Line
	3250 2200 3450 2200
Wire Wire Line
	3450 2200 3450 2100
$Comp
L power:GND #PWR015
U 1 1 5DACB15E
P 3450 2600
F 0 "#PWR015" H 3450 2350 50  0001 C CNN
F 1 "GND" H 3455 2427 50  0000 C CNN
F 2 "" H 3450 2600 50  0001 C CNN
F 3 "" H 3450 2600 50  0001 C CNN
	1    3450 2600
	1    0    0    -1  
$EndComp
Wire Wire Line
	3450 2600 3450 2500
Wire Wire Line
	3250 2500 3450 2500
Text GLabel 3450 2400 2    50   Output ~ 0
FAN2_TACH
Wire Wire Line
	3250 2400 3450 2400
Wire Wire Line
	9900 2450 9900 2550
Wire Wire Line
	9900 2750 9900 2850
Wire Wire Line
	9900 3150 9900 3250
$Comp
L Device:LED_Small D4
U 1 1 5DAFECC7
P 9900 2650
AR Path="/5DAFECC7" Ref="D4"  Part="1" 
AR Path="/5D2A4E4B/5DAFECC7" Ref="D?"  Part="1" 
AR Path="/5D378630/5DAFECC7" Ref="D?"  Part="1" 
F 0 "D4" V 9950 2600 50  0000 R CNN
F 1 "Blue" V 9850 2600 50  0000 R CNN
F 2 "LEDs:LED_0603" V 9900 2650 50  0001 C CNN
F 3 "~" V 9900 2650 50  0001 C CNN
F 4 "Fan1 active" V 9800 2600 24  0000 R CNN "Function"
	1    9900 2650
	0    -1   -1   0   
$EndComp
Text GLabel 9900 3250 3    50   Input ~ 0
FAN1_ACTIVE
$Comp
L Device:R R?
U 1 1 5DAFECCE
P 9900 3000
AR Path="/5D2A4E4B/5DAFECCE" Ref="R?"  Part="1" 
AR Path="/5D378630/5DAFECCE" Ref="R?"  Part="1" 
AR Path="/5DAFECCE" Ref="R10"  Part="1" 
F 0 "R10" H 9970 3046 50  0000 L CNN
F 1 "330" H 9970 2955 50  0000 L CNN
F 2 "Resistors_SMD:R_0805" V 9830 3000 50  0001 C CNN
F 3 "~" H 9900 3000 50  0001 C CNN
	1    9900 3000
	1    0    0    -1  
$EndComp
$Comp
L power:+5V #PWR?
U 1 1 5DAFECD4
P 9900 2450
AR Path="/5D2A4E4B/5DAFECD4" Ref="#PWR?"  Part="1" 
AR Path="/5D378630/5DAFECD4" Ref="#PWR?"  Part="1" 
AR Path="/5DAFECD4" Ref="#PWR050"  Part="1" 
F 0 "#PWR050" H 9900 2300 50  0001 C CNN
F 1 "+5V" H 9915 2623 50  0000 C CNN
F 2 "" H 9900 2450 50  0001 C CNN
F 3 "" H 9900 2450 50  0001 C CNN
	1    9900 2450
	1    0    0    -1  
$EndComp
Wire Wire Line
	10200 2450 10200 2550
Wire Wire Line
	10200 2750 10200 2850
Wire Wire Line
	10200 3150 10200 3250
$Comp
L Device:LED_Small D5
U 1 1 5DB06ECC
P 10200 2650
AR Path="/5DB06ECC" Ref="D5"  Part="1" 
AR Path="/5D2A4E4B/5DB06ECC" Ref="D?"  Part="1" 
AR Path="/5D378630/5DB06ECC" Ref="D?"  Part="1" 
F 0 "D5" V 10250 2600 50  0000 R CNN
F 1 "Blue" V 10150 2600 50  0000 R CNN
F 2 "LEDs:LED_0603" V 10200 2650 50  0001 C CNN
F 3 "~" V 10200 2650 50  0001 C CNN
F 4 "Fan2 active" V 10100 2600 24  0000 R CNN "Function"
	1    10200 2650
	0    -1   -1   0   
$EndComp
$Comp
L Device:R R?
U 1 1 5DB06ED3
P 10200 3000
AR Path="/5D2A4E4B/5DB06ED3" Ref="R?"  Part="1" 
AR Path="/5D378630/5DB06ED3" Ref="R?"  Part="1" 
AR Path="/5DB06ED3" Ref="R11"  Part="1" 
F 0 "R11" H 10270 3046 50  0000 L CNN
F 1 "330" H 10270 2955 50  0000 L CNN
F 2 "Resistors_SMD:R_0805" V 10130 3000 50  0001 C CNN
F 3 "~" H 10200 3000 50  0001 C CNN
	1    10200 3000
	1    0    0    -1  
$EndComp
$Comp
L power:+5V #PWR?
U 1 1 5DB06ED9
P 10200 2450
AR Path="/5D2A4E4B/5DB06ED9" Ref="#PWR?"  Part="1" 
AR Path="/5D378630/5DB06ED9" Ref="#PWR?"  Part="1" 
AR Path="/5DB06ED9" Ref="#PWR053"  Part="1" 
F 0 "#PWR053" H 10200 2300 50  0001 C CNN
F 1 "+5V" H 10215 2623 50  0000 C CNN
F 2 "" H 10200 2450 50  0001 C CNN
F 3 "" H 10200 2450 50  0001 C CNN
	1    10200 2450
	1    0    0    -1  
$EndComp
Wire Wire Line
	10500 2450 10500 2550
Wire Wire Line
	10500 2750 10500 2850
Wire Wire Line
	10500 3150 10500 3250
$Comp
L Device:LED_Small D6
U 1 1 5DB1F470
P 10500 2650
AR Path="/5DB1F470" Ref="D6"  Part="1" 
AR Path="/5D2A4E4B/5DB1F470" Ref="D?"  Part="1" 
AR Path="/5D378630/5DB1F470" Ref="D?"  Part="1" 
F 0 "D6" V 10550 2600 50  0000 R CNN
F 1 "Red" V 10450 2600 50  0000 R CNN
F 2 "LEDs:LED_0603" V 10500 2650 50  0001 C CNN
F 3 "~" V 10500 2650 50  0001 C CNN
F 4 "Fan1 error" V 10400 2600 24  0000 R CNN "Function"
	1    10500 2650
	0    -1   -1   0   
$EndComp
Text GLabel 10500 3250 3    50   Input ~ 0
FAN1_ERROR
$Comp
L Device:R R?
U 1 1 5DB1F477
P 10500 3000
AR Path="/5D2A4E4B/5DB1F477" Ref="R?"  Part="1" 
AR Path="/5D378630/5DB1F477" Ref="R?"  Part="1" 
AR Path="/5DB1F477" Ref="R12"  Part="1" 
F 0 "R12" H 10570 3046 50  0000 L CNN
F 1 "330" H 10570 2955 50  0000 L CNN
F 2 "Resistors_SMD:R_0805" V 10430 3000 50  0001 C CNN
F 3 "~" H 10500 3000 50  0001 C CNN
	1    10500 3000
	1    0    0    -1  
$EndComp
$Comp
L power:+5V #PWR?
U 1 1 5DB1F47D
P 10500 2450
AR Path="/5D2A4E4B/5DB1F47D" Ref="#PWR?"  Part="1" 
AR Path="/5D378630/5DB1F47D" Ref="#PWR?"  Part="1" 
AR Path="/5DB1F47D" Ref="#PWR056"  Part="1" 
F 0 "#PWR056" H 10500 2300 50  0001 C CNN
F 1 "+5V" H 10515 2623 50  0000 C CNN
F 2 "" H 10500 2450 50  0001 C CNN
F 3 "" H 10500 2450 50  0001 C CNN
	1    10500 2450
	1    0    0    -1  
$EndComp
Wire Wire Line
	10800 2450 10800 2550
Wire Wire Line
	10800 2750 10800 2850
Wire Wire Line
	10800 3150 10800 3250
$Comp
L Device:LED_Small D7
U 1 1 5DB1F487
P 10800 2650
AR Path="/5DB1F487" Ref="D7"  Part="1" 
AR Path="/5D2A4E4B/5DB1F487" Ref="D?"  Part="1" 
AR Path="/5D378630/5DB1F487" Ref="D?"  Part="1" 
F 0 "D7" V 10850 2600 50  0000 R CNN
F 1 "Red" V 10750 2600 50  0000 R CNN
F 2 "LEDs:LED_0603" V 10800 2650 50  0001 C CNN
F 3 "~" V 10800 2650 50  0001 C CNN
F 4 "Fan2 error" V 10700 2600 24  0000 R CNN "Function"
	1    10800 2650
	0    -1   -1   0   
$EndComp
Text GLabel 10800 3250 3    50   Input ~ 0
FAN2_ERROR
$Comp
L Device:R R?
U 1 1 5DB1F48E
P 10800 3000
AR Path="/5D2A4E4B/5DB1F48E" Ref="R?"  Part="1" 
AR Path="/5D378630/5DB1F48E" Ref="R?"  Part="1" 
AR Path="/5DB1F48E" Ref="R15"  Part="1" 
F 0 "R15" H 10870 3046 50  0000 L CNN
F 1 "330" H 10870 2955 50  0000 L CNN
F 2 "Resistors_SMD:R_0805" V 10730 3000 50  0001 C CNN
F 3 "~" H 10800 3000 50  0001 C CNN
	1    10800 3000
	1    0    0    -1  
$EndComp
$Comp
L power:+5V #PWR?
U 1 1 5DB1F494
P 10800 2450
AR Path="/5D2A4E4B/5DB1F494" Ref="#PWR?"  Part="1" 
AR Path="/5D378630/5DB1F494" Ref="#PWR?"  Part="1" 
AR Path="/5DB1F494" Ref="#PWR057"  Part="1" 
F 0 "#PWR057" H 10800 2300 50  0001 C CNN
F 1 "+5V" H 10815 2623 50  0000 C CNN
F 2 "" H 10800 2450 50  0001 C CNN
F 3 "" H 10800 2450 50  0001 C CNN
	1    10800 2450
	1    0    0    -1  
$EndComp
$Comp
L Connector_Generic:Conn_01x06 J1
U 1 1 5DB60001
P 950 1150
F 0 "J1" H 950 1450 50  0000 C CNN
F 1 "Therm1" H 1050 750 50  0000 R CNN
F 2 "Pin_Headers:Pin_Header_Straight_1x06_Pitch2.54mm" H 950 1150 50  0001 C CNN
F 3 "~" H 950 1150 50  0001 C CNN
	1    950  1150
	-1   0    0    -1  
$EndComp
$Comp
L power:+5V #PWR01
U 1 1 5DB60009
P 1250 850
F 0 "#PWR01" H 1250 700 50  0001 C CNN
F 1 "+5V" H 1265 1023 50  0000 C CNN
F 2 "" H 1250 850 50  0001 C CNN
F 3 "" H 1250 850 50  0001 C CNN
	1    1250 850 
	1    0    0    -1  
$EndComp
Wire Wire Line
	1150 950  1250 950 
Wire Wire Line
	1250 950  1250 850 
$Comp
L power:GND #PWR02
U 1 1 5DB60011
P 1250 1550
F 0 "#PWR02" H 1250 1300 50  0001 C CNN
F 1 "GND" H 1255 1377 50  0000 C CNN
F 2 "" H 1250 1550 50  0001 C CNN
F 3 "" H 1250 1550 50  0001 C CNN
	1    1250 1550
	1    0    0    -1  
$EndComp
Wire Wire Line
	1250 1550 1250 1450
Wire Wire Line
	1150 1450 1250 1450
Text Notes 7750 2450 0    39   ~ 0
D3/SCL
Text Notes 7750 2550 0    39   ~ 0
D2/SDA
Text GLabel 8050 2750 2    50   Output ~ 0
FAN1_ACTIVE
Text GLabel 10200 3250 3    50   Input ~ 0
FAN2_ACTIVE
Text GLabel 8050 3450 2    50   Output ~ 0
FAN1_ERROR
Text GLabel 8050 3050 2    50   Output ~ 0
FAN2_ERROR
$Comp
L Connector_Generic:Conn_01x06 J4
U 1 1 5DBA3B0C
P 3050 1100
F 0 "J4" H 3050 1400 50  0000 C CNN
F 1 "Therm2" H 3150 700 50  0000 R CNN
F 2 "Pin_Headers:Pin_Header_Straight_1x06_Pitch2.54mm" H 3050 1100 50  0001 C CNN
F 3 "~" H 3050 1100 50  0001 C CNN
	1    3050 1100
	-1   0    0    -1  
$EndComp
$Comp
L power:+5V #PWR012
U 1 1 5DBA3B14
P 3350 800
F 0 "#PWR012" H 3350 650 50  0001 C CNN
F 1 "+5V" H 3365 973 50  0000 C CNN
F 2 "" H 3350 800 50  0001 C CNN
F 3 "" H 3350 800 50  0001 C CNN
	1    3350 800 
	1    0    0    -1  
$EndComp
Wire Wire Line
	3250 900  3350 900 
Wire Wire Line
	3350 900  3350 800 
$Comp
L Device:R R1
U 1 1 5DBBE889
P 1400 3100
AR Path="/5DBBE889" Ref="R1"  Part="1" 
AR Path="/5D0787A0/5DBBE889" Ref="R?"  Part="1" 
AR Path="/5D31DC1A/5DBBE889" Ref="R?"  Part="1" 
AR Path="/5D320449/5DBBE889" Ref="R?"  Part="1" 
AR Path="/5D323D0A/5DBBE889" Ref="R?"  Part="1" 
F 0 "R1" V 1500 3050 50  0000 L CNN
F 1 "2K7" V 1400 3050 50  0000 L CNN
F 2 "Resistors_SMD:R_1206" V 1330 3100 50  0001 C CNN
F 3 "~" H 1400 3100 50  0001 C CNN
F 4 "0.5W" V 1300 3100 50  0000 C CNN "Power"
	1    1400 3100
	0    1    -1   0   
$EndComp
Wire Wire Line
	1150 3100 1250 3100
Wire Wire Line
	1150 3200 1250 3200
Wire Wire Line
	1250 3200 1250 3300
Wire Wire Line
	1250 3300 1650 3300
Wire Wire Line
	1550 3100 1650 3100
$Comp
L power:GND #PWR07
U 1 1 5DBDBA76
P 2350 3400
F 0 "#PWR07" H 2350 3150 50  0001 C CNN
F 1 "GND" H 2355 3227 50  0000 C CNN
F 2 "" H 2350 3400 50  0001 C CNN
F 3 "" H 2350 3400 50  0001 C CNN
	1    2350 3400
	1    0    0    -1  
$EndComp
Wire Wire Line
	2350 3400 2350 3300
Wire Wire Line
	2250 3300 2350 3300
Text GLabel 2350 3100 2    50   Output ~ 0
FORCE
Wire Notes Line
	5050 550  600  550 
Wire Notes Line
	600  550  600  4950
Wire Notes Line
	5050 4950 5050 550 
Wire Notes Line
	600  4950 5050 4950
Text GLabel 8050 1950 2    50   Input ~ 0
FORCE
Text GLabel 8050 1750 2    50   Input ~ 0
FAN1_TACH
Text GLabel 8050 1850 2    50   Input ~ 0
FAN2_TACH
Text GLabel 8050 2150 2    50   Output ~ 0
FAN1_PWM
Text GLabel 8050 3150 2    50   Output ~ 0
FAN2_PWM
Text GLabel 8050 2650 2    50   Output ~ 0
FAN2_ACTIVE
Text Notes 7750 3150 0    39   ~ 0
D6
Wire Wire Line
	8050 2150 7700 2150
Wire Wire Line
	7700 3150 8050 3150
Wire Notes Line
	1900 5100 1900 6450
$Comp
L power:+24V #PWR03
U 1 1 5E00BA07
P 1350 2100
F 0 "#PWR03" H 1350 1950 50  0001 C CNN
F 1 "+24V" H 1365 2273 50  0000 C CNN
F 2 "" H 1350 2100 50  0001 C CNN
F 3 "" H 1350 2100 50  0001 C CNN
	1    1350 2100
	1    0    0    -1  
$EndComp
$Comp
L power:+24V #PWR058
U 1 1 5E00BF81
P 3450 2100
F 0 "#PWR058" H 3450 1950 50  0001 C CNN
F 1 "+24V" H 3465 2273 50  0000 C CNN
F 2 "" H 3450 2100 50  0001 C CNN
F 3 "" H 3450 2100 50  0001 C CNN
	1    3450 2100
	1    0    0    -1  
$EndComp
Wire Wire Line
	8050 2850 7700 2850
Text GLabel 8050 2850 2    50   Input ~ 0
DISABLE_FAN2
$Comp
L Connector_Generic:Conn_01x02 J7
U 1 1 5D896DA6
P 2250 5700
AR Path="/5D896DA6" Ref="J7"  Part="1" 
AR Path="/5D228DDC/5D896DA6" Ref="J?"  Part="1" 
F 0 "J7" H 2350 5700 50  0000 L CNN
F 1 "Power" H 2350 5600 50  0000 L CNN
F 2 "TerminalBlocks_Phoenix:TerminalBlock_Phoenix_PT-3.5mm_2pol" H 2250 5700 50  0001 C CNN
F 3 "~" H 2250 5700 50  0001 C CNN
	1    2250 5700
	-1   0    0    -1  
$EndComp
$Comp
L Mechanical:MountingHole H1
U 1 1 5E4890FB
P 850 5550
F 0 "H1" H 950 5596 50  0000 L CNN
F 1 "MountingHole" H 950 5505 50  0000 L CNN
F 2 "Mounting_Holes:MountingHole_3.2mm_M3" H 850 5550 50  0001 C CNN
F 3 "~" H 850 5550 50  0001 C CNN
	1    850  5550
	1    0    0    -1  
$EndComp
$Comp
L Mechanical:MountingHole H2
U 1 1 5E48922A
P 850 5750
F 0 "H2" H 950 5796 50  0000 L CNN
F 1 "MountingHole" H 950 5705 50  0000 L CNN
F 2 "Mounting_Holes:MountingHole_3.2mm_M3" H 850 5750 50  0001 C CNN
F 3 "~" H 850 5750 50  0001 C CNN
	1    850  5750
	1    0    0    -1  
$EndComp
$Comp
L Mechanical:MountingHole H3
U 1 1 5E489380
P 850 5950
F 0 "H3" H 950 5996 50  0000 L CNN
F 1 "MountingHole" H 950 5905 50  0000 L CNN
F 2 "Mounting_Holes:MountingHole_3.2mm_M3" H 850 5950 50  0001 C CNN
F 3 "~" H 850 5950 50  0001 C CNN
	1    850  5950
	1    0    0    -1  
$EndComp
$Comp
L Mechanical:MountingHole H4
U 1 1 5E48947C
P 850 6150
F 0 "H4" H 950 6196 50  0000 L CNN
F 1 "MountingHole" H 950 6105 50  0000 L CNN
F 2 "Mounting_Holes:MountingHole_3.2mm_M3" H 850 6150 50  0001 C CNN
F 3 "~" H 850 6150 50  0001 C CNN
	1    850  6150
	1    0    0    -1  
$EndComp
Wire Wire Line
	7700 2450 8050 2450
Wire Wire Line
	7700 2550 8050 2550
Text GLabel 8050 2550 2    50   BiDi ~ 0
SDA
Text GLabel 8050 2450 2    50   Output ~ 0
SCL
Wire Wire Line
	1350 1350 1150 1350
Text GLabel 1350 1150 2    50   BiDi ~ 0
SDA
Text GLabel 1350 1350 2    50   Input ~ 0
SCL
Wire Wire Line
	1150 1150 1350 1150
Wire Wire Line
	1250 1450 1250 1250
Wire Wire Line
	1250 1250 1150 1250
Connection ~ 1250 1450
Wire Wire Line
	1250 1250 1250 1050
Wire Wire Line
	1250 1050 1150 1050
Connection ~ 1250 1250
$Comp
L power:GND #PWR0101
U 1 1 5D5914B1
P 3350 1500
F 0 "#PWR0101" H 3350 1250 50  0001 C CNN
F 1 "GND" H 3355 1327 50  0000 C CNN
F 2 "" H 3350 1500 50  0001 C CNN
F 3 "" H 3350 1500 50  0001 C CNN
	1    3350 1500
	1    0    0    -1  
$EndComp
Wire Wire Line
	3350 1500 3350 1400
Wire Wire Line
	3250 1400 3350 1400
Wire Wire Line
	3450 1300 3250 1300
Text GLabel 3450 1100 2    50   BiDi ~ 0
SDA
Text GLabel 3450 1300 2    50   Input ~ 0
SCL
Wire Wire Line
	3250 1100 3450 1100
Wire Wire Line
	3350 1400 3350 1200
Wire Wire Line
	3350 1200 3250 1200
Connection ~ 3350 1400
Wire Wire Line
	3350 1200 3350 1000
Wire Wire Line
	3350 1000 3250 1000
Connection ~ 3350 1200
$Comp
L TC74:TC74A5-5.0VAT U4
U 1 1 5D5BBED6
P 7850 5800
F 0 "U4" H 7621 5846 50  0000 R CNN
F 1 "TC74A5-5.0VAT" H 7621 5755 50  0000 R CNN
F 2 "TO_SOT_Packages_SMD:SOT-23-5" H 6850 5550 50  0001 C CNN
F 3 "http://ww1.microchip.com/downloads/en/devicedoc/21462d.pdf" H 7700 6050 50  0001 C CNN
	1    7850 5800
	1    0    0    -1  
$EndComp
Wire Wire Line
	8350 5700 8150 5700
Text GLabel 8350 5700 2    50   BiDi ~ 0
SDA
Text GLabel 8350 5900 2    50   Input ~ 0
SCL
Wire Wire Line
	8150 5900 8350 5900
Wire Wire Line
	7850 6100 7850 6200
$Comp
L power:GND #PWR0102
U 1 1 5D5DABAB
P 7850 6200
F 0 "#PWR0102" H 7850 5950 50  0001 C CNN
F 1 "GND" H 7855 6027 50  0000 C CNN
F 2 "" H 7850 6200 50  0001 C CNN
F 3 "" H 7850 6200 50  0001 C CNN
	1    7850 6200
	1    0    0    -1  
$EndComp
$Comp
L power:+5V #PWR0103
U 1 1 5D5E4282
P 7850 5400
F 0 "#PWR0103" H 7850 5250 50  0001 C CNN
F 1 "+5V" H 7865 5573 50  0000 C CNN
F 2 "" H 7850 5400 50  0001 C CNN
F 3 "" H 7850 5400 50  0001 C CNN
	1    7850 5400
	1    0    0    -1  
$EndComp
Wire Wire Line
	7850 5500 7850 5400
Wire Notes Line
	7000 5100 7000 6450
Wire Notes Line
	7000 6450 8650 6450
Wire Notes Line
	8650 6450 8650 5100
Wire Notes Line
	8650 5100 7000 5100
Text Notes 7050 5200 0    50   ~ 0
Sensor
Text GLabel 3350 3150 2    50   Output ~ 0
DISABLE_FAN2
$Comp
L Connector_Generic:Conn_01x02 J10
U 1 1 5E01745D
P 3050 3150
F 0 "J10" H 3050 3250 50  0000 C CNN
F 1 "Single Zone" H 3300 2950 50  0000 R CNN
F 2 "Pin_Headers:Pin_Header_Straight_1x02_Pitch2.54mm" H 3050 3150 50  0001 C CNN
F 3 "~" H 3050 3150 50  0001 C CNN
	1    3050 3150
	-1   0    0    -1  
$EndComp
Wire Wire Line
	3350 3250 3350 3350
Wire Wire Line
	3250 3250 3350 3250
Wire Wire Line
	3250 3150 3350 3150
$Comp
L power:GND #PWR014
U 1 1 5E017E5B
P 3350 3350
F 0 "#PWR014" H 3350 3100 50  0001 C CNN
F 1 "GND" H 3355 3177 50  0000 C CNN
F 2 "" H 3350 3350 50  0001 C CNN
F 3 "" H 3350 3350 50  0001 C CNN
	1    3350 3350
	1    0    0    -1  
$EndComp
Wire Wire Line
	9350 1000 9350 1100
$Comp
L power:+5V #PWR0104
U 1 1 5D666082
P 9350 1000
F 0 "#PWR0104" H 9350 850 50  0001 C CNN
F 1 "+5V" H 9365 1173 50  0000 C CNN
F 2 "" H 9350 1000 50  0001 C CNN
F 3 "" H 9350 1000 50  0001 C CNN
	1    9350 1000
	1    0    0    -1  
$EndComp
$Comp
L Device:R R2
U 1 1 5D666088
P 9350 1250
F 0 "R2" H 9420 1296 50  0000 L CNN
F 1 "1K5" H 9420 1205 50  0000 L CNN
F 2 "Resistors_SMD:R_0805" V 9280 1250 50  0001 C CNN
F 3 "~" H 9350 1250 50  0001 C CNN
	1    9350 1250
	1    0    0    -1  
$EndComp
Wire Wire Line
	9350 1550 9350 1400
Text GLabel 9350 1550 3    50   Output ~ 0
SCL
Wire Wire Line
	9700 1000 9700 1100
$Comp
L power:+5V #PWR0105
U 1 1 5D678178
P 9700 1000
F 0 "#PWR0105" H 9700 850 50  0001 C CNN
F 1 "+5V" H 9715 1173 50  0000 C CNN
F 2 "" H 9700 1000 50  0001 C CNN
F 3 "" H 9700 1000 50  0001 C CNN
	1    9700 1000
	1    0    0    -1  
$EndComp
$Comp
L Device:R R7
U 1 1 5D67817E
P 9700 1250
F 0 "R7" H 9770 1296 50  0000 L CNN
F 1 "1K5" H 9770 1205 50  0000 L CNN
F 2 "Resistors_SMD:R_0805" V 9630 1250 50  0001 C CNN
F 3 "~" H 9700 1250 50  0001 C CNN
	1    9700 1250
	1    0    0    -1  
$EndComp
Wire Wire Line
	9700 1550 9700 1400
Text GLabel 9700 1550 3    50   Output ~ 0
SDA
Wire Wire Line
	7700 3050 8050 3050
$EndSCHEMATC
