G04 #@! TF.GenerationSoftware,KiCad,Pcbnew,(5.1.2)-2*
G04 #@! TF.CreationDate,2019-08-09T14:56:55+02:00*
G04 #@! TF.ProjectId,Fan controller,46616e20-636f-46e7-9472-6f6c6c65722e,rev?*
G04 #@! TF.SameCoordinates,Original*
G04 #@! TF.FileFunction,Copper,L2,Bot*
G04 #@! TF.FilePolarity,Positive*
%FSLAX46Y46*%
G04 Gerber Fmt 4.6, Leading zero omitted, Abs format (unit mm)*
G04 Created by KiCad (PCBNEW (5.1.2)-2) date 2019-08-09 14:56:55*
%MOMM*%
%LPD*%
G04 APERTURE LIST*
%ADD10R,1.700000X1.700000*%
%ADD11O,1.700000X1.700000*%
%ADD12O,1.900000X1.200000*%
%ADD13C,1.450000*%
%ADD14O,1.500000X2.500000*%
%ADD15R,1.500000X2.500000*%
%ADD16C,1.500000*%
%ADD17R,2.400000X2.400000*%
%ADD18C,2.400000*%
%ADD19C,1.000000*%
%ADD20C,0.800000*%
%ADD21C,0.400000*%
%ADD22C,0.250000*%
%ADD23C,0.254000*%
G04 APERTURE END LIST*
D10*
X119000000Y-91000000D03*
D11*
X119000000Y-93540000D03*
X119000000Y-96080000D03*
X119000000Y-98620000D03*
X139500000Y-91040000D03*
D10*
X139500000Y-88500000D03*
D11*
X124250000Y-98620000D03*
X124250000Y-96080000D03*
X124250000Y-93540000D03*
D10*
X124250000Y-91000000D03*
D11*
X183960000Y-90420000D03*
X186500000Y-90420000D03*
X183960000Y-92960000D03*
X186500000Y-92960000D03*
X183960000Y-95500000D03*
D10*
X186500000Y-95500000D03*
D12*
X188350000Y-103500000D03*
X188350000Y-110500000D03*
D13*
X185650000Y-104500000D03*
X185650000Y-109500000D03*
D10*
X161250000Y-115750000D03*
D11*
X163790000Y-115750000D03*
D14*
X137080000Y-116000000D03*
X134540000Y-116000000D03*
D15*
X132000000Y-116000000D03*
D16*
X165380000Y-94000000D03*
X160500000Y-94000000D03*
D17*
X122000000Y-104000000D03*
D18*
X122000000Y-107500000D03*
D11*
X129500000Y-101200000D03*
X129500000Y-98660000D03*
X129500000Y-96120000D03*
X129500000Y-93580000D03*
X129500000Y-91040000D03*
D10*
X129500000Y-88500000D03*
X134500000Y-88500000D03*
D11*
X134500000Y-91040000D03*
X134500000Y-93580000D03*
X134500000Y-96120000D03*
X134500000Y-98660000D03*
X134500000Y-101200000D03*
D19*
X166250000Y-103500000D03*
X155750000Y-100000000D03*
D20*
X163000000Y-82000000D03*
D19*
X165000000Y-107750000D03*
X167000000Y-111500000D03*
D20*
X158250000Y-97500000D03*
X171750000Y-98000000D03*
X170000000Y-108000000D03*
X154500000Y-102250000D03*
X162200000Y-96800000D03*
X162200000Y-96800000D03*
X153500000Y-93750000D03*
X166000000Y-100000000D03*
X148000000Y-98500000D03*
D21*
X129500000Y-88500000D02*
X134500000Y-88500000D01*
X183960000Y-95500000D02*
X167960000Y-111500000D01*
X167960000Y-111500000D02*
X167000000Y-111500000D01*
X137080000Y-115500000D02*
X137080000Y-116000000D01*
X141080000Y-111500000D02*
X137080000Y-115500000D01*
X167000000Y-111500000D02*
X141080000Y-111500000D01*
D22*
X158250000Y-97500000D02*
X158750000Y-98000000D01*
X158750000Y-98000000D02*
X171750000Y-98000000D01*
X154500000Y-102250000D02*
X161500000Y-102250000D01*
X167250000Y-108000000D02*
X170000000Y-108000000D01*
X161500000Y-102250000D02*
X167250000Y-108000000D01*
X130702081Y-98660000D02*
X134500000Y-98660000D01*
X129500000Y-98660000D02*
X130702081Y-98660000D01*
X135349999Y-97810001D02*
X134500000Y-98660000D01*
X136385001Y-96774999D02*
X135349999Y-97810001D01*
X158598001Y-96774999D02*
X136385001Y-96774999D01*
X158623002Y-96800000D02*
X158598001Y-96774999D01*
X162200000Y-96800000D02*
X158623002Y-96800000D01*
X133297919Y-93580000D02*
X129500000Y-93580000D01*
X134500000Y-93580000D02*
X133297919Y-93580000D01*
X153330000Y-93580000D02*
X153500000Y-93750000D01*
X134500000Y-93580000D02*
X153330000Y-93580000D01*
X166000000Y-100000000D02*
X164500000Y-98500000D01*
X164500000Y-98500000D02*
X148000000Y-98500000D01*
D23*
G36*
X189340001Y-102441368D02*
G01*
X189289946Y-102407610D01*
X189065496Y-102313507D01*
X188827000Y-102265000D01*
X188477000Y-102265000D01*
X188477000Y-103373000D01*
X188497000Y-103373000D01*
X188497000Y-103627000D01*
X188477000Y-103627000D01*
X188477000Y-104735000D01*
X188827000Y-104735000D01*
X189065496Y-104686493D01*
X189289946Y-104592390D01*
X189340001Y-104558632D01*
X189340001Y-109441368D01*
X189289946Y-109407610D01*
X189065496Y-109313507D01*
X188827000Y-109265000D01*
X188477000Y-109265000D01*
X188477000Y-110373000D01*
X188497000Y-110373000D01*
X188497000Y-110627000D01*
X188477000Y-110627000D01*
X188477000Y-111735000D01*
X188827000Y-111735000D01*
X189065496Y-111686493D01*
X189289946Y-111592390D01*
X189340001Y-111558632D01*
X189340001Y-119340000D01*
X115660000Y-119340000D01*
X115660000Y-115779872D01*
X116765000Y-115779872D01*
X116765000Y-116220128D01*
X116850890Y-116651925D01*
X117019369Y-117058669D01*
X117263962Y-117424729D01*
X117575271Y-117736038D01*
X117941331Y-117980631D01*
X118348075Y-118149110D01*
X118779872Y-118235000D01*
X119220128Y-118235000D01*
X119651925Y-118149110D01*
X120058669Y-117980631D01*
X120424729Y-117736038D01*
X120736038Y-117424729D01*
X120980631Y-117058669D01*
X121149110Y-116651925D01*
X121235000Y-116220128D01*
X121235000Y-115779872D01*
X121149110Y-115348075D01*
X120980631Y-114941331D01*
X120852788Y-114750000D01*
X130611928Y-114750000D01*
X130611928Y-117250000D01*
X130624188Y-117374482D01*
X130660498Y-117494180D01*
X130719463Y-117604494D01*
X130798815Y-117701185D01*
X130895506Y-117780537D01*
X131005820Y-117839502D01*
X131125518Y-117875812D01*
X131250000Y-117888072D01*
X132750000Y-117888072D01*
X132874482Y-117875812D01*
X132994180Y-117839502D01*
X133104494Y-117780537D01*
X133201185Y-117701185D01*
X133280537Y-117604494D01*
X133339502Y-117494180D01*
X133375812Y-117374482D01*
X133386582Y-117265126D01*
X133458972Y-117375061D01*
X133650460Y-117569145D01*
X133876132Y-117722142D01*
X134127316Y-117828173D01*
X134198815Y-117842318D01*
X134413000Y-117719656D01*
X134413000Y-116127000D01*
X134393000Y-116127000D01*
X134393000Y-115873000D01*
X134413000Y-115873000D01*
X134413000Y-114280344D01*
X134667000Y-114280344D01*
X134667000Y-115873000D01*
X134687000Y-115873000D01*
X134687000Y-116127000D01*
X134667000Y-116127000D01*
X134667000Y-117719656D01*
X134881185Y-117842318D01*
X134952684Y-117828173D01*
X135203868Y-117722142D01*
X135429540Y-117569145D01*
X135621028Y-117375061D01*
X135770972Y-117147349D01*
X135807514Y-117057422D01*
X135922843Y-117273188D01*
X136095920Y-117484081D01*
X136306813Y-117657157D01*
X136547420Y-117785764D01*
X136808494Y-117864960D01*
X137080000Y-117891701D01*
X137351507Y-117864960D01*
X137612581Y-117785764D01*
X137853188Y-117657157D01*
X138064081Y-117484081D01*
X138237157Y-117273188D01*
X138365764Y-117032581D01*
X138444960Y-116771507D01*
X138465000Y-116568037D01*
X138465000Y-115431963D01*
X138452798Y-115308070D01*
X138860868Y-114900000D01*
X159761928Y-114900000D01*
X159761928Y-116600000D01*
X159774188Y-116724482D01*
X159810498Y-116844180D01*
X159869463Y-116954494D01*
X159948815Y-117051185D01*
X160045506Y-117130537D01*
X160155820Y-117189502D01*
X160275518Y-117225812D01*
X160400000Y-117238072D01*
X162100000Y-117238072D01*
X162224482Y-117225812D01*
X162344180Y-117189502D01*
X162454494Y-117130537D01*
X162551185Y-117051185D01*
X162630537Y-116954494D01*
X162689502Y-116844180D01*
X162713966Y-116763534D01*
X162789731Y-116847588D01*
X163023080Y-117021641D01*
X163285901Y-117146825D01*
X163433110Y-117191476D01*
X163663000Y-117070155D01*
X163663000Y-115877000D01*
X163917000Y-115877000D01*
X163917000Y-117070155D01*
X164146890Y-117191476D01*
X164294099Y-117146825D01*
X164556920Y-117021641D01*
X164790269Y-116847588D01*
X164985178Y-116631355D01*
X165134157Y-116381252D01*
X165231481Y-116106891D01*
X165110814Y-115877000D01*
X163917000Y-115877000D01*
X163663000Y-115877000D01*
X163643000Y-115877000D01*
X163643000Y-115779872D01*
X183765000Y-115779872D01*
X183765000Y-116220128D01*
X183850890Y-116651925D01*
X184019369Y-117058669D01*
X184263962Y-117424729D01*
X184575271Y-117736038D01*
X184941331Y-117980631D01*
X185348075Y-118149110D01*
X185779872Y-118235000D01*
X186220128Y-118235000D01*
X186651925Y-118149110D01*
X187058669Y-117980631D01*
X187424729Y-117736038D01*
X187736038Y-117424729D01*
X187980631Y-117058669D01*
X188149110Y-116651925D01*
X188235000Y-116220128D01*
X188235000Y-115779872D01*
X188149110Y-115348075D01*
X187980631Y-114941331D01*
X187736038Y-114575271D01*
X187424729Y-114263962D01*
X187058669Y-114019369D01*
X186651925Y-113850890D01*
X186220128Y-113765000D01*
X185779872Y-113765000D01*
X185348075Y-113850890D01*
X184941331Y-114019369D01*
X184575271Y-114263962D01*
X184263962Y-114575271D01*
X184019369Y-114941331D01*
X183850890Y-115348075D01*
X183765000Y-115779872D01*
X163643000Y-115779872D01*
X163643000Y-115623000D01*
X163663000Y-115623000D01*
X163663000Y-114429845D01*
X163917000Y-114429845D01*
X163917000Y-115623000D01*
X165110814Y-115623000D01*
X165231481Y-115393109D01*
X165134157Y-115118748D01*
X164985178Y-114868645D01*
X164790269Y-114652412D01*
X164556920Y-114478359D01*
X164294099Y-114353175D01*
X164146890Y-114308524D01*
X163917000Y-114429845D01*
X163663000Y-114429845D01*
X163433110Y-114308524D01*
X163285901Y-114353175D01*
X163023080Y-114478359D01*
X162789731Y-114652412D01*
X162713966Y-114736466D01*
X162689502Y-114655820D01*
X162630537Y-114545506D01*
X162551185Y-114448815D01*
X162454494Y-114369463D01*
X162344180Y-114310498D01*
X162224482Y-114274188D01*
X162100000Y-114261928D01*
X160400000Y-114261928D01*
X160275518Y-114274188D01*
X160155820Y-114310498D01*
X160045506Y-114369463D01*
X159948815Y-114448815D01*
X159869463Y-114545506D01*
X159810498Y-114655820D01*
X159774188Y-114775518D01*
X159761928Y-114900000D01*
X138860868Y-114900000D01*
X141425868Y-112335000D01*
X166229868Y-112335000D01*
X166276480Y-112381612D01*
X166462376Y-112505824D01*
X166668933Y-112591383D01*
X166888212Y-112635000D01*
X167111788Y-112635000D01*
X167331067Y-112591383D01*
X167537624Y-112505824D01*
X167723520Y-112381612D01*
X167770132Y-112335000D01*
X167918982Y-112335000D01*
X167960000Y-112339040D01*
X168001018Y-112335000D01*
X168001019Y-112335000D01*
X168123689Y-112322918D01*
X168281087Y-112275172D01*
X168426146Y-112197636D01*
X168553291Y-112093291D01*
X168579446Y-112061421D01*
X170201734Y-110439133D01*
X184890472Y-110439133D01*
X184952965Y-110675450D01*
X185195678Y-110788850D01*
X185455849Y-110852719D01*
X185723482Y-110864604D01*
X185988291Y-110824048D01*
X186006023Y-110817609D01*
X186806538Y-110817609D01*
X186810409Y-110855282D01*
X186902579Y-111080533D01*
X187036922Y-111283474D01*
X187208275Y-111456307D01*
X187410054Y-111592390D01*
X187634504Y-111686493D01*
X187873000Y-111735000D01*
X188223000Y-111735000D01*
X188223000Y-110627000D01*
X186931269Y-110627000D01*
X186806538Y-110817609D01*
X186006023Y-110817609D01*
X186240100Y-110732609D01*
X186347035Y-110675450D01*
X186409528Y-110439133D01*
X185650000Y-109679605D01*
X184890472Y-110439133D01*
X170201734Y-110439133D01*
X171067385Y-109573482D01*
X184285396Y-109573482D01*
X184325952Y-109838291D01*
X184417391Y-110090100D01*
X184474550Y-110197035D01*
X184710867Y-110259528D01*
X185470395Y-109500000D01*
X185829605Y-109500000D01*
X186589133Y-110259528D01*
X186817497Y-110199138D01*
X186931269Y-110373000D01*
X188223000Y-110373000D01*
X188223000Y-109265000D01*
X187873000Y-109265000D01*
X187634504Y-109313507D01*
X187410054Y-109407610D01*
X187208275Y-109543693D01*
X187036922Y-109716526D01*
X186973829Y-109811836D01*
X187002719Y-109694151D01*
X187014604Y-109426518D01*
X186974048Y-109161709D01*
X186882609Y-108909900D01*
X186825450Y-108802965D01*
X186589133Y-108740472D01*
X185829605Y-109500000D01*
X185470395Y-109500000D01*
X184710867Y-108740472D01*
X184474550Y-108802965D01*
X184361150Y-109045678D01*
X184297281Y-109305849D01*
X184285396Y-109573482D01*
X171067385Y-109573482D01*
X172080000Y-108560867D01*
X184890472Y-108560867D01*
X185650000Y-109320395D01*
X186409528Y-108560867D01*
X186347035Y-108324550D01*
X186104322Y-108211150D01*
X185844151Y-108147281D01*
X185576518Y-108135396D01*
X185311709Y-108175952D01*
X185059900Y-108267391D01*
X184952965Y-108324550D01*
X184890472Y-108560867D01*
X172080000Y-108560867D01*
X175201734Y-105439133D01*
X184890472Y-105439133D01*
X184952965Y-105675450D01*
X185195678Y-105788850D01*
X185455849Y-105852719D01*
X185723482Y-105864604D01*
X185988291Y-105824048D01*
X186240100Y-105732609D01*
X186347035Y-105675450D01*
X186409528Y-105439133D01*
X185650000Y-104679605D01*
X184890472Y-105439133D01*
X175201734Y-105439133D01*
X176067385Y-104573482D01*
X184285396Y-104573482D01*
X184325952Y-104838291D01*
X184417391Y-105090100D01*
X184474550Y-105197035D01*
X184710867Y-105259528D01*
X185470395Y-104500000D01*
X185829605Y-104500000D01*
X186589133Y-105259528D01*
X186825450Y-105197035D01*
X186938850Y-104954322D01*
X187002719Y-104694151D01*
X187014604Y-104426518D01*
X186979385Y-104196558D01*
X187036922Y-104283474D01*
X187208275Y-104456307D01*
X187410054Y-104592390D01*
X187634504Y-104686493D01*
X187873000Y-104735000D01*
X188223000Y-104735000D01*
X188223000Y-103627000D01*
X186931269Y-103627000D01*
X186817497Y-103800862D01*
X186589133Y-103740472D01*
X185829605Y-104500000D01*
X185470395Y-104500000D01*
X184710867Y-103740472D01*
X184474550Y-103802965D01*
X184361150Y-104045678D01*
X184297281Y-104305849D01*
X184285396Y-104573482D01*
X176067385Y-104573482D01*
X177080000Y-103560867D01*
X184890472Y-103560867D01*
X185650000Y-104320395D01*
X186409528Y-103560867D01*
X186347035Y-103324550D01*
X186104322Y-103211150D01*
X185987172Y-103182391D01*
X186806538Y-103182391D01*
X186931269Y-103373000D01*
X188223000Y-103373000D01*
X188223000Y-102265000D01*
X187873000Y-102265000D01*
X187634504Y-102313507D01*
X187410054Y-102407610D01*
X187208275Y-102543693D01*
X187036922Y-102716526D01*
X186902579Y-102919467D01*
X186810409Y-103144718D01*
X186806538Y-103182391D01*
X185987172Y-103182391D01*
X185844151Y-103147281D01*
X185576518Y-103135396D01*
X185311709Y-103175952D01*
X185059900Y-103267391D01*
X184952965Y-103324550D01*
X184890472Y-103560867D01*
X177080000Y-103560867D01*
X183676596Y-96964272D01*
X183887050Y-96985000D01*
X184032950Y-96985000D01*
X184251111Y-96963513D01*
X184531034Y-96878599D01*
X184789014Y-96740706D01*
X185015134Y-96555134D01*
X185039607Y-96525313D01*
X185060498Y-96594180D01*
X185119463Y-96704494D01*
X185198815Y-96801185D01*
X185295506Y-96880537D01*
X185405820Y-96939502D01*
X185525518Y-96975812D01*
X185650000Y-96988072D01*
X187350000Y-96988072D01*
X187474482Y-96975812D01*
X187594180Y-96939502D01*
X187704494Y-96880537D01*
X187801185Y-96801185D01*
X187880537Y-96704494D01*
X187939502Y-96594180D01*
X187975812Y-96474482D01*
X187988072Y-96350000D01*
X187988072Y-94650000D01*
X187975812Y-94525518D01*
X187939502Y-94405820D01*
X187880537Y-94295506D01*
X187801185Y-94198815D01*
X187704494Y-94119463D01*
X187594180Y-94060498D01*
X187525313Y-94039607D01*
X187555134Y-94015134D01*
X187740706Y-93789014D01*
X187878599Y-93531034D01*
X187963513Y-93251111D01*
X187992185Y-92960000D01*
X187963513Y-92668889D01*
X187878599Y-92388966D01*
X187740706Y-92130986D01*
X187555134Y-91904866D01*
X187329014Y-91719294D01*
X187274209Y-91690000D01*
X187329014Y-91660706D01*
X187555134Y-91475134D01*
X187740706Y-91249014D01*
X187878599Y-90991034D01*
X187963513Y-90711111D01*
X187992185Y-90420000D01*
X187963513Y-90128889D01*
X187878599Y-89848966D01*
X187740706Y-89590986D01*
X187555134Y-89364866D01*
X187329014Y-89179294D01*
X187071034Y-89041401D01*
X186791111Y-88956487D01*
X186572950Y-88935000D01*
X186427050Y-88935000D01*
X186208889Y-88956487D01*
X185928966Y-89041401D01*
X185670986Y-89179294D01*
X185444866Y-89364866D01*
X185259294Y-89590986D01*
X185228416Y-89648756D01*
X185057588Y-89419731D01*
X184841355Y-89224822D01*
X184591252Y-89075843D01*
X184316891Y-88978519D01*
X184087000Y-89099186D01*
X184087000Y-90293000D01*
X184107000Y-90293000D01*
X184107000Y-90547000D01*
X184087000Y-90547000D01*
X184087000Y-90567000D01*
X183833000Y-90567000D01*
X183833000Y-90547000D01*
X182639845Y-90547000D01*
X182518524Y-90776890D01*
X182563175Y-90924099D01*
X182688359Y-91186920D01*
X182862412Y-91420269D01*
X183078645Y-91615178D01*
X183195523Y-91684799D01*
X183130986Y-91719294D01*
X182904866Y-91904866D01*
X182719294Y-92130986D01*
X182581401Y-92388966D01*
X182496487Y-92668889D01*
X182467815Y-92960000D01*
X182496487Y-93251111D01*
X182581401Y-93531034D01*
X182719294Y-93789014D01*
X182904866Y-94015134D01*
X183130986Y-94200706D01*
X183185791Y-94230000D01*
X183130986Y-94259294D01*
X182904866Y-94444866D01*
X182719294Y-94670986D01*
X182581401Y-94928966D01*
X182496487Y-95208889D01*
X182467815Y-95500000D01*
X182495728Y-95783404D01*
X170857998Y-107421135D01*
X170803937Y-107340226D01*
X170659774Y-107196063D01*
X170490256Y-107082795D01*
X170301898Y-107004774D01*
X170101939Y-106965000D01*
X169898061Y-106965000D01*
X169698102Y-107004774D01*
X169509744Y-107082795D01*
X169340226Y-107196063D01*
X169296289Y-107240000D01*
X167564802Y-107240000D01*
X162063804Y-101739003D01*
X162040001Y-101709999D01*
X161924276Y-101615026D01*
X161792247Y-101544454D01*
X161648986Y-101500997D01*
X161537333Y-101490000D01*
X161537322Y-101490000D01*
X161500000Y-101486324D01*
X161462678Y-101490000D01*
X155203711Y-101490000D01*
X155159774Y-101446063D01*
X154990256Y-101332795D01*
X154801898Y-101254774D01*
X154601939Y-101215000D01*
X154398061Y-101215000D01*
X154198102Y-101254774D01*
X154009744Y-101332795D01*
X153840226Y-101446063D01*
X153696063Y-101590226D01*
X153582795Y-101759744D01*
X153504774Y-101948102D01*
X153465000Y-102148061D01*
X153465000Y-102351939D01*
X153504774Y-102551898D01*
X153582795Y-102740256D01*
X153696063Y-102909774D01*
X153840226Y-103053937D01*
X154009744Y-103167205D01*
X154198102Y-103245226D01*
X154398061Y-103285000D01*
X154601939Y-103285000D01*
X154801898Y-103245226D01*
X154990256Y-103167205D01*
X155159774Y-103053937D01*
X155203711Y-103010000D01*
X161185199Y-103010000D01*
X166686201Y-108511003D01*
X166709999Y-108540001D01*
X166738997Y-108563799D01*
X166825723Y-108634974D01*
X166957753Y-108705546D01*
X167101014Y-108749003D01*
X167212667Y-108760000D01*
X167212677Y-108760000D01*
X167250000Y-108763676D01*
X167287322Y-108760000D01*
X169296289Y-108760000D01*
X169340226Y-108803937D01*
X169421135Y-108857998D01*
X167685889Y-110593244D01*
X167537624Y-110494176D01*
X167331067Y-110408617D01*
X167111788Y-110365000D01*
X166888212Y-110365000D01*
X166668933Y-110408617D01*
X166462376Y-110494176D01*
X166276480Y-110618388D01*
X166229868Y-110665000D01*
X141121015Y-110665000D01*
X141079999Y-110660960D01*
X141038983Y-110665000D01*
X141038981Y-110665000D01*
X140916311Y-110677082D01*
X140758913Y-110724828D01*
X140613854Y-110802364D01*
X140486709Y-110906709D01*
X140460561Y-110938571D01*
X137271930Y-114127202D01*
X137080000Y-114108299D01*
X136808493Y-114135040D01*
X136547419Y-114214236D01*
X136306812Y-114342843D01*
X136095919Y-114515920D01*
X135922843Y-114726813D01*
X135807514Y-114942579D01*
X135770972Y-114852651D01*
X135621028Y-114624939D01*
X135429540Y-114430855D01*
X135203868Y-114277858D01*
X134952684Y-114171827D01*
X134881185Y-114157682D01*
X134667000Y-114280344D01*
X134413000Y-114280344D01*
X134198815Y-114157682D01*
X134127316Y-114171827D01*
X133876132Y-114277858D01*
X133650460Y-114430855D01*
X133458972Y-114624939D01*
X133386582Y-114734874D01*
X133375812Y-114625518D01*
X133339502Y-114505820D01*
X133280537Y-114395506D01*
X133201185Y-114298815D01*
X133104494Y-114219463D01*
X132994180Y-114160498D01*
X132874482Y-114124188D01*
X132750000Y-114111928D01*
X131250000Y-114111928D01*
X131125518Y-114124188D01*
X131005820Y-114160498D01*
X130895506Y-114219463D01*
X130798815Y-114298815D01*
X130719463Y-114395506D01*
X130660498Y-114505820D01*
X130624188Y-114625518D01*
X130611928Y-114750000D01*
X120852788Y-114750000D01*
X120736038Y-114575271D01*
X120424729Y-114263962D01*
X120058669Y-114019369D01*
X119651925Y-113850890D01*
X119220128Y-113765000D01*
X118779872Y-113765000D01*
X118348075Y-113850890D01*
X117941331Y-114019369D01*
X117575271Y-114263962D01*
X117263962Y-114575271D01*
X117019369Y-114941331D01*
X116850890Y-115348075D01*
X116765000Y-115779872D01*
X115660000Y-115779872D01*
X115660000Y-108777980D01*
X120901626Y-108777980D01*
X121021514Y-109062836D01*
X121345210Y-109223699D01*
X121694069Y-109318322D01*
X122054684Y-109343067D01*
X122413198Y-109296985D01*
X122755833Y-109181846D01*
X122978486Y-109062836D01*
X123098374Y-108777980D01*
X122000000Y-107679605D01*
X120901626Y-108777980D01*
X115660000Y-108777980D01*
X115660000Y-107554684D01*
X120156933Y-107554684D01*
X120203015Y-107913198D01*
X120318154Y-108255833D01*
X120437164Y-108478486D01*
X120722020Y-108598374D01*
X121820395Y-107500000D01*
X122179605Y-107500000D01*
X123277980Y-108598374D01*
X123562836Y-108478486D01*
X123723699Y-108154790D01*
X123818322Y-107805931D01*
X123843067Y-107445316D01*
X123796985Y-107086802D01*
X123681846Y-106744167D01*
X123562836Y-106521514D01*
X123277980Y-106401626D01*
X122179605Y-107500000D01*
X121820395Y-107500000D01*
X120722020Y-106401626D01*
X120437164Y-106521514D01*
X120276301Y-106845210D01*
X120181678Y-107194069D01*
X120156933Y-107554684D01*
X115660000Y-107554684D01*
X115660000Y-102800000D01*
X120161928Y-102800000D01*
X120161928Y-105200000D01*
X120174188Y-105324482D01*
X120210498Y-105444180D01*
X120269463Y-105554494D01*
X120348815Y-105651185D01*
X120445506Y-105730537D01*
X120555820Y-105789502D01*
X120675518Y-105825812D01*
X120800000Y-105838072D01*
X121206903Y-105838072D01*
X121021514Y-105937164D01*
X120901626Y-106222020D01*
X122000000Y-107320395D01*
X123098374Y-106222020D01*
X122978486Y-105937164D01*
X122779088Y-105838072D01*
X123200000Y-105838072D01*
X123324482Y-105825812D01*
X123444180Y-105789502D01*
X123554494Y-105730537D01*
X123651185Y-105651185D01*
X123730537Y-105554494D01*
X123789502Y-105444180D01*
X123825812Y-105324482D01*
X123838072Y-105200000D01*
X123838072Y-102800000D01*
X123825812Y-102675518D01*
X123789502Y-102555820D01*
X123730537Y-102445506D01*
X123651185Y-102348815D01*
X123554494Y-102269463D01*
X123444180Y-102210498D01*
X123324482Y-102174188D01*
X123200000Y-102161928D01*
X120800000Y-102161928D01*
X120675518Y-102174188D01*
X120555820Y-102210498D01*
X120445506Y-102269463D01*
X120348815Y-102348815D01*
X120269463Y-102445506D01*
X120210498Y-102555820D01*
X120174188Y-102675518D01*
X120161928Y-102800000D01*
X115660000Y-102800000D01*
X115660000Y-101556890D01*
X128058524Y-101556890D01*
X128103175Y-101704099D01*
X128228359Y-101966920D01*
X128402412Y-102200269D01*
X128618645Y-102395178D01*
X128868748Y-102544157D01*
X129143109Y-102641481D01*
X129373000Y-102520814D01*
X129373000Y-101327000D01*
X129627000Y-101327000D01*
X129627000Y-102520814D01*
X129856891Y-102641481D01*
X130131252Y-102544157D01*
X130381355Y-102395178D01*
X130597588Y-102200269D01*
X130771641Y-101966920D01*
X130896825Y-101704099D01*
X130941476Y-101556890D01*
X133058524Y-101556890D01*
X133103175Y-101704099D01*
X133228359Y-101966920D01*
X133402412Y-102200269D01*
X133618645Y-102395178D01*
X133868748Y-102544157D01*
X134143109Y-102641481D01*
X134373000Y-102520814D01*
X134373000Y-101327000D01*
X134627000Y-101327000D01*
X134627000Y-102520814D01*
X134856891Y-102641481D01*
X135131252Y-102544157D01*
X135381355Y-102395178D01*
X135597588Y-102200269D01*
X135771641Y-101966920D01*
X135896825Y-101704099D01*
X135941476Y-101556890D01*
X135820155Y-101327000D01*
X134627000Y-101327000D01*
X134373000Y-101327000D01*
X133179845Y-101327000D01*
X133058524Y-101556890D01*
X130941476Y-101556890D01*
X130820155Y-101327000D01*
X129627000Y-101327000D01*
X129373000Y-101327000D01*
X128179845Y-101327000D01*
X128058524Y-101556890D01*
X115660000Y-101556890D01*
X115660000Y-98976890D01*
X117558524Y-98976890D01*
X117603175Y-99124099D01*
X117728359Y-99386920D01*
X117902412Y-99620269D01*
X118118645Y-99815178D01*
X118368748Y-99964157D01*
X118643109Y-100061481D01*
X118873000Y-99940814D01*
X118873000Y-98747000D01*
X119127000Y-98747000D01*
X119127000Y-99940814D01*
X119356891Y-100061481D01*
X119631252Y-99964157D01*
X119881355Y-99815178D01*
X120097588Y-99620269D01*
X120271641Y-99386920D01*
X120396825Y-99124099D01*
X120441476Y-98976890D01*
X122808524Y-98976890D01*
X122853175Y-99124099D01*
X122978359Y-99386920D01*
X123152412Y-99620269D01*
X123368645Y-99815178D01*
X123618748Y-99964157D01*
X123893109Y-100061481D01*
X124123000Y-99940814D01*
X124123000Y-98747000D01*
X124377000Y-98747000D01*
X124377000Y-99940814D01*
X124606891Y-100061481D01*
X124881252Y-99964157D01*
X125131355Y-99815178D01*
X125347588Y-99620269D01*
X125521641Y-99386920D01*
X125646825Y-99124099D01*
X125691476Y-98976890D01*
X125570155Y-98747000D01*
X124377000Y-98747000D01*
X124123000Y-98747000D01*
X122929845Y-98747000D01*
X122808524Y-98976890D01*
X120441476Y-98976890D01*
X120320155Y-98747000D01*
X119127000Y-98747000D01*
X118873000Y-98747000D01*
X117679845Y-98747000D01*
X117558524Y-98976890D01*
X115660000Y-98976890D01*
X115660000Y-98660000D01*
X128007815Y-98660000D01*
X128036487Y-98951111D01*
X128121401Y-99231034D01*
X128259294Y-99489014D01*
X128444866Y-99715134D01*
X128670986Y-99900706D01*
X128735523Y-99935201D01*
X128618645Y-100004822D01*
X128402412Y-100199731D01*
X128228359Y-100433080D01*
X128103175Y-100695901D01*
X128058524Y-100843110D01*
X128179845Y-101073000D01*
X129373000Y-101073000D01*
X129373000Y-101053000D01*
X129627000Y-101053000D01*
X129627000Y-101073000D01*
X130820155Y-101073000D01*
X130941476Y-100843110D01*
X130896825Y-100695901D01*
X130771641Y-100433080D01*
X130597588Y-100199731D01*
X130381355Y-100004822D01*
X130264477Y-99935201D01*
X130329014Y-99900706D01*
X130555134Y-99715134D01*
X130740706Y-99489014D01*
X130777595Y-99420000D01*
X133222405Y-99420000D01*
X133259294Y-99489014D01*
X133444866Y-99715134D01*
X133670986Y-99900706D01*
X133735523Y-99935201D01*
X133618645Y-100004822D01*
X133402412Y-100199731D01*
X133228359Y-100433080D01*
X133103175Y-100695901D01*
X133058524Y-100843110D01*
X133179845Y-101073000D01*
X134373000Y-101073000D01*
X134373000Y-101053000D01*
X134627000Y-101053000D01*
X134627000Y-101073000D01*
X135820155Y-101073000D01*
X135941476Y-100843110D01*
X135896825Y-100695901D01*
X135771641Y-100433080D01*
X135597588Y-100199731D01*
X135381355Y-100004822D01*
X135264477Y-99935201D01*
X135329014Y-99900706D01*
X135555134Y-99715134D01*
X135740706Y-99489014D01*
X135878599Y-99231034D01*
X135963513Y-98951111D01*
X135992185Y-98660000D01*
X135963513Y-98368889D01*
X135940797Y-98294004D01*
X136699803Y-97534999D01*
X147625133Y-97534999D01*
X147509744Y-97582795D01*
X147340226Y-97696063D01*
X147196063Y-97840226D01*
X147082795Y-98009744D01*
X147004774Y-98198102D01*
X146965000Y-98398061D01*
X146965000Y-98601939D01*
X147004774Y-98801898D01*
X147082795Y-98990256D01*
X147196063Y-99159774D01*
X147340226Y-99303937D01*
X147509744Y-99417205D01*
X147698102Y-99495226D01*
X147898061Y-99535000D01*
X148101939Y-99535000D01*
X148301898Y-99495226D01*
X148490256Y-99417205D01*
X148659774Y-99303937D01*
X148703711Y-99260000D01*
X164185199Y-99260000D01*
X164965000Y-100039802D01*
X164965000Y-100101939D01*
X165004774Y-100301898D01*
X165082795Y-100490256D01*
X165196063Y-100659774D01*
X165340226Y-100803937D01*
X165509744Y-100917205D01*
X165698102Y-100995226D01*
X165898061Y-101035000D01*
X166101939Y-101035000D01*
X166301898Y-100995226D01*
X166490256Y-100917205D01*
X166659774Y-100803937D01*
X166803937Y-100659774D01*
X166917205Y-100490256D01*
X166995226Y-100301898D01*
X167035000Y-100101939D01*
X167035000Y-99898061D01*
X166995226Y-99698102D01*
X166917205Y-99509744D01*
X166803937Y-99340226D01*
X166659774Y-99196063D01*
X166490256Y-99082795D01*
X166301898Y-99004774D01*
X166101939Y-98965000D01*
X166039802Y-98965000D01*
X165834802Y-98760000D01*
X171046289Y-98760000D01*
X171090226Y-98803937D01*
X171259744Y-98917205D01*
X171448102Y-98995226D01*
X171648061Y-99035000D01*
X171851939Y-99035000D01*
X172051898Y-98995226D01*
X172240256Y-98917205D01*
X172409774Y-98803937D01*
X172553937Y-98659774D01*
X172667205Y-98490256D01*
X172745226Y-98301898D01*
X172785000Y-98101939D01*
X172785000Y-97898061D01*
X172745226Y-97698102D01*
X172667205Y-97509744D01*
X172553937Y-97340226D01*
X172409774Y-97196063D01*
X172240256Y-97082795D01*
X172051898Y-97004774D01*
X171851939Y-96965000D01*
X171648061Y-96965000D01*
X171448102Y-97004774D01*
X171259744Y-97082795D01*
X171090226Y-97196063D01*
X171046289Y-97240000D01*
X163138022Y-97240000D01*
X163195226Y-97101898D01*
X163235000Y-96901939D01*
X163235000Y-96698061D01*
X163195226Y-96498102D01*
X163117205Y-96309744D01*
X163003937Y-96140226D01*
X162859774Y-95996063D01*
X162690256Y-95882795D01*
X162501898Y-95804774D01*
X162301939Y-95765000D01*
X162098061Y-95765000D01*
X161898102Y-95804774D01*
X161709744Y-95882795D01*
X161540226Y-95996063D01*
X161496289Y-96040000D01*
X158793153Y-96040000D01*
X158746987Y-96025996D01*
X158635334Y-96014999D01*
X158635323Y-96014999D01*
X158598001Y-96011323D01*
X158560679Y-96014999D01*
X136422324Y-96014999D01*
X136385001Y-96011323D01*
X136347678Y-96014999D01*
X136347668Y-96014999D01*
X136236015Y-96025996D01*
X136092754Y-96069453D01*
X135960725Y-96140025D01*
X135845000Y-96234998D01*
X135826024Y-96258121D01*
X135820155Y-96247000D01*
X134627000Y-96247000D01*
X134627000Y-96267000D01*
X134373000Y-96267000D01*
X134373000Y-96247000D01*
X133179845Y-96247000D01*
X133058524Y-96476890D01*
X133103175Y-96624099D01*
X133228359Y-96886920D01*
X133402412Y-97120269D01*
X133618645Y-97315178D01*
X133735523Y-97384799D01*
X133670986Y-97419294D01*
X133444866Y-97604866D01*
X133259294Y-97830986D01*
X133222405Y-97900000D01*
X130777595Y-97900000D01*
X130740706Y-97830986D01*
X130555134Y-97604866D01*
X130329014Y-97419294D01*
X130264477Y-97384799D01*
X130381355Y-97315178D01*
X130597588Y-97120269D01*
X130771641Y-96886920D01*
X130896825Y-96624099D01*
X130941476Y-96476890D01*
X130820155Y-96247000D01*
X129627000Y-96247000D01*
X129627000Y-96267000D01*
X129373000Y-96267000D01*
X129373000Y-96247000D01*
X128179845Y-96247000D01*
X128058524Y-96476890D01*
X128103175Y-96624099D01*
X128228359Y-96886920D01*
X128402412Y-97120269D01*
X128618645Y-97315178D01*
X128735523Y-97384799D01*
X128670986Y-97419294D01*
X128444866Y-97604866D01*
X128259294Y-97830986D01*
X128121401Y-98088966D01*
X128036487Y-98368889D01*
X128007815Y-98660000D01*
X115660000Y-98660000D01*
X115660000Y-93540000D01*
X117507815Y-93540000D01*
X117536487Y-93831111D01*
X117621401Y-94111034D01*
X117759294Y-94369014D01*
X117944866Y-94595134D01*
X118170986Y-94780706D01*
X118225791Y-94810000D01*
X118170986Y-94839294D01*
X117944866Y-95024866D01*
X117759294Y-95250986D01*
X117621401Y-95508966D01*
X117536487Y-95788889D01*
X117507815Y-96080000D01*
X117536487Y-96371111D01*
X117621401Y-96651034D01*
X117759294Y-96909014D01*
X117944866Y-97135134D01*
X118170986Y-97320706D01*
X118235523Y-97355201D01*
X118118645Y-97424822D01*
X117902412Y-97619731D01*
X117728359Y-97853080D01*
X117603175Y-98115901D01*
X117558524Y-98263110D01*
X117679845Y-98493000D01*
X118873000Y-98493000D01*
X118873000Y-98473000D01*
X119127000Y-98473000D01*
X119127000Y-98493000D01*
X120320155Y-98493000D01*
X120441476Y-98263110D01*
X120396825Y-98115901D01*
X120271641Y-97853080D01*
X120097588Y-97619731D01*
X119881355Y-97424822D01*
X119764477Y-97355201D01*
X119829014Y-97320706D01*
X120055134Y-97135134D01*
X120240706Y-96909014D01*
X120378599Y-96651034D01*
X120463513Y-96371111D01*
X120492185Y-96080000D01*
X120463513Y-95788889D01*
X120378599Y-95508966D01*
X120240706Y-95250986D01*
X120055134Y-95024866D01*
X119829014Y-94839294D01*
X119774209Y-94810000D01*
X119829014Y-94780706D01*
X120055134Y-94595134D01*
X120240706Y-94369014D01*
X120378599Y-94111034D01*
X120463513Y-93831111D01*
X120492185Y-93540000D01*
X122757815Y-93540000D01*
X122786487Y-93831111D01*
X122871401Y-94111034D01*
X123009294Y-94369014D01*
X123194866Y-94595134D01*
X123420986Y-94780706D01*
X123475791Y-94810000D01*
X123420986Y-94839294D01*
X123194866Y-95024866D01*
X123009294Y-95250986D01*
X122871401Y-95508966D01*
X122786487Y-95788889D01*
X122757815Y-96080000D01*
X122786487Y-96371111D01*
X122871401Y-96651034D01*
X123009294Y-96909014D01*
X123194866Y-97135134D01*
X123420986Y-97320706D01*
X123485523Y-97355201D01*
X123368645Y-97424822D01*
X123152412Y-97619731D01*
X122978359Y-97853080D01*
X122853175Y-98115901D01*
X122808524Y-98263110D01*
X122929845Y-98493000D01*
X124123000Y-98493000D01*
X124123000Y-98473000D01*
X124377000Y-98473000D01*
X124377000Y-98493000D01*
X125570155Y-98493000D01*
X125691476Y-98263110D01*
X125646825Y-98115901D01*
X125521641Y-97853080D01*
X125347588Y-97619731D01*
X125131355Y-97424822D01*
X125014477Y-97355201D01*
X125079014Y-97320706D01*
X125305134Y-97135134D01*
X125490706Y-96909014D01*
X125628599Y-96651034D01*
X125713513Y-96371111D01*
X125742185Y-96080000D01*
X125713513Y-95788889D01*
X125628599Y-95508966D01*
X125490706Y-95250986D01*
X125305134Y-95024866D01*
X125079014Y-94839294D01*
X125024209Y-94810000D01*
X125079014Y-94780706D01*
X125305134Y-94595134D01*
X125490706Y-94369014D01*
X125628599Y-94111034D01*
X125713513Y-93831111D01*
X125738245Y-93580000D01*
X128007815Y-93580000D01*
X128036487Y-93871111D01*
X128121401Y-94151034D01*
X128259294Y-94409014D01*
X128444866Y-94635134D01*
X128670986Y-94820706D01*
X128735523Y-94855201D01*
X128618645Y-94924822D01*
X128402412Y-95119731D01*
X128228359Y-95353080D01*
X128103175Y-95615901D01*
X128058524Y-95763110D01*
X128179845Y-95993000D01*
X129373000Y-95993000D01*
X129373000Y-95973000D01*
X129627000Y-95973000D01*
X129627000Y-95993000D01*
X130820155Y-95993000D01*
X130941476Y-95763110D01*
X130896825Y-95615901D01*
X130771641Y-95353080D01*
X130597588Y-95119731D01*
X130381355Y-94924822D01*
X130264477Y-94855201D01*
X130329014Y-94820706D01*
X130555134Y-94635134D01*
X130740706Y-94409014D01*
X130777595Y-94340000D01*
X133222405Y-94340000D01*
X133259294Y-94409014D01*
X133444866Y-94635134D01*
X133670986Y-94820706D01*
X133735523Y-94855201D01*
X133618645Y-94924822D01*
X133402412Y-95119731D01*
X133228359Y-95353080D01*
X133103175Y-95615901D01*
X133058524Y-95763110D01*
X133179845Y-95993000D01*
X134373000Y-95993000D01*
X134373000Y-95973000D01*
X134627000Y-95973000D01*
X134627000Y-95993000D01*
X135820155Y-95993000D01*
X135941476Y-95763110D01*
X135896825Y-95615901D01*
X135771641Y-95353080D01*
X135597588Y-95119731D01*
X135381355Y-94924822D01*
X135264477Y-94855201D01*
X135329014Y-94820706D01*
X135555134Y-94635134D01*
X135740706Y-94409014D01*
X135777595Y-94340000D01*
X152649442Y-94340000D01*
X152696063Y-94409774D01*
X152840226Y-94553937D01*
X153009744Y-94667205D01*
X153198102Y-94745226D01*
X153398061Y-94785000D01*
X153601939Y-94785000D01*
X153801898Y-94745226D01*
X153990256Y-94667205D01*
X154159774Y-94553937D01*
X154303937Y-94409774D01*
X154417205Y-94240256D01*
X154495226Y-94051898D01*
X154532682Y-93863589D01*
X159115000Y-93863589D01*
X159115000Y-94136411D01*
X159168225Y-94403989D01*
X159272629Y-94656043D01*
X159424201Y-94882886D01*
X159617114Y-95075799D01*
X159843957Y-95227371D01*
X160096011Y-95331775D01*
X160363589Y-95385000D01*
X160636411Y-95385000D01*
X160903989Y-95331775D01*
X161156043Y-95227371D01*
X161382886Y-95075799D01*
X161575799Y-94882886D01*
X161727371Y-94656043D01*
X161831775Y-94403989D01*
X161885000Y-94136411D01*
X161885000Y-93863589D01*
X163995000Y-93863589D01*
X163995000Y-94136411D01*
X164048225Y-94403989D01*
X164152629Y-94656043D01*
X164304201Y-94882886D01*
X164497114Y-95075799D01*
X164723957Y-95227371D01*
X164976011Y-95331775D01*
X165243589Y-95385000D01*
X165516411Y-95385000D01*
X165783989Y-95331775D01*
X166036043Y-95227371D01*
X166262886Y-95075799D01*
X166455799Y-94882886D01*
X166607371Y-94656043D01*
X166711775Y-94403989D01*
X166765000Y-94136411D01*
X166765000Y-93863589D01*
X166711775Y-93596011D01*
X166607371Y-93343957D01*
X166455799Y-93117114D01*
X166262886Y-92924201D01*
X166036043Y-92772629D01*
X165783989Y-92668225D01*
X165516411Y-92615000D01*
X165243589Y-92615000D01*
X164976011Y-92668225D01*
X164723957Y-92772629D01*
X164497114Y-92924201D01*
X164304201Y-93117114D01*
X164152629Y-93343957D01*
X164048225Y-93596011D01*
X163995000Y-93863589D01*
X161885000Y-93863589D01*
X161831775Y-93596011D01*
X161727371Y-93343957D01*
X161575799Y-93117114D01*
X161382886Y-92924201D01*
X161156043Y-92772629D01*
X160903989Y-92668225D01*
X160636411Y-92615000D01*
X160363589Y-92615000D01*
X160096011Y-92668225D01*
X159843957Y-92772629D01*
X159617114Y-92924201D01*
X159424201Y-93117114D01*
X159272629Y-93343957D01*
X159168225Y-93596011D01*
X159115000Y-93863589D01*
X154532682Y-93863589D01*
X154535000Y-93851939D01*
X154535000Y-93648061D01*
X154495226Y-93448102D01*
X154417205Y-93259744D01*
X154303937Y-93090226D01*
X154159774Y-92946063D01*
X153990256Y-92832795D01*
X153801898Y-92754774D01*
X153601939Y-92715000D01*
X153398061Y-92715000D01*
X153198102Y-92754774D01*
X153040634Y-92820000D01*
X135777595Y-92820000D01*
X135740706Y-92750986D01*
X135555134Y-92524866D01*
X135329014Y-92339294D01*
X135264477Y-92304799D01*
X135381355Y-92235178D01*
X135597588Y-92040269D01*
X135771641Y-91806920D01*
X135896825Y-91544099D01*
X135941476Y-91396890D01*
X135820155Y-91167000D01*
X134627000Y-91167000D01*
X134627000Y-91187000D01*
X134373000Y-91187000D01*
X134373000Y-91167000D01*
X133179845Y-91167000D01*
X133058524Y-91396890D01*
X133103175Y-91544099D01*
X133228359Y-91806920D01*
X133402412Y-92040269D01*
X133618645Y-92235178D01*
X133735523Y-92304799D01*
X133670986Y-92339294D01*
X133444866Y-92524866D01*
X133259294Y-92750986D01*
X133222405Y-92820000D01*
X130777595Y-92820000D01*
X130740706Y-92750986D01*
X130555134Y-92524866D01*
X130329014Y-92339294D01*
X130264477Y-92304799D01*
X130381355Y-92235178D01*
X130597588Y-92040269D01*
X130771641Y-91806920D01*
X130896825Y-91544099D01*
X130941476Y-91396890D01*
X130820155Y-91167000D01*
X129627000Y-91167000D01*
X129627000Y-91187000D01*
X129373000Y-91187000D01*
X129373000Y-91167000D01*
X128179845Y-91167000D01*
X128058524Y-91396890D01*
X128103175Y-91544099D01*
X128228359Y-91806920D01*
X128402412Y-92040269D01*
X128618645Y-92235178D01*
X128735523Y-92304799D01*
X128670986Y-92339294D01*
X128444866Y-92524866D01*
X128259294Y-92750986D01*
X128121401Y-93008966D01*
X128036487Y-93288889D01*
X128007815Y-93580000D01*
X125738245Y-93580000D01*
X125742185Y-93540000D01*
X125713513Y-93248889D01*
X125628599Y-92968966D01*
X125490706Y-92710986D01*
X125305134Y-92484866D01*
X125275313Y-92460393D01*
X125344180Y-92439502D01*
X125454494Y-92380537D01*
X125551185Y-92301185D01*
X125630537Y-92204494D01*
X125689502Y-92094180D01*
X125725812Y-91974482D01*
X125738072Y-91850000D01*
X125738072Y-91040000D01*
X138007815Y-91040000D01*
X138036487Y-91331111D01*
X138121401Y-91611034D01*
X138259294Y-91869014D01*
X138444866Y-92095134D01*
X138670986Y-92280706D01*
X138928966Y-92418599D01*
X139208889Y-92503513D01*
X139427050Y-92525000D01*
X139572950Y-92525000D01*
X139791111Y-92503513D01*
X140071034Y-92418599D01*
X140329014Y-92280706D01*
X140555134Y-92095134D01*
X140740706Y-91869014D01*
X140878599Y-91611034D01*
X140963513Y-91331111D01*
X140992185Y-91040000D01*
X140963513Y-90748889D01*
X140878599Y-90468966D01*
X140740706Y-90210986D01*
X140619348Y-90063110D01*
X182518524Y-90063110D01*
X182639845Y-90293000D01*
X183833000Y-90293000D01*
X183833000Y-89099186D01*
X183603109Y-88978519D01*
X183328748Y-89075843D01*
X183078645Y-89224822D01*
X182862412Y-89419731D01*
X182688359Y-89653080D01*
X182563175Y-89915901D01*
X182518524Y-90063110D01*
X140619348Y-90063110D01*
X140555134Y-89984866D01*
X140525313Y-89960393D01*
X140594180Y-89939502D01*
X140704494Y-89880537D01*
X140801185Y-89801185D01*
X140880537Y-89704494D01*
X140939502Y-89594180D01*
X140975812Y-89474482D01*
X140988072Y-89350000D01*
X140988072Y-87650000D01*
X140975812Y-87525518D01*
X140939502Y-87405820D01*
X140880537Y-87295506D01*
X140801185Y-87198815D01*
X140704494Y-87119463D01*
X140594180Y-87060498D01*
X140474482Y-87024188D01*
X140350000Y-87011928D01*
X138650000Y-87011928D01*
X138525518Y-87024188D01*
X138405820Y-87060498D01*
X138295506Y-87119463D01*
X138198815Y-87198815D01*
X138119463Y-87295506D01*
X138060498Y-87405820D01*
X138024188Y-87525518D01*
X138011928Y-87650000D01*
X138011928Y-89350000D01*
X138024188Y-89474482D01*
X138060498Y-89594180D01*
X138119463Y-89704494D01*
X138198815Y-89801185D01*
X138295506Y-89880537D01*
X138405820Y-89939502D01*
X138474687Y-89960393D01*
X138444866Y-89984866D01*
X138259294Y-90210986D01*
X138121401Y-90468966D01*
X138036487Y-90748889D01*
X138007815Y-91040000D01*
X125738072Y-91040000D01*
X125738072Y-90150000D01*
X125725812Y-90025518D01*
X125689502Y-89905820D01*
X125630537Y-89795506D01*
X125551185Y-89698815D01*
X125454494Y-89619463D01*
X125344180Y-89560498D01*
X125224482Y-89524188D01*
X125100000Y-89511928D01*
X123400000Y-89511928D01*
X123275518Y-89524188D01*
X123155820Y-89560498D01*
X123045506Y-89619463D01*
X122948815Y-89698815D01*
X122869463Y-89795506D01*
X122810498Y-89905820D01*
X122774188Y-90025518D01*
X122761928Y-90150000D01*
X122761928Y-91850000D01*
X122774188Y-91974482D01*
X122810498Y-92094180D01*
X122869463Y-92204494D01*
X122948815Y-92301185D01*
X123045506Y-92380537D01*
X123155820Y-92439502D01*
X123224687Y-92460393D01*
X123194866Y-92484866D01*
X123009294Y-92710986D01*
X122871401Y-92968966D01*
X122786487Y-93248889D01*
X122757815Y-93540000D01*
X120492185Y-93540000D01*
X120463513Y-93248889D01*
X120378599Y-92968966D01*
X120240706Y-92710986D01*
X120055134Y-92484866D01*
X120025313Y-92460393D01*
X120094180Y-92439502D01*
X120204494Y-92380537D01*
X120301185Y-92301185D01*
X120380537Y-92204494D01*
X120439502Y-92094180D01*
X120475812Y-91974482D01*
X120488072Y-91850000D01*
X120488072Y-90150000D01*
X120475812Y-90025518D01*
X120439502Y-89905820D01*
X120380537Y-89795506D01*
X120301185Y-89698815D01*
X120204494Y-89619463D01*
X120094180Y-89560498D01*
X119974482Y-89524188D01*
X119850000Y-89511928D01*
X118150000Y-89511928D01*
X118025518Y-89524188D01*
X117905820Y-89560498D01*
X117795506Y-89619463D01*
X117698815Y-89698815D01*
X117619463Y-89795506D01*
X117560498Y-89905820D01*
X117524188Y-90025518D01*
X117511928Y-90150000D01*
X117511928Y-91850000D01*
X117524188Y-91974482D01*
X117560498Y-92094180D01*
X117619463Y-92204494D01*
X117698815Y-92301185D01*
X117795506Y-92380537D01*
X117905820Y-92439502D01*
X117974687Y-92460393D01*
X117944866Y-92484866D01*
X117759294Y-92710986D01*
X117621401Y-92968966D01*
X117536487Y-93248889D01*
X117507815Y-93540000D01*
X115660000Y-93540000D01*
X115660000Y-87650000D01*
X128011928Y-87650000D01*
X128011928Y-89350000D01*
X128024188Y-89474482D01*
X128060498Y-89594180D01*
X128119463Y-89704494D01*
X128198815Y-89801185D01*
X128295506Y-89880537D01*
X128405820Y-89939502D01*
X128486466Y-89963966D01*
X128402412Y-90039731D01*
X128228359Y-90273080D01*
X128103175Y-90535901D01*
X128058524Y-90683110D01*
X128179845Y-90913000D01*
X129373000Y-90913000D01*
X129373000Y-90893000D01*
X129627000Y-90893000D01*
X129627000Y-90913000D01*
X130820155Y-90913000D01*
X130941476Y-90683110D01*
X130896825Y-90535901D01*
X130771641Y-90273080D01*
X130597588Y-90039731D01*
X130513534Y-89963966D01*
X130594180Y-89939502D01*
X130704494Y-89880537D01*
X130801185Y-89801185D01*
X130880537Y-89704494D01*
X130939502Y-89594180D01*
X130975812Y-89474482D01*
X130988072Y-89350000D01*
X130988072Y-89335000D01*
X133011928Y-89335000D01*
X133011928Y-89350000D01*
X133024188Y-89474482D01*
X133060498Y-89594180D01*
X133119463Y-89704494D01*
X133198815Y-89801185D01*
X133295506Y-89880537D01*
X133405820Y-89939502D01*
X133486466Y-89963966D01*
X133402412Y-90039731D01*
X133228359Y-90273080D01*
X133103175Y-90535901D01*
X133058524Y-90683110D01*
X133179845Y-90913000D01*
X134373000Y-90913000D01*
X134373000Y-90893000D01*
X134627000Y-90893000D01*
X134627000Y-90913000D01*
X135820155Y-90913000D01*
X135941476Y-90683110D01*
X135896825Y-90535901D01*
X135771641Y-90273080D01*
X135597588Y-90039731D01*
X135513534Y-89963966D01*
X135594180Y-89939502D01*
X135704494Y-89880537D01*
X135801185Y-89801185D01*
X135880537Y-89704494D01*
X135939502Y-89594180D01*
X135975812Y-89474482D01*
X135988072Y-89350000D01*
X135988072Y-87650000D01*
X135975812Y-87525518D01*
X135939502Y-87405820D01*
X135880537Y-87295506D01*
X135801185Y-87198815D01*
X135704494Y-87119463D01*
X135594180Y-87060498D01*
X135474482Y-87024188D01*
X135350000Y-87011928D01*
X133650000Y-87011928D01*
X133525518Y-87024188D01*
X133405820Y-87060498D01*
X133295506Y-87119463D01*
X133198815Y-87198815D01*
X133119463Y-87295506D01*
X133060498Y-87405820D01*
X133024188Y-87525518D01*
X133011928Y-87650000D01*
X133011928Y-87665000D01*
X130988072Y-87665000D01*
X130988072Y-87650000D01*
X130975812Y-87525518D01*
X130939502Y-87405820D01*
X130880537Y-87295506D01*
X130801185Y-87198815D01*
X130704494Y-87119463D01*
X130594180Y-87060498D01*
X130474482Y-87024188D01*
X130350000Y-87011928D01*
X128650000Y-87011928D01*
X128525518Y-87024188D01*
X128405820Y-87060498D01*
X128295506Y-87119463D01*
X128198815Y-87198815D01*
X128119463Y-87295506D01*
X128060498Y-87405820D01*
X128024188Y-87525518D01*
X128011928Y-87650000D01*
X115660000Y-87650000D01*
X115660000Y-83779872D01*
X116765000Y-83779872D01*
X116765000Y-84220128D01*
X116850890Y-84651925D01*
X117019369Y-85058669D01*
X117263962Y-85424729D01*
X117575271Y-85736038D01*
X117941331Y-85980631D01*
X118348075Y-86149110D01*
X118779872Y-86235000D01*
X119220128Y-86235000D01*
X119651925Y-86149110D01*
X120058669Y-85980631D01*
X120424729Y-85736038D01*
X120736038Y-85424729D01*
X120980631Y-85058669D01*
X121149110Y-84651925D01*
X121235000Y-84220128D01*
X121235000Y-83779872D01*
X183765000Y-83779872D01*
X183765000Y-84220128D01*
X183850890Y-84651925D01*
X184019369Y-85058669D01*
X184263962Y-85424729D01*
X184575271Y-85736038D01*
X184941331Y-85980631D01*
X185348075Y-86149110D01*
X185779872Y-86235000D01*
X186220128Y-86235000D01*
X186651925Y-86149110D01*
X187058669Y-85980631D01*
X187424729Y-85736038D01*
X187736038Y-85424729D01*
X187980631Y-85058669D01*
X188149110Y-84651925D01*
X188235000Y-84220128D01*
X188235000Y-83779872D01*
X188149110Y-83348075D01*
X187980631Y-82941331D01*
X187736038Y-82575271D01*
X187424729Y-82263962D01*
X187058669Y-82019369D01*
X186651925Y-81850890D01*
X186220128Y-81765000D01*
X185779872Y-81765000D01*
X185348075Y-81850890D01*
X184941331Y-82019369D01*
X184575271Y-82263962D01*
X184263962Y-82575271D01*
X184019369Y-82941331D01*
X183850890Y-83348075D01*
X183765000Y-83779872D01*
X121235000Y-83779872D01*
X121149110Y-83348075D01*
X120980631Y-82941331D01*
X120736038Y-82575271D01*
X120424729Y-82263962D01*
X120058669Y-82019369D01*
X119651925Y-81850890D01*
X119220128Y-81765000D01*
X118779872Y-81765000D01*
X118348075Y-81850890D01*
X117941331Y-82019369D01*
X117575271Y-82263962D01*
X117263962Y-82575271D01*
X117019369Y-82941331D01*
X116850890Y-83348075D01*
X116765000Y-83779872D01*
X115660000Y-83779872D01*
X115660000Y-80660000D01*
X189340000Y-80660000D01*
X189340001Y-102441368D01*
X189340001Y-102441368D01*
G37*
X189340001Y-102441368D02*
X189289946Y-102407610D01*
X189065496Y-102313507D01*
X188827000Y-102265000D01*
X188477000Y-102265000D01*
X188477000Y-103373000D01*
X188497000Y-103373000D01*
X188497000Y-103627000D01*
X188477000Y-103627000D01*
X188477000Y-104735000D01*
X188827000Y-104735000D01*
X189065496Y-104686493D01*
X189289946Y-104592390D01*
X189340001Y-104558632D01*
X189340001Y-109441368D01*
X189289946Y-109407610D01*
X189065496Y-109313507D01*
X188827000Y-109265000D01*
X188477000Y-109265000D01*
X188477000Y-110373000D01*
X188497000Y-110373000D01*
X188497000Y-110627000D01*
X188477000Y-110627000D01*
X188477000Y-111735000D01*
X188827000Y-111735000D01*
X189065496Y-111686493D01*
X189289946Y-111592390D01*
X189340001Y-111558632D01*
X189340001Y-119340000D01*
X115660000Y-119340000D01*
X115660000Y-115779872D01*
X116765000Y-115779872D01*
X116765000Y-116220128D01*
X116850890Y-116651925D01*
X117019369Y-117058669D01*
X117263962Y-117424729D01*
X117575271Y-117736038D01*
X117941331Y-117980631D01*
X118348075Y-118149110D01*
X118779872Y-118235000D01*
X119220128Y-118235000D01*
X119651925Y-118149110D01*
X120058669Y-117980631D01*
X120424729Y-117736038D01*
X120736038Y-117424729D01*
X120980631Y-117058669D01*
X121149110Y-116651925D01*
X121235000Y-116220128D01*
X121235000Y-115779872D01*
X121149110Y-115348075D01*
X120980631Y-114941331D01*
X120852788Y-114750000D01*
X130611928Y-114750000D01*
X130611928Y-117250000D01*
X130624188Y-117374482D01*
X130660498Y-117494180D01*
X130719463Y-117604494D01*
X130798815Y-117701185D01*
X130895506Y-117780537D01*
X131005820Y-117839502D01*
X131125518Y-117875812D01*
X131250000Y-117888072D01*
X132750000Y-117888072D01*
X132874482Y-117875812D01*
X132994180Y-117839502D01*
X133104494Y-117780537D01*
X133201185Y-117701185D01*
X133280537Y-117604494D01*
X133339502Y-117494180D01*
X133375812Y-117374482D01*
X133386582Y-117265126D01*
X133458972Y-117375061D01*
X133650460Y-117569145D01*
X133876132Y-117722142D01*
X134127316Y-117828173D01*
X134198815Y-117842318D01*
X134413000Y-117719656D01*
X134413000Y-116127000D01*
X134393000Y-116127000D01*
X134393000Y-115873000D01*
X134413000Y-115873000D01*
X134413000Y-114280344D01*
X134667000Y-114280344D01*
X134667000Y-115873000D01*
X134687000Y-115873000D01*
X134687000Y-116127000D01*
X134667000Y-116127000D01*
X134667000Y-117719656D01*
X134881185Y-117842318D01*
X134952684Y-117828173D01*
X135203868Y-117722142D01*
X135429540Y-117569145D01*
X135621028Y-117375061D01*
X135770972Y-117147349D01*
X135807514Y-117057422D01*
X135922843Y-117273188D01*
X136095920Y-117484081D01*
X136306813Y-117657157D01*
X136547420Y-117785764D01*
X136808494Y-117864960D01*
X137080000Y-117891701D01*
X137351507Y-117864960D01*
X137612581Y-117785764D01*
X137853188Y-117657157D01*
X138064081Y-117484081D01*
X138237157Y-117273188D01*
X138365764Y-117032581D01*
X138444960Y-116771507D01*
X138465000Y-116568037D01*
X138465000Y-115431963D01*
X138452798Y-115308070D01*
X138860868Y-114900000D01*
X159761928Y-114900000D01*
X159761928Y-116600000D01*
X159774188Y-116724482D01*
X159810498Y-116844180D01*
X159869463Y-116954494D01*
X159948815Y-117051185D01*
X160045506Y-117130537D01*
X160155820Y-117189502D01*
X160275518Y-117225812D01*
X160400000Y-117238072D01*
X162100000Y-117238072D01*
X162224482Y-117225812D01*
X162344180Y-117189502D01*
X162454494Y-117130537D01*
X162551185Y-117051185D01*
X162630537Y-116954494D01*
X162689502Y-116844180D01*
X162713966Y-116763534D01*
X162789731Y-116847588D01*
X163023080Y-117021641D01*
X163285901Y-117146825D01*
X163433110Y-117191476D01*
X163663000Y-117070155D01*
X163663000Y-115877000D01*
X163917000Y-115877000D01*
X163917000Y-117070155D01*
X164146890Y-117191476D01*
X164294099Y-117146825D01*
X164556920Y-117021641D01*
X164790269Y-116847588D01*
X164985178Y-116631355D01*
X165134157Y-116381252D01*
X165231481Y-116106891D01*
X165110814Y-115877000D01*
X163917000Y-115877000D01*
X163663000Y-115877000D01*
X163643000Y-115877000D01*
X163643000Y-115779872D01*
X183765000Y-115779872D01*
X183765000Y-116220128D01*
X183850890Y-116651925D01*
X184019369Y-117058669D01*
X184263962Y-117424729D01*
X184575271Y-117736038D01*
X184941331Y-117980631D01*
X185348075Y-118149110D01*
X185779872Y-118235000D01*
X186220128Y-118235000D01*
X186651925Y-118149110D01*
X187058669Y-117980631D01*
X187424729Y-117736038D01*
X187736038Y-117424729D01*
X187980631Y-117058669D01*
X188149110Y-116651925D01*
X188235000Y-116220128D01*
X188235000Y-115779872D01*
X188149110Y-115348075D01*
X187980631Y-114941331D01*
X187736038Y-114575271D01*
X187424729Y-114263962D01*
X187058669Y-114019369D01*
X186651925Y-113850890D01*
X186220128Y-113765000D01*
X185779872Y-113765000D01*
X185348075Y-113850890D01*
X184941331Y-114019369D01*
X184575271Y-114263962D01*
X184263962Y-114575271D01*
X184019369Y-114941331D01*
X183850890Y-115348075D01*
X183765000Y-115779872D01*
X163643000Y-115779872D01*
X163643000Y-115623000D01*
X163663000Y-115623000D01*
X163663000Y-114429845D01*
X163917000Y-114429845D01*
X163917000Y-115623000D01*
X165110814Y-115623000D01*
X165231481Y-115393109D01*
X165134157Y-115118748D01*
X164985178Y-114868645D01*
X164790269Y-114652412D01*
X164556920Y-114478359D01*
X164294099Y-114353175D01*
X164146890Y-114308524D01*
X163917000Y-114429845D01*
X163663000Y-114429845D01*
X163433110Y-114308524D01*
X163285901Y-114353175D01*
X163023080Y-114478359D01*
X162789731Y-114652412D01*
X162713966Y-114736466D01*
X162689502Y-114655820D01*
X162630537Y-114545506D01*
X162551185Y-114448815D01*
X162454494Y-114369463D01*
X162344180Y-114310498D01*
X162224482Y-114274188D01*
X162100000Y-114261928D01*
X160400000Y-114261928D01*
X160275518Y-114274188D01*
X160155820Y-114310498D01*
X160045506Y-114369463D01*
X159948815Y-114448815D01*
X159869463Y-114545506D01*
X159810498Y-114655820D01*
X159774188Y-114775518D01*
X159761928Y-114900000D01*
X138860868Y-114900000D01*
X141425868Y-112335000D01*
X166229868Y-112335000D01*
X166276480Y-112381612D01*
X166462376Y-112505824D01*
X166668933Y-112591383D01*
X166888212Y-112635000D01*
X167111788Y-112635000D01*
X167331067Y-112591383D01*
X167537624Y-112505824D01*
X167723520Y-112381612D01*
X167770132Y-112335000D01*
X167918982Y-112335000D01*
X167960000Y-112339040D01*
X168001018Y-112335000D01*
X168001019Y-112335000D01*
X168123689Y-112322918D01*
X168281087Y-112275172D01*
X168426146Y-112197636D01*
X168553291Y-112093291D01*
X168579446Y-112061421D01*
X170201734Y-110439133D01*
X184890472Y-110439133D01*
X184952965Y-110675450D01*
X185195678Y-110788850D01*
X185455849Y-110852719D01*
X185723482Y-110864604D01*
X185988291Y-110824048D01*
X186006023Y-110817609D01*
X186806538Y-110817609D01*
X186810409Y-110855282D01*
X186902579Y-111080533D01*
X187036922Y-111283474D01*
X187208275Y-111456307D01*
X187410054Y-111592390D01*
X187634504Y-111686493D01*
X187873000Y-111735000D01*
X188223000Y-111735000D01*
X188223000Y-110627000D01*
X186931269Y-110627000D01*
X186806538Y-110817609D01*
X186006023Y-110817609D01*
X186240100Y-110732609D01*
X186347035Y-110675450D01*
X186409528Y-110439133D01*
X185650000Y-109679605D01*
X184890472Y-110439133D01*
X170201734Y-110439133D01*
X171067385Y-109573482D01*
X184285396Y-109573482D01*
X184325952Y-109838291D01*
X184417391Y-110090100D01*
X184474550Y-110197035D01*
X184710867Y-110259528D01*
X185470395Y-109500000D01*
X185829605Y-109500000D01*
X186589133Y-110259528D01*
X186817497Y-110199138D01*
X186931269Y-110373000D01*
X188223000Y-110373000D01*
X188223000Y-109265000D01*
X187873000Y-109265000D01*
X187634504Y-109313507D01*
X187410054Y-109407610D01*
X187208275Y-109543693D01*
X187036922Y-109716526D01*
X186973829Y-109811836D01*
X187002719Y-109694151D01*
X187014604Y-109426518D01*
X186974048Y-109161709D01*
X186882609Y-108909900D01*
X186825450Y-108802965D01*
X186589133Y-108740472D01*
X185829605Y-109500000D01*
X185470395Y-109500000D01*
X184710867Y-108740472D01*
X184474550Y-108802965D01*
X184361150Y-109045678D01*
X184297281Y-109305849D01*
X184285396Y-109573482D01*
X171067385Y-109573482D01*
X172080000Y-108560867D01*
X184890472Y-108560867D01*
X185650000Y-109320395D01*
X186409528Y-108560867D01*
X186347035Y-108324550D01*
X186104322Y-108211150D01*
X185844151Y-108147281D01*
X185576518Y-108135396D01*
X185311709Y-108175952D01*
X185059900Y-108267391D01*
X184952965Y-108324550D01*
X184890472Y-108560867D01*
X172080000Y-108560867D01*
X175201734Y-105439133D01*
X184890472Y-105439133D01*
X184952965Y-105675450D01*
X185195678Y-105788850D01*
X185455849Y-105852719D01*
X185723482Y-105864604D01*
X185988291Y-105824048D01*
X186240100Y-105732609D01*
X186347035Y-105675450D01*
X186409528Y-105439133D01*
X185650000Y-104679605D01*
X184890472Y-105439133D01*
X175201734Y-105439133D01*
X176067385Y-104573482D01*
X184285396Y-104573482D01*
X184325952Y-104838291D01*
X184417391Y-105090100D01*
X184474550Y-105197035D01*
X184710867Y-105259528D01*
X185470395Y-104500000D01*
X185829605Y-104500000D01*
X186589133Y-105259528D01*
X186825450Y-105197035D01*
X186938850Y-104954322D01*
X187002719Y-104694151D01*
X187014604Y-104426518D01*
X186979385Y-104196558D01*
X187036922Y-104283474D01*
X187208275Y-104456307D01*
X187410054Y-104592390D01*
X187634504Y-104686493D01*
X187873000Y-104735000D01*
X188223000Y-104735000D01*
X188223000Y-103627000D01*
X186931269Y-103627000D01*
X186817497Y-103800862D01*
X186589133Y-103740472D01*
X185829605Y-104500000D01*
X185470395Y-104500000D01*
X184710867Y-103740472D01*
X184474550Y-103802965D01*
X184361150Y-104045678D01*
X184297281Y-104305849D01*
X184285396Y-104573482D01*
X176067385Y-104573482D01*
X177080000Y-103560867D01*
X184890472Y-103560867D01*
X185650000Y-104320395D01*
X186409528Y-103560867D01*
X186347035Y-103324550D01*
X186104322Y-103211150D01*
X185987172Y-103182391D01*
X186806538Y-103182391D01*
X186931269Y-103373000D01*
X188223000Y-103373000D01*
X188223000Y-102265000D01*
X187873000Y-102265000D01*
X187634504Y-102313507D01*
X187410054Y-102407610D01*
X187208275Y-102543693D01*
X187036922Y-102716526D01*
X186902579Y-102919467D01*
X186810409Y-103144718D01*
X186806538Y-103182391D01*
X185987172Y-103182391D01*
X185844151Y-103147281D01*
X185576518Y-103135396D01*
X185311709Y-103175952D01*
X185059900Y-103267391D01*
X184952965Y-103324550D01*
X184890472Y-103560867D01*
X177080000Y-103560867D01*
X183676596Y-96964272D01*
X183887050Y-96985000D01*
X184032950Y-96985000D01*
X184251111Y-96963513D01*
X184531034Y-96878599D01*
X184789014Y-96740706D01*
X185015134Y-96555134D01*
X185039607Y-96525313D01*
X185060498Y-96594180D01*
X185119463Y-96704494D01*
X185198815Y-96801185D01*
X185295506Y-96880537D01*
X185405820Y-96939502D01*
X185525518Y-96975812D01*
X185650000Y-96988072D01*
X187350000Y-96988072D01*
X187474482Y-96975812D01*
X187594180Y-96939502D01*
X187704494Y-96880537D01*
X187801185Y-96801185D01*
X187880537Y-96704494D01*
X187939502Y-96594180D01*
X187975812Y-96474482D01*
X187988072Y-96350000D01*
X187988072Y-94650000D01*
X187975812Y-94525518D01*
X187939502Y-94405820D01*
X187880537Y-94295506D01*
X187801185Y-94198815D01*
X187704494Y-94119463D01*
X187594180Y-94060498D01*
X187525313Y-94039607D01*
X187555134Y-94015134D01*
X187740706Y-93789014D01*
X187878599Y-93531034D01*
X187963513Y-93251111D01*
X187992185Y-92960000D01*
X187963513Y-92668889D01*
X187878599Y-92388966D01*
X187740706Y-92130986D01*
X187555134Y-91904866D01*
X187329014Y-91719294D01*
X187274209Y-91690000D01*
X187329014Y-91660706D01*
X187555134Y-91475134D01*
X187740706Y-91249014D01*
X187878599Y-90991034D01*
X187963513Y-90711111D01*
X187992185Y-90420000D01*
X187963513Y-90128889D01*
X187878599Y-89848966D01*
X187740706Y-89590986D01*
X187555134Y-89364866D01*
X187329014Y-89179294D01*
X187071034Y-89041401D01*
X186791111Y-88956487D01*
X186572950Y-88935000D01*
X186427050Y-88935000D01*
X186208889Y-88956487D01*
X185928966Y-89041401D01*
X185670986Y-89179294D01*
X185444866Y-89364866D01*
X185259294Y-89590986D01*
X185228416Y-89648756D01*
X185057588Y-89419731D01*
X184841355Y-89224822D01*
X184591252Y-89075843D01*
X184316891Y-88978519D01*
X184087000Y-89099186D01*
X184087000Y-90293000D01*
X184107000Y-90293000D01*
X184107000Y-90547000D01*
X184087000Y-90547000D01*
X184087000Y-90567000D01*
X183833000Y-90567000D01*
X183833000Y-90547000D01*
X182639845Y-90547000D01*
X182518524Y-90776890D01*
X182563175Y-90924099D01*
X182688359Y-91186920D01*
X182862412Y-91420269D01*
X183078645Y-91615178D01*
X183195523Y-91684799D01*
X183130986Y-91719294D01*
X182904866Y-91904866D01*
X182719294Y-92130986D01*
X182581401Y-92388966D01*
X182496487Y-92668889D01*
X182467815Y-92960000D01*
X182496487Y-93251111D01*
X182581401Y-93531034D01*
X182719294Y-93789014D01*
X182904866Y-94015134D01*
X183130986Y-94200706D01*
X183185791Y-94230000D01*
X183130986Y-94259294D01*
X182904866Y-94444866D01*
X182719294Y-94670986D01*
X182581401Y-94928966D01*
X182496487Y-95208889D01*
X182467815Y-95500000D01*
X182495728Y-95783404D01*
X170857998Y-107421135D01*
X170803937Y-107340226D01*
X170659774Y-107196063D01*
X170490256Y-107082795D01*
X170301898Y-107004774D01*
X170101939Y-106965000D01*
X169898061Y-106965000D01*
X169698102Y-107004774D01*
X169509744Y-107082795D01*
X169340226Y-107196063D01*
X169296289Y-107240000D01*
X167564802Y-107240000D01*
X162063804Y-101739003D01*
X162040001Y-101709999D01*
X161924276Y-101615026D01*
X161792247Y-101544454D01*
X161648986Y-101500997D01*
X161537333Y-101490000D01*
X161537322Y-101490000D01*
X161500000Y-101486324D01*
X161462678Y-101490000D01*
X155203711Y-101490000D01*
X155159774Y-101446063D01*
X154990256Y-101332795D01*
X154801898Y-101254774D01*
X154601939Y-101215000D01*
X154398061Y-101215000D01*
X154198102Y-101254774D01*
X154009744Y-101332795D01*
X153840226Y-101446063D01*
X153696063Y-101590226D01*
X153582795Y-101759744D01*
X153504774Y-101948102D01*
X153465000Y-102148061D01*
X153465000Y-102351939D01*
X153504774Y-102551898D01*
X153582795Y-102740256D01*
X153696063Y-102909774D01*
X153840226Y-103053937D01*
X154009744Y-103167205D01*
X154198102Y-103245226D01*
X154398061Y-103285000D01*
X154601939Y-103285000D01*
X154801898Y-103245226D01*
X154990256Y-103167205D01*
X155159774Y-103053937D01*
X155203711Y-103010000D01*
X161185199Y-103010000D01*
X166686201Y-108511003D01*
X166709999Y-108540001D01*
X166738997Y-108563799D01*
X166825723Y-108634974D01*
X166957753Y-108705546D01*
X167101014Y-108749003D01*
X167212667Y-108760000D01*
X167212677Y-108760000D01*
X167250000Y-108763676D01*
X167287322Y-108760000D01*
X169296289Y-108760000D01*
X169340226Y-108803937D01*
X169421135Y-108857998D01*
X167685889Y-110593244D01*
X167537624Y-110494176D01*
X167331067Y-110408617D01*
X167111788Y-110365000D01*
X166888212Y-110365000D01*
X166668933Y-110408617D01*
X166462376Y-110494176D01*
X166276480Y-110618388D01*
X166229868Y-110665000D01*
X141121015Y-110665000D01*
X141079999Y-110660960D01*
X141038983Y-110665000D01*
X141038981Y-110665000D01*
X140916311Y-110677082D01*
X140758913Y-110724828D01*
X140613854Y-110802364D01*
X140486709Y-110906709D01*
X140460561Y-110938571D01*
X137271930Y-114127202D01*
X137080000Y-114108299D01*
X136808493Y-114135040D01*
X136547419Y-114214236D01*
X136306812Y-114342843D01*
X136095919Y-114515920D01*
X135922843Y-114726813D01*
X135807514Y-114942579D01*
X135770972Y-114852651D01*
X135621028Y-114624939D01*
X135429540Y-114430855D01*
X135203868Y-114277858D01*
X134952684Y-114171827D01*
X134881185Y-114157682D01*
X134667000Y-114280344D01*
X134413000Y-114280344D01*
X134198815Y-114157682D01*
X134127316Y-114171827D01*
X133876132Y-114277858D01*
X133650460Y-114430855D01*
X133458972Y-114624939D01*
X133386582Y-114734874D01*
X133375812Y-114625518D01*
X133339502Y-114505820D01*
X133280537Y-114395506D01*
X133201185Y-114298815D01*
X133104494Y-114219463D01*
X132994180Y-114160498D01*
X132874482Y-114124188D01*
X132750000Y-114111928D01*
X131250000Y-114111928D01*
X131125518Y-114124188D01*
X131005820Y-114160498D01*
X130895506Y-114219463D01*
X130798815Y-114298815D01*
X130719463Y-114395506D01*
X130660498Y-114505820D01*
X130624188Y-114625518D01*
X130611928Y-114750000D01*
X120852788Y-114750000D01*
X120736038Y-114575271D01*
X120424729Y-114263962D01*
X120058669Y-114019369D01*
X119651925Y-113850890D01*
X119220128Y-113765000D01*
X118779872Y-113765000D01*
X118348075Y-113850890D01*
X117941331Y-114019369D01*
X117575271Y-114263962D01*
X117263962Y-114575271D01*
X117019369Y-114941331D01*
X116850890Y-115348075D01*
X116765000Y-115779872D01*
X115660000Y-115779872D01*
X115660000Y-108777980D01*
X120901626Y-108777980D01*
X121021514Y-109062836D01*
X121345210Y-109223699D01*
X121694069Y-109318322D01*
X122054684Y-109343067D01*
X122413198Y-109296985D01*
X122755833Y-109181846D01*
X122978486Y-109062836D01*
X123098374Y-108777980D01*
X122000000Y-107679605D01*
X120901626Y-108777980D01*
X115660000Y-108777980D01*
X115660000Y-107554684D01*
X120156933Y-107554684D01*
X120203015Y-107913198D01*
X120318154Y-108255833D01*
X120437164Y-108478486D01*
X120722020Y-108598374D01*
X121820395Y-107500000D01*
X122179605Y-107500000D01*
X123277980Y-108598374D01*
X123562836Y-108478486D01*
X123723699Y-108154790D01*
X123818322Y-107805931D01*
X123843067Y-107445316D01*
X123796985Y-107086802D01*
X123681846Y-106744167D01*
X123562836Y-106521514D01*
X123277980Y-106401626D01*
X122179605Y-107500000D01*
X121820395Y-107500000D01*
X120722020Y-106401626D01*
X120437164Y-106521514D01*
X120276301Y-106845210D01*
X120181678Y-107194069D01*
X120156933Y-107554684D01*
X115660000Y-107554684D01*
X115660000Y-102800000D01*
X120161928Y-102800000D01*
X120161928Y-105200000D01*
X120174188Y-105324482D01*
X120210498Y-105444180D01*
X120269463Y-105554494D01*
X120348815Y-105651185D01*
X120445506Y-105730537D01*
X120555820Y-105789502D01*
X120675518Y-105825812D01*
X120800000Y-105838072D01*
X121206903Y-105838072D01*
X121021514Y-105937164D01*
X120901626Y-106222020D01*
X122000000Y-107320395D01*
X123098374Y-106222020D01*
X122978486Y-105937164D01*
X122779088Y-105838072D01*
X123200000Y-105838072D01*
X123324482Y-105825812D01*
X123444180Y-105789502D01*
X123554494Y-105730537D01*
X123651185Y-105651185D01*
X123730537Y-105554494D01*
X123789502Y-105444180D01*
X123825812Y-105324482D01*
X123838072Y-105200000D01*
X123838072Y-102800000D01*
X123825812Y-102675518D01*
X123789502Y-102555820D01*
X123730537Y-102445506D01*
X123651185Y-102348815D01*
X123554494Y-102269463D01*
X123444180Y-102210498D01*
X123324482Y-102174188D01*
X123200000Y-102161928D01*
X120800000Y-102161928D01*
X120675518Y-102174188D01*
X120555820Y-102210498D01*
X120445506Y-102269463D01*
X120348815Y-102348815D01*
X120269463Y-102445506D01*
X120210498Y-102555820D01*
X120174188Y-102675518D01*
X120161928Y-102800000D01*
X115660000Y-102800000D01*
X115660000Y-101556890D01*
X128058524Y-101556890D01*
X128103175Y-101704099D01*
X128228359Y-101966920D01*
X128402412Y-102200269D01*
X128618645Y-102395178D01*
X128868748Y-102544157D01*
X129143109Y-102641481D01*
X129373000Y-102520814D01*
X129373000Y-101327000D01*
X129627000Y-101327000D01*
X129627000Y-102520814D01*
X129856891Y-102641481D01*
X130131252Y-102544157D01*
X130381355Y-102395178D01*
X130597588Y-102200269D01*
X130771641Y-101966920D01*
X130896825Y-101704099D01*
X130941476Y-101556890D01*
X133058524Y-101556890D01*
X133103175Y-101704099D01*
X133228359Y-101966920D01*
X133402412Y-102200269D01*
X133618645Y-102395178D01*
X133868748Y-102544157D01*
X134143109Y-102641481D01*
X134373000Y-102520814D01*
X134373000Y-101327000D01*
X134627000Y-101327000D01*
X134627000Y-102520814D01*
X134856891Y-102641481D01*
X135131252Y-102544157D01*
X135381355Y-102395178D01*
X135597588Y-102200269D01*
X135771641Y-101966920D01*
X135896825Y-101704099D01*
X135941476Y-101556890D01*
X135820155Y-101327000D01*
X134627000Y-101327000D01*
X134373000Y-101327000D01*
X133179845Y-101327000D01*
X133058524Y-101556890D01*
X130941476Y-101556890D01*
X130820155Y-101327000D01*
X129627000Y-101327000D01*
X129373000Y-101327000D01*
X128179845Y-101327000D01*
X128058524Y-101556890D01*
X115660000Y-101556890D01*
X115660000Y-98976890D01*
X117558524Y-98976890D01*
X117603175Y-99124099D01*
X117728359Y-99386920D01*
X117902412Y-99620269D01*
X118118645Y-99815178D01*
X118368748Y-99964157D01*
X118643109Y-100061481D01*
X118873000Y-99940814D01*
X118873000Y-98747000D01*
X119127000Y-98747000D01*
X119127000Y-99940814D01*
X119356891Y-100061481D01*
X119631252Y-99964157D01*
X119881355Y-99815178D01*
X120097588Y-99620269D01*
X120271641Y-99386920D01*
X120396825Y-99124099D01*
X120441476Y-98976890D01*
X122808524Y-98976890D01*
X122853175Y-99124099D01*
X122978359Y-99386920D01*
X123152412Y-99620269D01*
X123368645Y-99815178D01*
X123618748Y-99964157D01*
X123893109Y-100061481D01*
X124123000Y-99940814D01*
X124123000Y-98747000D01*
X124377000Y-98747000D01*
X124377000Y-99940814D01*
X124606891Y-100061481D01*
X124881252Y-99964157D01*
X125131355Y-99815178D01*
X125347588Y-99620269D01*
X125521641Y-99386920D01*
X125646825Y-99124099D01*
X125691476Y-98976890D01*
X125570155Y-98747000D01*
X124377000Y-98747000D01*
X124123000Y-98747000D01*
X122929845Y-98747000D01*
X122808524Y-98976890D01*
X120441476Y-98976890D01*
X120320155Y-98747000D01*
X119127000Y-98747000D01*
X118873000Y-98747000D01*
X117679845Y-98747000D01*
X117558524Y-98976890D01*
X115660000Y-98976890D01*
X115660000Y-98660000D01*
X128007815Y-98660000D01*
X128036487Y-98951111D01*
X128121401Y-99231034D01*
X128259294Y-99489014D01*
X128444866Y-99715134D01*
X128670986Y-99900706D01*
X128735523Y-99935201D01*
X128618645Y-100004822D01*
X128402412Y-100199731D01*
X128228359Y-100433080D01*
X128103175Y-100695901D01*
X128058524Y-100843110D01*
X128179845Y-101073000D01*
X129373000Y-101073000D01*
X129373000Y-101053000D01*
X129627000Y-101053000D01*
X129627000Y-101073000D01*
X130820155Y-101073000D01*
X130941476Y-100843110D01*
X130896825Y-100695901D01*
X130771641Y-100433080D01*
X130597588Y-100199731D01*
X130381355Y-100004822D01*
X130264477Y-99935201D01*
X130329014Y-99900706D01*
X130555134Y-99715134D01*
X130740706Y-99489014D01*
X130777595Y-99420000D01*
X133222405Y-99420000D01*
X133259294Y-99489014D01*
X133444866Y-99715134D01*
X133670986Y-99900706D01*
X133735523Y-99935201D01*
X133618645Y-100004822D01*
X133402412Y-100199731D01*
X133228359Y-100433080D01*
X133103175Y-100695901D01*
X133058524Y-100843110D01*
X133179845Y-101073000D01*
X134373000Y-101073000D01*
X134373000Y-101053000D01*
X134627000Y-101053000D01*
X134627000Y-101073000D01*
X135820155Y-101073000D01*
X135941476Y-100843110D01*
X135896825Y-100695901D01*
X135771641Y-100433080D01*
X135597588Y-100199731D01*
X135381355Y-100004822D01*
X135264477Y-99935201D01*
X135329014Y-99900706D01*
X135555134Y-99715134D01*
X135740706Y-99489014D01*
X135878599Y-99231034D01*
X135963513Y-98951111D01*
X135992185Y-98660000D01*
X135963513Y-98368889D01*
X135940797Y-98294004D01*
X136699803Y-97534999D01*
X147625133Y-97534999D01*
X147509744Y-97582795D01*
X147340226Y-97696063D01*
X147196063Y-97840226D01*
X147082795Y-98009744D01*
X147004774Y-98198102D01*
X146965000Y-98398061D01*
X146965000Y-98601939D01*
X147004774Y-98801898D01*
X147082795Y-98990256D01*
X147196063Y-99159774D01*
X147340226Y-99303937D01*
X147509744Y-99417205D01*
X147698102Y-99495226D01*
X147898061Y-99535000D01*
X148101939Y-99535000D01*
X148301898Y-99495226D01*
X148490256Y-99417205D01*
X148659774Y-99303937D01*
X148703711Y-99260000D01*
X164185199Y-99260000D01*
X164965000Y-100039802D01*
X164965000Y-100101939D01*
X165004774Y-100301898D01*
X165082795Y-100490256D01*
X165196063Y-100659774D01*
X165340226Y-100803937D01*
X165509744Y-100917205D01*
X165698102Y-100995226D01*
X165898061Y-101035000D01*
X166101939Y-101035000D01*
X166301898Y-100995226D01*
X166490256Y-100917205D01*
X166659774Y-100803937D01*
X166803937Y-100659774D01*
X166917205Y-100490256D01*
X166995226Y-100301898D01*
X167035000Y-100101939D01*
X167035000Y-99898061D01*
X166995226Y-99698102D01*
X166917205Y-99509744D01*
X166803937Y-99340226D01*
X166659774Y-99196063D01*
X166490256Y-99082795D01*
X166301898Y-99004774D01*
X166101939Y-98965000D01*
X166039802Y-98965000D01*
X165834802Y-98760000D01*
X171046289Y-98760000D01*
X171090226Y-98803937D01*
X171259744Y-98917205D01*
X171448102Y-98995226D01*
X171648061Y-99035000D01*
X171851939Y-99035000D01*
X172051898Y-98995226D01*
X172240256Y-98917205D01*
X172409774Y-98803937D01*
X172553937Y-98659774D01*
X172667205Y-98490256D01*
X172745226Y-98301898D01*
X172785000Y-98101939D01*
X172785000Y-97898061D01*
X172745226Y-97698102D01*
X172667205Y-97509744D01*
X172553937Y-97340226D01*
X172409774Y-97196063D01*
X172240256Y-97082795D01*
X172051898Y-97004774D01*
X171851939Y-96965000D01*
X171648061Y-96965000D01*
X171448102Y-97004774D01*
X171259744Y-97082795D01*
X171090226Y-97196063D01*
X171046289Y-97240000D01*
X163138022Y-97240000D01*
X163195226Y-97101898D01*
X163235000Y-96901939D01*
X163235000Y-96698061D01*
X163195226Y-96498102D01*
X163117205Y-96309744D01*
X163003937Y-96140226D01*
X162859774Y-95996063D01*
X162690256Y-95882795D01*
X162501898Y-95804774D01*
X162301939Y-95765000D01*
X162098061Y-95765000D01*
X161898102Y-95804774D01*
X161709744Y-95882795D01*
X161540226Y-95996063D01*
X161496289Y-96040000D01*
X158793153Y-96040000D01*
X158746987Y-96025996D01*
X158635334Y-96014999D01*
X158635323Y-96014999D01*
X158598001Y-96011323D01*
X158560679Y-96014999D01*
X136422324Y-96014999D01*
X136385001Y-96011323D01*
X136347678Y-96014999D01*
X136347668Y-96014999D01*
X136236015Y-96025996D01*
X136092754Y-96069453D01*
X135960725Y-96140025D01*
X135845000Y-96234998D01*
X135826024Y-96258121D01*
X135820155Y-96247000D01*
X134627000Y-96247000D01*
X134627000Y-96267000D01*
X134373000Y-96267000D01*
X134373000Y-96247000D01*
X133179845Y-96247000D01*
X133058524Y-96476890D01*
X133103175Y-96624099D01*
X133228359Y-96886920D01*
X133402412Y-97120269D01*
X133618645Y-97315178D01*
X133735523Y-97384799D01*
X133670986Y-97419294D01*
X133444866Y-97604866D01*
X133259294Y-97830986D01*
X133222405Y-97900000D01*
X130777595Y-97900000D01*
X130740706Y-97830986D01*
X130555134Y-97604866D01*
X130329014Y-97419294D01*
X130264477Y-97384799D01*
X130381355Y-97315178D01*
X130597588Y-97120269D01*
X130771641Y-96886920D01*
X130896825Y-96624099D01*
X130941476Y-96476890D01*
X130820155Y-96247000D01*
X129627000Y-96247000D01*
X129627000Y-96267000D01*
X129373000Y-96267000D01*
X129373000Y-96247000D01*
X128179845Y-96247000D01*
X128058524Y-96476890D01*
X128103175Y-96624099D01*
X128228359Y-96886920D01*
X128402412Y-97120269D01*
X128618645Y-97315178D01*
X128735523Y-97384799D01*
X128670986Y-97419294D01*
X128444866Y-97604866D01*
X128259294Y-97830986D01*
X128121401Y-98088966D01*
X128036487Y-98368889D01*
X128007815Y-98660000D01*
X115660000Y-98660000D01*
X115660000Y-93540000D01*
X117507815Y-93540000D01*
X117536487Y-93831111D01*
X117621401Y-94111034D01*
X117759294Y-94369014D01*
X117944866Y-94595134D01*
X118170986Y-94780706D01*
X118225791Y-94810000D01*
X118170986Y-94839294D01*
X117944866Y-95024866D01*
X117759294Y-95250986D01*
X117621401Y-95508966D01*
X117536487Y-95788889D01*
X117507815Y-96080000D01*
X117536487Y-96371111D01*
X117621401Y-96651034D01*
X117759294Y-96909014D01*
X117944866Y-97135134D01*
X118170986Y-97320706D01*
X118235523Y-97355201D01*
X118118645Y-97424822D01*
X117902412Y-97619731D01*
X117728359Y-97853080D01*
X117603175Y-98115901D01*
X117558524Y-98263110D01*
X117679845Y-98493000D01*
X118873000Y-98493000D01*
X118873000Y-98473000D01*
X119127000Y-98473000D01*
X119127000Y-98493000D01*
X120320155Y-98493000D01*
X120441476Y-98263110D01*
X120396825Y-98115901D01*
X120271641Y-97853080D01*
X120097588Y-97619731D01*
X119881355Y-97424822D01*
X119764477Y-97355201D01*
X119829014Y-97320706D01*
X120055134Y-97135134D01*
X120240706Y-96909014D01*
X120378599Y-96651034D01*
X120463513Y-96371111D01*
X120492185Y-96080000D01*
X120463513Y-95788889D01*
X120378599Y-95508966D01*
X120240706Y-95250986D01*
X120055134Y-95024866D01*
X119829014Y-94839294D01*
X119774209Y-94810000D01*
X119829014Y-94780706D01*
X120055134Y-94595134D01*
X120240706Y-94369014D01*
X120378599Y-94111034D01*
X120463513Y-93831111D01*
X120492185Y-93540000D01*
X122757815Y-93540000D01*
X122786487Y-93831111D01*
X122871401Y-94111034D01*
X123009294Y-94369014D01*
X123194866Y-94595134D01*
X123420986Y-94780706D01*
X123475791Y-94810000D01*
X123420986Y-94839294D01*
X123194866Y-95024866D01*
X123009294Y-95250986D01*
X122871401Y-95508966D01*
X122786487Y-95788889D01*
X122757815Y-96080000D01*
X122786487Y-96371111D01*
X122871401Y-96651034D01*
X123009294Y-96909014D01*
X123194866Y-97135134D01*
X123420986Y-97320706D01*
X123485523Y-97355201D01*
X123368645Y-97424822D01*
X123152412Y-97619731D01*
X122978359Y-97853080D01*
X122853175Y-98115901D01*
X122808524Y-98263110D01*
X122929845Y-98493000D01*
X124123000Y-98493000D01*
X124123000Y-98473000D01*
X124377000Y-98473000D01*
X124377000Y-98493000D01*
X125570155Y-98493000D01*
X125691476Y-98263110D01*
X125646825Y-98115901D01*
X125521641Y-97853080D01*
X125347588Y-97619731D01*
X125131355Y-97424822D01*
X125014477Y-97355201D01*
X125079014Y-97320706D01*
X125305134Y-97135134D01*
X125490706Y-96909014D01*
X125628599Y-96651034D01*
X125713513Y-96371111D01*
X125742185Y-96080000D01*
X125713513Y-95788889D01*
X125628599Y-95508966D01*
X125490706Y-95250986D01*
X125305134Y-95024866D01*
X125079014Y-94839294D01*
X125024209Y-94810000D01*
X125079014Y-94780706D01*
X125305134Y-94595134D01*
X125490706Y-94369014D01*
X125628599Y-94111034D01*
X125713513Y-93831111D01*
X125738245Y-93580000D01*
X128007815Y-93580000D01*
X128036487Y-93871111D01*
X128121401Y-94151034D01*
X128259294Y-94409014D01*
X128444866Y-94635134D01*
X128670986Y-94820706D01*
X128735523Y-94855201D01*
X128618645Y-94924822D01*
X128402412Y-95119731D01*
X128228359Y-95353080D01*
X128103175Y-95615901D01*
X128058524Y-95763110D01*
X128179845Y-95993000D01*
X129373000Y-95993000D01*
X129373000Y-95973000D01*
X129627000Y-95973000D01*
X129627000Y-95993000D01*
X130820155Y-95993000D01*
X130941476Y-95763110D01*
X130896825Y-95615901D01*
X130771641Y-95353080D01*
X130597588Y-95119731D01*
X130381355Y-94924822D01*
X130264477Y-94855201D01*
X130329014Y-94820706D01*
X130555134Y-94635134D01*
X130740706Y-94409014D01*
X130777595Y-94340000D01*
X133222405Y-94340000D01*
X133259294Y-94409014D01*
X133444866Y-94635134D01*
X133670986Y-94820706D01*
X133735523Y-94855201D01*
X133618645Y-94924822D01*
X133402412Y-95119731D01*
X133228359Y-95353080D01*
X133103175Y-95615901D01*
X133058524Y-95763110D01*
X133179845Y-95993000D01*
X134373000Y-95993000D01*
X134373000Y-95973000D01*
X134627000Y-95973000D01*
X134627000Y-95993000D01*
X135820155Y-95993000D01*
X135941476Y-95763110D01*
X135896825Y-95615901D01*
X135771641Y-95353080D01*
X135597588Y-95119731D01*
X135381355Y-94924822D01*
X135264477Y-94855201D01*
X135329014Y-94820706D01*
X135555134Y-94635134D01*
X135740706Y-94409014D01*
X135777595Y-94340000D01*
X152649442Y-94340000D01*
X152696063Y-94409774D01*
X152840226Y-94553937D01*
X153009744Y-94667205D01*
X153198102Y-94745226D01*
X153398061Y-94785000D01*
X153601939Y-94785000D01*
X153801898Y-94745226D01*
X153990256Y-94667205D01*
X154159774Y-94553937D01*
X154303937Y-94409774D01*
X154417205Y-94240256D01*
X154495226Y-94051898D01*
X154532682Y-93863589D01*
X159115000Y-93863589D01*
X159115000Y-94136411D01*
X159168225Y-94403989D01*
X159272629Y-94656043D01*
X159424201Y-94882886D01*
X159617114Y-95075799D01*
X159843957Y-95227371D01*
X160096011Y-95331775D01*
X160363589Y-95385000D01*
X160636411Y-95385000D01*
X160903989Y-95331775D01*
X161156043Y-95227371D01*
X161382886Y-95075799D01*
X161575799Y-94882886D01*
X161727371Y-94656043D01*
X161831775Y-94403989D01*
X161885000Y-94136411D01*
X161885000Y-93863589D01*
X163995000Y-93863589D01*
X163995000Y-94136411D01*
X164048225Y-94403989D01*
X164152629Y-94656043D01*
X164304201Y-94882886D01*
X164497114Y-95075799D01*
X164723957Y-95227371D01*
X164976011Y-95331775D01*
X165243589Y-95385000D01*
X165516411Y-95385000D01*
X165783989Y-95331775D01*
X166036043Y-95227371D01*
X166262886Y-95075799D01*
X166455799Y-94882886D01*
X166607371Y-94656043D01*
X166711775Y-94403989D01*
X166765000Y-94136411D01*
X166765000Y-93863589D01*
X166711775Y-93596011D01*
X166607371Y-93343957D01*
X166455799Y-93117114D01*
X166262886Y-92924201D01*
X166036043Y-92772629D01*
X165783989Y-92668225D01*
X165516411Y-92615000D01*
X165243589Y-92615000D01*
X164976011Y-92668225D01*
X164723957Y-92772629D01*
X164497114Y-92924201D01*
X164304201Y-93117114D01*
X164152629Y-93343957D01*
X164048225Y-93596011D01*
X163995000Y-93863589D01*
X161885000Y-93863589D01*
X161831775Y-93596011D01*
X161727371Y-93343957D01*
X161575799Y-93117114D01*
X161382886Y-92924201D01*
X161156043Y-92772629D01*
X160903989Y-92668225D01*
X160636411Y-92615000D01*
X160363589Y-92615000D01*
X160096011Y-92668225D01*
X159843957Y-92772629D01*
X159617114Y-92924201D01*
X159424201Y-93117114D01*
X159272629Y-93343957D01*
X159168225Y-93596011D01*
X159115000Y-93863589D01*
X154532682Y-93863589D01*
X154535000Y-93851939D01*
X154535000Y-93648061D01*
X154495226Y-93448102D01*
X154417205Y-93259744D01*
X154303937Y-93090226D01*
X154159774Y-92946063D01*
X153990256Y-92832795D01*
X153801898Y-92754774D01*
X153601939Y-92715000D01*
X153398061Y-92715000D01*
X153198102Y-92754774D01*
X153040634Y-92820000D01*
X135777595Y-92820000D01*
X135740706Y-92750986D01*
X135555134Y-92524866D01*
X135329014Y-92339294D01*
X135264477Y-92304799D01*
X135381355Y-92235178D01*
X135597588Y-92040269D01*
X135771641Y-91806920D01*
X135896825Y-91544099D01*
X135941476Y-91396890D01*
X135820155Y-91167000D01*
X134627000Y-91167000D01*
X134627000Y-91187000D01*
X134373000Y-91187000D01*
X134373000Y-91167000D01*
X133179845Y-91167000D01*
X133058524Y-91396890D01*
X133103175Y-91544099D01*
X133228359Y-91806920D01*
X133402412Y-92040269D01*
X133618645Y-92235178D01*
X133735523Y-92304799D01*
X133670986Y-92339294D01*
X133444866Y-92524866D01*
X133259294Y-92750986D01*
X133222405Y-92820000D01*
X130777595Y-92820000D01*
X130740706Y-92750986D01*
X130555134Y-92524866D01*
X130329014Y-92339294D01*
X130264477Y-92304799D01*
X130381355Y-92235178D01*
X130597588Y-92040269D01*
X130771641Y-91806920D01*
X130896825Y-91544099D01*
X130941476Y-91396890D01*
X130820155Y-91167000D01*
X129627000Y-91167000D01*
X129627000Y-91187000D01*
X129373000Y-91187000D01*
X129373000Y-91167000D01*
X128179845Y-91167000D01*
X128058524Y-91396890D01*
X128103175Y-91544099D01*
X128228359Y-91806920D01*
X128402412Y-92040269D01*
X128618645Y-92235178D01*
X128735523Y-92304799D01*
X128670986Y-92339294D01*
X128444866Y-92524866D01*
X128259294Y-92750986D01*
X128121401Y-93008966D01*
X128036487Y-93288889D01*
X128007815Y-93580000D01*
X125738245Y-93580000D01*
X125742185Y-93540000D01*
X125713513Y-93248889D01*
X125628599Y-92968966D01*
X125490706Y-92710986D01*
X125305134Y-92484866D01*
X125275313Y-92460393D01*
X125344180Y-92439502D01*
X125454494Y-92380537D01*
X125551185Y-92301185D01*
X125630537Y-92204494D01*
X125689502Y-92094180D01*
X125725812Y-91974482D01*
X125738072Y-91850000D01*
X125738072Y-91040000D01*
X138007815Y-91040000D01*
X138036487Y-91331111D01*
X138121401Y-91611034D01*
X138259294Y-91869014D01*
X138444866Y-92095134D01*
X138670986Y-92280706D01*
X138928966Y-92418599D01*
X139208889Y-92503513D01*
X139427050Y-92525000D01*
X139572950Y-92525000D01*
X139791111Y-92503513D01*
X140071034Y-92418599D01*
X140329014Y-92280706D01*
X140555134Y-92095134D01*
X140740706Y-91869014D01*
X140878599Y-91611034D01*
X140963513Y-91331111D01*
X140992185Y-91040000D01*
X140963513Y-90748889D01*
X140878599Y-90468966D01*
X140740706Y-90210986D01*
X140619348Y-90063110D01*
X182518524Y-90063110D01*
X182639845Y-90293000D01*
X183833000Y-90293000D01*
X183833000Y-89099186D01*
X183603109Y-88978519D01*
X183328748Y-89075843D01*
X183078645Y-89224822D01*
X182862412Y-89419731D01*
X182688359Y-89653080D01*
X182563175Y-89915901D01*
X182518524Y-90063110D01*
X140619348Y-90063110D01*
X140555134Y-89984866D01*
X140525313Y-89960393D01*
X140594180Y-89939502D01*
X140704494Y-89880537D01*
X140801185Y-89801185D01*
X140880537Y-89704494D01*
X140939502Y-89594180D01*
X140975812Y-89474482D01*
X140988072Y-89350000D01*
X140988072Y-87650000D01*
X140975812Y-87525518D01*
X140939502Y-87405820D01*
X140880537Y-87295506D01*
X140801185Y-87198815D01*
X140704494Y-87119463D01*
X140594180Y-87060498D01*
X140474482Y-87024188D01*
X140350000Y-87011928D01*
X138650000Y-87011928D01*
X138525518Y-87024188D01*
X138405820Y-87060498D01*
X138295506Y-87119463D01*
X138198815Y-87198815D01*
X138119463Y-87295506D01*
X138060498Y-87405820D01*
X138024188Y-87525518D01*
X138011928Y-87650000D01*
X138011928Y-89350000D01*
X138024188Y-89474482D01*
X138060498Y-89594180D01*
X138119463Y-89704494D01*
X138198815Y-89801185D01*
X138295506Y-89880537D01*
X138405820Y-89939502D01*
X138474687Y-89960393D01*
X138444866Y-89984866D01*
X138259294Y-90210986D01*
X138121401Y-90468966D01*
X138036487Y-90748889D01*
X138007815Y-91040000D01*
X125738072Y-91040000D01*
X125738072Y-90150000D01*
X125725812Y-90025518D01*
X125689502Y-89905820D01*
X125630537Y-89795506D01*
X125551185Y-89698815D01*
X125454494Y-89619463D01*
X125344180Y-89560498D01*
X125224482Y-89524188D01*
X125100000Y-89511928D01*
X123400000Y-89511928D01*
X123275518Y-89524188D01*
X123155820Y-89560498D01*
X123045506Y-89619463D01*
X122948815Y-89698815D01*
X122869463Y-89795506D01*
X122810498Y-89905820D01*
X122774188Y-90025518D01*
X122761928Y-90150000D01*
X122761928Y-91850000D01*
X122774188Y-91974482D01*
X122810498Y-92094180D01*
X122869463Y-92204494D01*
X122948815Y-92301185D01*
X123045506Y-92380537D01*
X123155820Y-92439502D01*
X123224687Y-92460393D01*
X123194866Y-92484866D01*
X123009294Y-92710986D01*
X122871401Y-92968966D01*
X122786487Y-93248889D01*
X122757815Y-93540000D01*
X120492185Y-93540000D01*
X120463513Y-93248889D01*
X120378599Y-92968966D01*
X120240706Y-92710986D01*
X120055134Y-92484866D01*
X120025313Y-92460393D01*
X120094180Y-92439502D01*
X120204494Y-92380537D01*
X120301185Y-92301185D01*
X120380537Y-92204494D01*
X120439502Y-92094180D01*
X120475812Y-91974482D01*
X120488072Y-91850000D01*
X120488072Y-90150000D01*
X120475812Y-90025518D01*
X120439502Y-89905820D01*
X120380537Y-89795506D01*
X120301185Y-89698815D01*
X120204494Y-89619463D01*
X120094180Y-89560498D01*
X119974482Y-89524188D01*
X119850000Y-89511928D01*
X118150000Y-89511928D01*
X118025518Y-89524188D01*
X117905820Y-89560498D01*
X117795506Y-89619463D01*
X117698815Y-89698815D01*
X117619463Y-89795506D01*
X117560498Y-89905820D01*
X117524188Y-90025518D01*
X117511928Y-90150000D01*
X117511928Y-91850000D01*
X117524188Y-91974482D01*
X117560498Y-92094180D01*
X117619463Y-92204494D01*
X117698815Y-92301185D01*
X117795506Y-92380537D01*
X117905820Y-92439502D01*
X117974687Y-92460393D01*
X117944866Y-92484866D01*
X117759294Y-92710986D01*
X117621401Y-92968966D01*
X117536487Y-93248889D01*
X117507815Y-93540000D01*
X115660000Y-93540000D01*
X115660000Y-87650000D01*
X128011928Y-87650000D01*
X128011928Y-89350000D01*
X128024188Y-89474482D01*
X128060498Y-89594180D01*
X128119463Y-89704494D01*
X128198815Y-89801185D01*
X128295506Y-89880537D01*
X128405820Y-89939502D01*
X128486466Y-89963966D01*
X128402412Y-90039731D01*
X128228359Y-90273080D01*
X128103175Y-90535901D01*
X128058524Y-90683110D01*
X128179845Y-90913000D01*
X129373000Y-90913000D01*
X129373000Y-90893000D01*
X129627000Y-90893000D01*
X129627000Y-90913000D01*
X130820155Y-90913000D01*
X130941476Y-90683110D01*
X130896825Y-90535901D01*
X130771641Y-90273080D01*
X130597588Y-90039731D01*
X130513534Y-89963966D01*
X130594180Y-89939502D01*
X130704494Y-89880537D01*
X130801185Y-89801185D01*
X130880537Y-89704494D01*
X130939502Y-89594180D01*
X130975812Y-89474482D01*
X130988072Y-89350000D01*
X130988072Y-89335000D01*
X133011928Y-89335000D01*
X133011928Y-89350000D01*
X133024188Y-89474482D01*
X133060498Y-89594180D01*
X133119463Y-89704494D01*
X133198815Y-89801185D01*
X133295506Y-89880537D01*
X133405820Y-89939502D01*
X133486466Y-89963966D01*
X133402412Y-90039731D01*
X133228359Y-90273080D01*
X133103175Y-90535901D01*
X133058524Y-90683110D01*
X133179845Y-90913000D01*
X134373000Y-90913000D01*
X134373000Y-90893000D01*
X134627000Y-90893000D01*
X134627000Y-90913000D01*
X135820155Y-90913000D01*
X135941476Y-90683110D01*
X135896825Y-90535901D01*
X135771641Y-90273080D01*
X135597588Y-90039731D01*
X135513534Y-89963966D01*
X135594180Y-89939502D01*
X135704494Y-89880537D01*
X135801185Y-89801185D01*
X135880537Y-89704494D01*
X135939502Y-89594180D01*
X135975812Y-89474482D01*
X135988072Y-89350000D01*
X135988072Y-87650000D01*
X135975812Y-87525518D01*
X135939502Y-87405820D01*
X135880537Y-87295506D01*
X135801185Y-87198815D01*
X135704494Y-87119463D01*
X135594180Y-87060498D01*
X135474482Y-87024188D01*
X135350000Y-87011928D01*
X133650000Y-87011928D01*
X133525518Y-87024188D01*
X133405820Y-87060498D01*
X133295506Y-87119463D01*
X133198815Y-87198815D01*
X133119463Y-87295506D01*
X133060498Y-87405820D01*
X133024188Y-87525518D01*
X133011928Y-87650000D01*
X133011928Y-87665000D01*
X130988072Y-87665000D01*
X130988072Y-87650000D01*
X130975812Y-87525518D01*
X130939502Y-87405820D01*
X130880537Y-87295506D01*
X130801185Y-87198815D01*
X130704494Y-87119463D01*
X130594180Y-87060498D01*
X130474482Y-87024188D01*
X130350000Y-87011928D01*
X128650000Y-87011928D01*
X128525518Y-87024188D01*
X128405820Y-87060498D01*
X128295506Y-87119463D01*
X128198815Y-87198815D01*
X128119463Y-87295506D01*
X128060498Y-87405820D01*
X128024188Y-87525518D01*
X128011928Y-87650000D01*
X115660000Y-87650000D01*
X115660000Y-83779872D01*
X116765000Y-83779872D01*
X116765000Y-84220128D01*
X116850890Y-84651925D01*
X117019369Y-85058669D01*
X117263962Y-85424729D01*
X117575271Y-85736038D01*
X117941331Y-85980631D01*
X118348075Y-86149110D01*
X118779872Y-86235000D01*
X119220128Y-86235000D01*
X119651925Y-86149110D01*
X120058669Y-85980631D01*
X120424729Y-85736038D01*
X120736038Y-85424729D01*
X120980631Y-85058669D01*
X121149110Y-84651925D01*
X121235000Y-84220128D01*
X121235000Y-83779872D01*
X183765000Y-83779872D01*
X183765000Y-84220128D01*
X183850890Y-84651925D01*
X184019369Y-85058669D01*
X184263962Y-85424729D01*
X184575271Y-85736038D01*
X184941331Y-85980631D01*
X185348075Y-86149110D01*
X185779872Y-86235000D01*
X186220128Y-86235000D01*
X186651925Y-86149110D01*
X187058669Y-85980631D01*
X187424729Y-85736038D01*
X187736038Y-85424729D01*
X187980631Y-85058669D01*
X188149110Y-84651925D01*
X188235000Y-84220128D01*
X188235000Y-83779872D01*
X188149110Y-83348075D01*
X187980631Y-82941331D01*
X187736038Y-82575271D01*
X187424729Y-82263962D01*
X187058669Y-82019369D01*
X186651925Y-81850890D01*
X186220128Y-81765000D01*
X185779872Y-81765000D01*
X185348075Y-81850890D01*
X184941331Y-82019369D01*
X184575271Y-82263962D01*
X184263962Y-82575271D01*
X184019369Y-82941331D01*
X183850890Y-83348075D01*
X183765000Y-83779872D01*
X121235000Y-83779872D01*
X121149110Y-83348075D01*
X120980631Y-82941331D01*
X120736038Y-82575271D01*
X120424729Y-82263962D01*
X120058669Y-82019369D01*
X119651925Y-81850890D01*
X119220128Y-81765000D01*
X118779872Y-81765000D01*
X118348075Y-81850890D01*
X117941331Y-82019369D01*
X117575271Y-82263962D01*
X117263962Y-82575271D01*
X117019369Y-82941331D01*
X116850890Y-83348075D01*
X116765000Y-83779872D01*
X115660000Y-83779872D01*
X115660000Y-80660000D01*
X189340000Y-80660000D01*
X189340001Y-102441368D01*
M02*
