G04 #@! TF.GenerationSoftware,KiCad,Pcbnew,(5.1.2)-2*
G04 #@! TF.CreationDate,2019-08-09T14:56:55+02:00*
G04 #@! TF.ProjectId,Fan controller,46616e20-636f-46e7-9472-6f6c6c65722e,rev?*
G04 #@! TF.SameCoordinates,Original*
G04 #@! TF.FileFunction,Soldermask,Top*
G04 #@! TF.FilePolarity,Negative*
%FSLAX46Y46*%
G04 Gerber Fmt 4.6, Leading zero omitted, Abs format (unit mm)*
G04 Created by KiCad (PCBNEW (5.1.2)-2) date 2019-08-09 14:56:55*
%MOMM*%
%LPD*%
G04 APERTURE LIST*
%ADD10C,0.100000*%
G04 APERTURE END LIST*
D10*
G36*
X126101000Y-117751000D02*
G01*
X124399000Y-117751000D01*
X124399000Y-114649000D01*
X126101000Y-114649000D01*
X126101000Y-117751000D01*
X126101000Y-117751000D01*
G37*
G36*
X186375256Y-114391298D02*
G01*
X186481579Y-114412447D01*
X186782042Y-114536903D01*
X187052451Y-114717585D01*
X187282415Y-114947549D01*
X187463097Y-115217958D01*
X187563626Y-115460655D01*
X187587553Y-115518422D01*
X187651000Y-115837389D01*
X187651000Y-116162611D01*
X187633022Y-116252991D01*
X187587553Y-116481579D01*
X187517376Y-116651000D01*
X187476784Y-116749000D01*
X187463097Y-116782042D01*
X187282415Y-117052451D01*
X187052451Y-117282415D01*
X186782042Y-117463097D01*
X186481579Y-117587553D01*
X186375256Y-117608702D01*
X186162611Y-117651000D01*
X185837389Y-117651000D01*
X185624744Y-117608702D01*
X185518421Y-117587553D01*
X185217958Y-117463097D01*
X184947549Y-117282415D01*
X184717585Y-117052451D01*
X184536903Y-116782042D01*
X184523217Y-116749000D01*
X184482624Y-116651000D01*
X184412447Y-116481579D01*
X184366978Y-116252991D01*
X184349000Y-116162611D01*
X184349000Y-115837389D01*
X184412447Y-115518422D01*
X184436375Y-115460655D01*
X184536903Y-115217958D01*
X184717585Y-114947549D01*
X184947549Y-114717585D01*
X185217958Y-114536903D01*
X185518421Y-114412447D01*
X185624744Y-114391298D01*
X185837389Y-114349000D01*
X186162611Y-114349000D01*
X186375256Y-114391298D01*
X186375256Y-114391298D01*
G37*
G36*
X143251000Y-117651000D02*
G01*
X142249000Y-117651000D01*
X142249000Y-116749000D01*
X143251000Y-116749000D01*
X143251000Y-117651000D01*
X143251000Y-117651000D01*
G37*
G36*
X119375256Y-114391298D02*
G01*
X119481579Y-114412447D01*
X119782042Y-114536903D01*
X120052451Y-114717585D01*
X120282415Y-114947549D01*
X120463097Y-115217958D01*
X120563626Y-115460655D01*
X120587553Y-115518422D01*
X120651000Y-115837389D01*
X120651000Y-116162611D01*
X120633022Y-116252991D01*
X120587553Y-116481579D01*
X120517376Y-116651000D01*
X120476784Y-116749000D01*
X120463097Y-116782042D01*
X120282415Y-117052451D01*
X120052451Y-117282415D01*
X119782042Y-117463097D01*
X119481579Y-117587553D01*
X119375256Y-117608702D01*
X119162611Y-117651000D01*
X118837389Y-117651000D01*
X118624744Y-117608702D01*
X118518421Y-117587553D01*
X118217958Y-117463097D01*
X117947549Y-117282415D01*
X117717585Y-117052451D01*
X117536903Y-116782042D01*
X117523217Y-116749000D01*
X117482624Y-116651000D01*
X117412447Y-116481579D01*
X117366978Y-116252991D01*
X117349000Y-116162611D01*
X117349000Y-115837389D01*
X117412447Y-115518422D01*
X117436375Y-115460655D01*
X117536903Y-115217958D01*
X117717585Y-114947549D01*
X117947549Y-114717585D01*
X118217958Y-114536903D01*
X118518421Y-114412447D01*
X118624744Y-114391298D01*
X118837389Y-114349000D01*
X119162611Y-114349000D01*
X119375256Y-114391298D01*
X119375256Y-114391298D01*
G37*
G36*
X137237022Y-114710590D02*
G01*
X137337681Y-114741125D01*
X137388012Y-114756392D01*
X137527164Y-114830771D01*
X137649133Y-114930867D01*
X137749229Y-115052835D01*
X137823608Y-115191987D01*
X137831486Y-115217958D01*
X137869410Y-115342977D01*
X137881000Y-115460655D01*
X137881000Y-116539345D01*
X137869410Y-116657023D01*
X137841509Y-116749000D01*
X137823608Y-116808013D01*
X137749229Y-116947165D01*
X137649133Y-117069133D01*
X137527165Y-117169229D01*
X137388013Y-117243608D01*
X137337682Y-117258875D01*
X137237023Y-117289410D01*
X137080000Y-117304875D01*
X136922978Y-117289410D01*
X136822319Y-117258875D01*
X136771988Y-117243608D01*
X136632836Y-117169229D01*
X136510868Y-117069133D01*
X136410772Y-116947165D01*
X136336393Y-116808013D01*
X136318492Y-116749000D01*
X136290591Y-116657023D01*
X136279001Y-116539345D01*
X136279000Y-115460656D01*
X136290590Y-115342978D01*
X136336392Y-115191989D01*
X136336392Y-115191988D01*
X136410771Y-115052836D01*
X136456412Y-114997222D01*
X136510867Y-114930867D01*
X136632835Y-114830771D01*
X136771987Y-114756392D01*
X136822318Y-114741125D01*
X136922977Y-114710590D01*
X137080000Y-114695125D01*
X137237022Y-114710590D01*
X137237022Y-114710590D01*
G37*
G36*
X134697022Y-114710590D02*
G01*
X134797681Y-114741125D01*
X134848012Y-114756392D01*
X134987164Y-114830771D01*
X135109133Y-114930867D01*
X135209229Y-115052835D01*
X135283608Y-115191987D01*
X135291486Y-115217958D01*
X135329410Y-115342977D01*
X135341000Y-115460655D01*
X135341000Y-116539345D01*
X135329410Y-116657023D01*
X135301509Y-116749000D01*
X135283608Y-116808013D01*
X135209229Y-116947165D01*
X135109133Y-117069133D01*
X134987165Y-117169229D01*
X134848013Y-117243608D01*
X134797682Y-117258875D01*
X134697023Y-117289410D01*
X134540000Y-117304875D01*
X134382978Y-117289410D01*
X134282319Y-117258875D01*
X134231988Y-117243608D01*
X134092836Y-117169229D01*
X133970868Y-117069133D01*
X133870772Y-116947165D01*
X133796393Y-116808013D01*
X133778492Y-116749000D01*
X133750591Y-116657023D01*
X133739001Y-116539345D01*
X133739000Y-115460656D01*
X133750590Y-115342978D01*
X133796392Y-115191989D01*
X133796392Y-115191988D01*
X133870771Y-115052836D01*
X133916412Y-114997222D01*
X133970867Y-114930867D01*
X134092835Y-114830771D01*
X134231987Y-114756392D01*
X134282318Y-114741125D01*
X134382977Y-114710590D01*
X134540000Y-114695125D01*
X134697022Y-114710590D01*
X134697022Y-114710590D01*
G37*
G36*
X132801000Y-117301000D02*
G01*
X131199000Y-117301000D01*
X131199000Y-114699000D01*
X132801000Y-114699000D01*
X132801000Y-117301000D01*
X132801000Y-117301000D01*
G37*
G36*
X145251000Y-116701000D02*
G01*
X144249000Y-116701000D01*
X144249000Y-115799000D01*
X145251000Y-115799000D01*
X145251000Y-116701000D01*
X145251000Y-116701000D01*
G37*
G36*
X162151000Y-116651000D02*
G01*
X160349000Y-116651000D01*
X160349000Y-114849000D01*
X162151000Y-114849000D01*
X162151000Y-116651000D01*
X162151000Y-116651000D01*
G37*
G36*
X163900442Y-114855518D02*
G01*
X163966627Y-114862037D01*
X164136466Y-114913557D01*
X164136468Y-114913558D01*
X164168852Y-114930868D01*
X164292991Y-114997222D01*
X164328729Y-115026552D01*
X164430186Y-115109814D01*
X164497623Y-115191988D01*
X164542778Y-115247009D01*
X164626443Y-115403534D01*
X164677963Y-115573373D01*
X164695359Y-115750000D01*
X164677963Y-115926627D01*
X164626443Y-116096466D01*
X164542778Y-116252991D01*
X164513448Y-116288729D01*
X164430186Y-116390186D01*
X164328729Y-116473448D01*
X164292991Y-116502778D01*
X164136466Y-116586443D01*
X163966627Y-116637963D01*
X163900442Y-116644482D01*
X163834260Y-116651000D01*
X163745740Y-116651000D01*
X163679558Y-116644482D01*
X163613373Y-116637963D01*
X163443534Y-116586443D01*
X163287009Y-116502778D01*
X163251271Y-116473448D01*
X163149814Y-116390186D01*
X163066552Y-116288729D01*
X163037222Y-116252991D01*
X162953557Y-116096466D01*
X162902037Y-115926627D01*
X162884641Y-115750000D01*
X162902037Y-115573373D01*
X162953557Y-115403534D01*
X163037222Y-115247009D01*
X163082377Y-115191988D01*
X163149814Y-115109814D01*
X163251271Y-115026552D01*
X163287009Y-114997222D01*
X163411148Y-114930868D01*
X163443532Y-114913558D01*
X163443534Y-114913557D01*
X163613373Y-114862037D01*
X163679558Y-114855518D01*
X163745740Y-114849000D01*
X163834260Y-114849000D01*
X163900442Y-114855518D01*
X163900442Y-114855518D01*
G37*
G36*
X176101000Y-116101000D02*
G01*
X172999000Y-116101000D01*
X172999000Y-114399000D01*
X176101000Y-114399000D01*
X176101000Y-116101000D01*
X176101000Y-116101000D01*
G37*
G36*
X180501000Y-116101000D02*
G01*
X177399000Y-116101000D01*
X177399000Y-114399000D01*
X180501000Y-114399000D01*
X180501000Y-116101000D01*
X180501000Y-116101000D01*
G37*
G36*
X143251000Y-115751000D02*
G01*
X142249000Y-115751000D01*
X142249000Y-114849000D01*
X143251000Y-114849000D01*
X143251000Y-115751000D01*
X143251000Y-115751000D01*
G37*
G36*
X143251000Y-113651000D02*
G01*
X142249000Y-113651000D01*
X142249000Y-112749000D01*
X143251000Y-112749000D01*
X143251000Y-113651000D01*
X143251000Y-113651000D01*
G37*
G36*
X126101000Y-113351000D02*
G01*
X124399000Y-113351000D01*
X124399000Y-110249000D01*
X126101000Y-110249000D01*
X126101000Y-113351000D01*
X126101000Y-113351000D01*
G37*
G36*
X159351000Y-113201000D02*
G01*
X158549000Y-113201000D01*
X158549000Y-111799000D01*
X159351000Y-111799000D01*
X159351000Y-113201000D01*
X159351000Y-113201000D01*
G37*
G36*
X157451000Y-113201000D02*
G01*
X156649000Y-113201000D01*
X156649000Y-111799000D01*
X157451000Y-111799000D01*
X157451000Y-113201000D01*
X157451000Y-113201000D01*
G37*
G36*
X145251000Y-112701000D02*
G01*
X144249000Y-112701000D01*
X144249000Y-111799000D01*
X145251000Y-111799000D01*
X145251000Y-112701000D01*
X145251000Y-112701000D01*
G37*
G36*
X143251000Y-111751000D02*
G01*
X142249000Y-111751000D01*
X142249000Y-110849000D01*
X143251000Y-110849000D01*
X143251000Y-111751000D01*
X143251000Y-111751000D01*
G37*
G36*
X119551000Y-111676000D02*
G01*
X118449000Y-111676000D01*
X118449000Y-110324000D01*
X119551000Y-110324000D01*
X119551000Y-111676000D01*
X119551000Y-111676000D01*
G37*
G36*
X121551000Y-111676000D02*
G01*
X120449000Y-111676000D01*
X120449000Y-110324000D01*
X121551000Y-110324000D01*
X121551000Y-111676000D01*
X121551000Y-111676000D01*
G37*
G36*
X176451000Y-111201000D02*
G01*
X175649000Y-111201000D01*
X175649000Y-109799000D01*
X176451000Y-109799000D01*
X176451000Y-111201000D01*
X176451000Y-111201000D01*
G37*
G36*
X178351000Y-111201000D02*
G01*
X177549000Y-111201000D01*
X177549000Y-109799000D01*
X178351000Y-109799000D01*
X178351000Y-111201000D01*
X178351000Y-111201000D01*
G37*
G36*
X189351000Y-110461886D02*
G01*
X189351602Y-110474138D01*
X189354149Y-110500000D01*
X189351602Y-110525862D01*
X189351000Y-110538114D01*
X189351000Y-110611406D01*
X189342043Y-110628164D01*
X189337915Y-110639701D01*
X189312132Y-110724693D01*
X189304354Y-110750336D01*
X189243906Y-110863425D01*
X189162554Y-110962554D01*
X189063425Y-111043906D01*
X188950336Y-111104354D01*
X188918404Y-111114040D01*
X188827618Y-111141580D01*
X188763855Y-111147860D01*
X188731974Y-111151000D01*
X187968026Y-111151000D01*
X187936145Y-111147860D01*
X187872382Y-111141580D01*
X187781596Y-111114040D01*
X187749664Y-111104354D01*
X187636575Y-111043906D01*
X187537446Y-110962554D01*
X187456094Y-110863425D01*
X187395646Y-110750336D01*
X187387868Y-110724693D01*
X187362087Y-110639708D01*
X187352713Y-110617075D01*
X187349000Y-110611518D01*
X187349000Y-110538114D01*
X187348398Y-110525862D01*
X187345851Y-110500000D01*
X187348398Y-110474138D01*
X187349000Y-110461886D01*
X187349000Y-109249000D01*
X189351000Y-109249000D01*
X189351000Y-110461886D01*
X189351000Y-110461886D01*
G37*
G36*
X167326000Y-110501000D02*
G01*
X158674000Y-110501000D01*
X158674000Y-108899000D01*
X167326000Y-108899000D01*
X167326000Y-110501000D01*
X167326000Y-110501000D01*
G37*
G36*
X185876348Y-103753820D02*
G01*
X185876350Y-103753821D01*
X185876351Y-103753821D01*
X186017574Y-103812317D01*
X186017577Y-103812319D01*
X186144669Y-103897239D01*
X186252761Y-104005331D01*
X186337681Y-104132423D01*
X186337683Y-104132426D01*
X186396179Y-104273649D01*
X186396180Y-104273652D01*
X186426000Y-104423569D01*
X186426000Y-104576429D01*
X186396179Y-104726351D01*
X186337683Y-104867574D01*
X186337681Y-104867577D01*
X186252761Y-104994669D01*
X186144669Y-105102761D01*
X186109889Y-105126000D01*
X186017574Y-105187683D01*
X185967272Y-105208519D01*
X185945664Y-105220068D01*
X185926722Y-105235614D01*
X185911177Y-105254556D01*
X185899626Y-105276166D01*
X185892513Y-105299615D01*
X185890111Y-105324001D01*
X185892513Y-105348387D01*
X185899626Y-105371836D01*
X185911177Y-105393447D01*
X185926723Y-105412389D01*
X185945665Y-105427934D01*
X185967275Y-105439485D01*
X185990724Y-105446598D01*
X186015110Y-105449000D01*
X186376000Y-105449000D01*
X186376000Y-108551000D01*
X186015110Y-108551000D01*
X185990724Y-108553402D01*
X185967275Y-108560515D01*
X185945664Y-108572066D01*
X185926722Y-108587611D01*
X185911177Y-108606553D01*
X185899626Y-108628164D01*
X185892513Y-108651613D01*
X185890111Y-108675999D01*
X185892513Y-108700385D01*
X185899626Y-108723834D01*
X185911177Y-108745445D01*
X185926722Y-108764387D01*
X185945664Y-108779932D01*
X185967272Y-108791481D01*
X186017574Y-108812317D01*
X186017575Y-108812318D01*
X186144669Y-108897239D01*
X186252761Y-109005331D01*
X186337681Y-109132423D01*
X186337683Y-109132426D01*
X186396179Y-109273649D01*
X186426000Y-109423571D01*
X186426000Y-109576429D01*
X186396179Y-109726351D01*
X186337683Y-109867574D01*
X186337681Y-109867577D01*
X186252761Y-109994669D01*
X186144669Y-110102761D01*
X186094064Y-110136574D01*
X186017574Y-110187683D01*
X185876351Y-110246179D01*
X185876350Y-110246179D01*
X185876348Y-110246180D01*
X185726431Y-110276000D01*
X185573569Y-110276000D01*
X185423652Y-110246180D01*
X185423650Y-110246179D01*
X185423649Y-110246179D01*
X185282426Y-110187683D01*
X185205936Y-110136574D01*
X185155331Y-110102761D01*
X185047239Y-109994669D01*
X184962319Y-109867577D01*
X184962317Y-109867574D01*
X184903821Y-109726351D01*
X184874000Y-109576429D01*
X184874000Y-109423571D01*
X184903821Y-109273649D01*
X184962317Y-109132426D01*
X184962319Y-109132423D01*
X185047239Y-109005331D01*
X185155331Y-108897239D01*
X185282425Y-108812318D01*
X185282426Y-108812317D01*
X185332728Y-108791481D01*
X185354336Y-108779932D01*
X185373278Y-108764386D01*
X185388823Y-108745444D01*
X185400374Y-108723834D01*
X185407487Y-108700385D01*
X185409889Y-108675999D01*
X185407487Y-108651613D01*
X185400374Y-108628164D01*
X185388823Y-108606553D01*
X185373277Y-108587611D01*
X185354335Y-108572066D01*
X185332725Y-108560515D01*
X185309276Y-108553402D01*
X185284890Y-108551000D01*
X184924000Y-108551000D01*
X184924000Y-105449000D01*
X185284890Y-105449000D01*
X185309276Y-105446598D01*
X185332725Y-105439485D01*
X185354336Y-105427934D01*
X185373278Y-105412389D01*
X185388823Y-105393447D01*
X185400374Y-105371836D01*
X185407487Y-105348387D01*
X185409889Y-105324001D01*
X185407487Y-105299615D01*
X185400374Y-105276166D01*
X185388823Y-105254555D01*
X185373278Y-105235613D01*
X185354336Y-105220068D01*
X185332728Y-105208519D01*
X185282426Y-105187683D01*
X185190111Y-105126000D01*
X185155331Y-105102761D01*
X185047239Y-104994669D01*
X184962319Y-104867577D01*
X184962317Y-104867574D01*
X184903821Y-104726351D01*
X184874000Y-104576429D01*
X184874000Y-104423569D01*
X184903820Y-104273652D01*
X184903821Y-104273649D01*
X184962317Y-104132426D01*
X184962319Y-104132423D01*
X185047239Y-104005331D01*
X185155331Y-103897239D01*
X185282423Y-103812319D01*
X185282426Y-103812317D01*
X185423649Y-103753821D01*
X185423650Y-103753821D01*
X185423652Y-103753820D01*
X185573569Y-103724000D01*
X185726431Y-103724000D01*
X185876348Y-103753820D01*
X185876348Y-103753820D01*
G37*
G36*
X183001000Y-109551000D02*
G01*
X181999000Y-109551000D01*
X181999000Y-108949000D01*
X183001000Y-108949000D01*
X183001000Y-109551000D01*
X183001000Y-109551000D01*
G37*
G36*
X181001000Y-109551000D02*
G01*
X179999000Y-109551000D01*
X179999000Y-108949000D01*
X181001000Y-108949000D01*
X181001000Y-109551000D01*
X181001000Y-109551000D01*
G37*
G36*
X189351000Y-108801000D02*
G01*
X187349000Y-108801000D01*
X187349000Y-107199000D01*
X189351000Y-107199000D01*
X189351000Y-108801000D01*
X189351000Y-108801000D01*
G37*
G36*
X122364903Y-106297075D02*
G01*
X122592571Y-106391378D01*
X122797466Y-106528285D01*
X122971715Y-106702534D01*
X123037508Y-106801000D01*
X123108623Y-106907431D01*
X123202925Y-107135097D01*
X123225980Y-107251000D01*
X123251000Y-107376787D01*
X123251000Y-107623213D01*
X123202925Y-107864903D01*
X123108622Y-108092571D01*
X122971715Y-108297466D01*
X122797466Y-108471715D01*
X122592571Y-108608622D01*
X122592570Y-108608623D01*
X122592569Y-108608623D01*
X122364903Y-108702925D01*
X122123214Y-108751000D01*
X121876786Y-108751000D01*
X121635097Y-108702925D01*
X121407431Y-108608623D01*
X121407430Y-108608623D01*
X121407429Y-108608622D01*
X121202534Y-108471715D01*
X121028285Y-108297466D01*
X120891378Y-108092571D01*
X120797075Y-107864903D01*
X120749000Y-107623213D01*
X120749000Y-107376787D01*
X120774021Y-107251000D01*
X120797075Y-107135097D01*
X120891377Y-106907431D01*
X120962492Y-106801000D01*
X121028285Y-106702534D01*
X121202534Y-106528285D01*
X121407429Y-106391378D01*
X121635097Y-106297075D01*
X121876786Y-106249000D01*
X122123214Y-106249000D01*
X122364903Y-106297075D01*
X122364903Y-106297075D01*
G37*
G36*
X176451000Y-108701000D02*
G01*
X175649000Y-108701000D01*
X175649000Y-107299000D01*
X176451000Y-107299000D01*
X176451000Y-108701000D01*
X176451000Y-108701000D01*
G37*
G36*
X178351000Y-108701000D02*
G01*
X177549000Y-108701000D01*
X177549000Y-107299000D01*
X178351000Y-107299000D01*
X178351000Y-108701000D01*
X178351000Y-108701000D01*
G37*
G36*
X169501000Y-108326000D02*
G01*
X167899000Y-108326000D01*
X167899000Y-99674000D01*
X169501000Y-99674000D01*
X169501000Y-108326000D01*
X169501000Y-108326000D01*
G37*
G36*
X158101000Y-108326000D02*
G01*
X156499000Y-108326000D01*
X156499000Y-99674000D01*
X158101000Y-99674000D01*
X158101000Y-108326000D01*
X158101000Y-108326000D01*
G37*
G36*
X183001000Y-108051000D02*
G01*
X181999000Y-108051000D01*
X181999000Y-107449000D01*
X183001000Y-107449000D01*
X183001000Y-108051000D01*
X183001000Y-108051000D01*
G37*
G36*
X181001000Y-108051000D02*
G01*
X179999000Y-108051000D01*
X179999000Y-107449000D01*
X181001000Y-107449000D01*
X181001000Y-108051000D01*
X181001000Y-108051000D01*
G37*
G36*
X189351000Y-106801000D02*
G01*
X187349000Y-106801000D01*
X187349000Y-105199000D01*
X189351000Y-105199000D01*
X189351000Y-106801000D01*
X189351000Y-106801000D01*
G37*
G36*
X176451000Y-106201000D02*
G01*
X175649000Y-106201000D01*
X175649000Y-104799000D01*
X176451000Y-104799000D01*
X176451000Y-106201000D01*
X176451000Y-106201000D01*
G37*
G36*
X178351000Y-106201000D02*
G01*
X177549000Y-106201000D01*
X177549000Y-104799000D01*
X178351000Y-104799000D01*
X178351000Y-106201000D01*
X178351000Y-106201000D01*
G37*
G36*
X123251000Y-105251000D02*
G01*
X120749000Y-105251000D01*
X120749000Y-102749000D01*
X123251000Y-102749000D01*
X123251000Y-105251000D01*
X123251000Y-105251000D01*
G37*
G36*
X188763855Y-102852140D02*
G01*
X188827618Y-102858420D01*
X188918404Y-102885960D01*
X188950336Y-102895646D01*
X189063425Y-102956094D01*
X189162554Y-103037446D01*
X189243906Y-103136575D01*
X189304354Y-103249664D01*
X189304355Y-103249668D01*
X189337913Y-103360292D01*
X189347287Y-103382925D01*
X189351000Y-103388482D01*
X189351000Y-103461886D01*
X189351602Y-103474138D01*
X189354149Y-103500000D01*
X189351602Y-103525862D01*
X189351000Y-103538114D01*
X189351000Y-104751000D01*
X187349000Y-104751000D01*
X187349000Y-103538114D01*
X187348398Y-103525862D01*
X187345851Y-103500000D01*
X187348398Y-103474138D01*
X187349000Y-103461886D01*
X187349000Y-103388594D01*
X187357957Y-103371836D01*
X187362085Y-103360299D01*
X187395645Y-103249668D01*
X187395646Y-103249664D01*
X187456094Y-103136575D01*
X187537446Y-103037446D01*
X187636575Y-102956094D01*
X187749664Y-102895646D01*
X187781596Y-102885960D01*
X187872382Y-102858420D01*
X187936145Y-102852140D01*
X187968026Y-102849000D01*
X188731974Y-102849000D01*
X188763855Y-102852140D01*
X188763855Y-102852140D01*
G37*
G36*
X176551000Y-103676000D02*
G01*
X175449000Y-103676000D01*
X175449000Y-102324000D01*
X176551000Y-102324000D01*
X176551000Y-103676000D01*
X176551000Y-103676000D01*
G37*
G36*
X178551000Y-103676000D02*
G01*
X177449000Y-103676000D01*
X177449000Y-102324000D01*
X178551000Y-102324000D01*
X178551000Y-103676000D01*
X178551000Y-103676000D01*
G37*
G36*
X134610442Y-100305518D02*
G01*
X134676627Y-100312037D01*
X134846466Y-100363557D01*
X135002991Y-100447222D01*
X135035620Y-100474000D01*
X135140186Y-100559814D01*
X135223448Y-100661271D01*
X135252778Y-100697009D01*
X135336443Y-100853534D01*
X135387963Y-101023373D01*
X135405359Y-101200000D01*
X135387963Y-101376627D01*
X135336443Y-101546466D01*
X135252778Y-101702991D01*
X135223448Y-101738729D01*
X135140186Y-101840186D01*
X135038729Y-101923448D01*
X135002991Y-101952778D01*
X134846466Y-102036443D01*
X134676627Y-102087963D01*
X134610443Y-102094481D01*
X134544260Y-102101000D01*
X134455740Y-102101000D01*
X134389558Y-102094482D01*
X134323373Y-102087963D01*
X134153534Y-102036443D01*
X133997009Y-101952778D01*
X133961271Y-101923448D01*
X133859814Y-101840186D01*
X133776552Y-101738729D01*
X133747222Y-101702991D01*
X133663557Y-101546466D01*
X133612037Y-101376627D01*
X133594641Y-101200000D01*
X133612037Y-101023373D01*
X133663557Y-100853534D01*
X133747222Y-100697009D01*
X133776552Y-100661271D01*
X133859814Y-100559814D01*
X133964380Y-100474000D01*
X133997009Y-100447222D01*
X134153534Y-100363557D01*
X134323373Y-100312037D01*
X134389558Y-100305518D01*
X134455740Y-100299000D01*
X134544260Y-100299000D01*
X134610442Y-100305518D01*
X134610442Y-100305518D01*
G37*
G36*
X129610442Y-100305518D02*
G01*
X129676627Y-100312037D01*
X129846466Y-100363557D01*
X130002991Y-100447222D01*
X130035620Y-100474000D01*
X130140186Y-100559814D01*
X130223448Y-100661271D01*
X130252778Y-100697009D01*
X130336443Y-100853534D01*
X130387963Y-101023373D01*
X130405359Y-101200000D01*
X130387963Y-101376627D01*
X130336443Y-101546466D01*
X130252778Y-101702991D01*
X130223448Y-101738729D01*
X130140186Y-101840186D01*
X130038729Y-101923448D01*
X130002991Y-101952778D01*
X129846466Y-102036443D01*
X129676627Y-102087963D01*
X129610443Y-102094481D01*
X129544260Y-102101000D01*
X129455740Y-102101000D01*
X129389558Y-102094482D01*
X129323373Y-102087963D01*
X129153534Y-102036443D01*
X128997009Y-101952778D01*
X128961271Y-101923448D01*
X128859814Y-101840186D01*
X128776552Y-101738729D01*
X128747222Y-101702991D01*
X128663557Y-101546466D01*
X128612037Y-101376627D01*
X128594641Y-101200000D01*
X128612037Y-101023373D01*
X128663557Y-100853534D01*
X128747222Y-100697009D01*
X128776552Y-100661271D01*
X128859814Y-100559814D01*
X128964380Y-100474000D01*
X128997009Y-100447222D01*
X129153534Y-100363557D01*
X129323373Y-100312037D01*
X129389558Y-100305518D01*
X129455740Y-100299000D01*
X129544260Y-100299000D01*
X129610442Y-100305518D01*
X129610442Y-100305518D01*
G37*
G36*
X188251000Y-101201000D02*
G01*
X187349000Y-101201000D01*
X187349000Y-100299000D01*
X188251000Y-100299000D01*
X188251000Y-101201000D01*
X188251000Y-101201000D01*
G37*
G36*
X186651000Y-101201000D02*
G01*
X185749000Y-101201000D01*
X185749000Y-100299000D01*
X186651000Y-100299000D01*
X186651000Y-101201000D01*
X186651000Y-101201000D01*
G37*
G36*
X178551000Y-101176000D02*
G01*
X177449000Y-101176000D01*
X177449000Y-99824000D01*
X178551000Y-99824000D01*
X178551000Y-101176000D01*
X178551000Y-101176000D01*
G37*
G36*
X176551000Y-101176000D02*
G01*
X175449000Y-101176000D01*
X175449000Y-99824000D01*
X176551000Y-99824000D01*
X176551000Y-101176000D01*
X176551000Y-101176000D01*
G37*
G36*
X140551000Y-100091000D02*
G01*
X139149000Y-100091000D01*
X139149000Y-99189000D01*
X140551000Y-99189000D01*
X140551000Y-100091000D01*
X140551000Y-100091000D01*
G37*
G36*
X146851000Y-100091000D02*
G01*
X145449000Y-100091000D01*
X145449000Y-99189000D01*
X146851000Y-99189000D01*
X146851000Y-100091000D01*
X146851000Y-100091000D01*
G37*
G36*
X134610442Y-97765518D02*
G01*
X134676627Y-97772037D01*
X134846466Y-97823557D01*
X135002991Y-97907222D01*
X135005157Y-97909000D01*
X135140186Y-98019814D01*
X135219951Y-98117009D01*
X135252778Y-98157009D01*
X135336443Y-98313534D01*
X135387963Y-98483373D01*
X135405359Y-98660000D01*
X135387963Y-98836627D01*
X135336443Y-99006466D01*
X135252778Y-99162991D01*
X135231433Y-99189000D01*
X135140186Y-99300186D01*
X135051731Y-99372778D01*
X135002991Y-99412778D01*
X134846466Y-99496443D01*
X134676627Y-99547963D01*
X134610443Y-99554481D01*
X134544260Y-99561000D01*
X134455740Y-99561000D01*
X134389557Y-99554481D01*
X134323373Y-99547963D01*
X134153534Y-99496443D01*
X133997009Y-99412778D01*
X133948269Y-99372778D01*
X133859814Y-99300186D01*
X133768567Y-99189000D01*
X133747222Y-99162991D01*
X133663557Y-99006466D01*
X133612037Y-98836627D01*
X133594641Y-98660000D01*
X133612037Y-98483373D01*
X133663557Y-98313534D01*
X133747222Y-98157009D01*
X133780049Y-98117009D01*
X133859814Y-98019814D01*
X133994843Y-97909000D01*
X133997009Y-97907222D01*
X134153534Y-97823557D01*
X134323373Y-97772037D01*
X134389558Y-97765518D01*
X134455740Y-97759000D01*
X134544260Y-97759000D01*
X134610442Y-97765518D01*
X134610442Y-97765518D01*
G37*
G36*
X129610442Y-97765518D02*
G01*
X129676627Y-97772037D01*
X129846466Y-97823557D01*
X130002991Y-97907222D01*
X130005157Y-97909000D01*
X130140186Y-98019814D01*
X130219951Y-98117009D01*
X130252778Y-98157009D01*
X130336443Y-98313534D01*
X130387963Y-98483373D01*
X130405359Y-98660000D01*
X130387963Y-98836627D01*
X130336443Y-99006466D01*
X130252778Y-99162991D01*
X130231433Y-99189000D01*
X130140186Y-99300186D01*
X130051731Y-99372778D01*
X130002991Y-99412778D01*
X129846466Y-99496443D01*
X129676627Y-99547963D01*
X129610443Y-99554481D01*
X129544260Y-99561000D01*
X129455740Y-99561000D01*
X129389557Y-99554481D01*
X129323373Y-99547963D01*
X129153534Y-99496443D01*
X128997009Y-99412778D01*
X128948269Y-99372778D01*
X128859814Y-99300186D01*
X128768567Y-99189000D01*
X128747222Y-99162991D01*
X128663557Y-99006466D01*
X128612037Y-98836627D01*
X128594641Y-98660000D01*
X128612037Y-98483373D01*
X128663557Y-98313534D01*
X128747222Y-98157009D01*
X128780049Y-98117009D01*
X128859814Y-98019814D01*
X128994843Y-97909000D01*
X128997009Y-97907222D01*
X129153534Y-97823557D01*
X129323373Y-97772037D01*
X129389558Y-97765518D01*
X129455740Y-97759000D01*
X129544260Y-97759000D01*
X129610442Y-97765518D01*
X129610442Y-97765518D01*
G37*
G36*
X124360442Y-97725518D02*
G01*
X124426627Y-97732037D01*
X124596466Y-97783557D01*
X124752991Y-97867222D01*
X124788729Y-97896552D01*
X124890186Y-97979814D01*
X124973448Y-98081271D01*
X125002778Y-98117009D01*
X125086443Y-98273534D01*
X125137963Y-98443373D01*
X125155359Y-98620000D01*
X125137963Y-98796627D01*
X125086443Y-98966466D01*
X125002778Y-99122991D01*
X124973448Y-99158729D01*
X124890186Y-99260186D01*
X124788729Y-99343448D01*
X124752991Y-99372778D01*
X124596466Y-99456443D01*
X124426627Y-99507963D01*
X124360442Y-99514482D01*
X124294260Y-99521000D01*
X124205740Y-99521000D01*
X124139558Y-99514482D01*
X124073373Y-99507963D01*
X123903534Y-99456443D01*
X123747009Y-99372778D01*
X123711271Y-99343448D01*
X123609814Y-99260186D01*
X123526552Y-99158729D01*
X123497222Y-99122991D01*
X123413557Y-98966466D01*
X123362037Y-98796627D01*
X123344641Y-98620000D01*
X123362037Y-98443373D01*
X123413557Y-98273534D01*
X123497222Y-98117009D01*
X123526552Y-98081271D01*
X123609814Y-97979814D01*
X123711271Y-97896552D01*
X123747009Y-97867222D01*
X123903534Y-97783557D01*
X124073373Y-97732037D01*
X124139557Y-97725519D01*
X124205740Y-97719000D01*
X124294260Y-97719000D01*
X124360442Y-97725518D01*
X124360442Y-97725518D01*
G37*
G36*
X119110442Y-97725518D02*
G01*
X119176627Y-97732037D01*
X119346466Y-97783557D01*
X119502991Y-97867222D01*
X119538729Y-97896552D01*
X119640186Y-97979814D01*
X119723448Y-98081271D01*
X119752778Y-98117009D01*
X119836443Y-98273534D01*
X119887963Y-98443373D01*
X119905359Y-98620000D01*
X119887963Y-98796627D01*
X119836443Y-98966466D01*
X119752778Y-99122991D01*
X119723448Y-99158729D01*
X119640186Y-99260186D01*
X119538729Y-99343448D01*
X119502991Y-99372778D01*
X119346466Y-99456443D01*
X119176627Y-99507963D01*
X119110442Y-99514482D01*
X119044260Y-99521000D01*
X118955740Y-99521000D01*
X118889558Y-99514482D01*
X118823373Y-99507963D01*
X118653534Y-99456443D01*
X118497009Y-99372778D01*
X118461271Y-99343448D01*
X118359814Y-99260186D01*
X118276552Y-99158729D01*
X118247222Y-99122991D01*
X118163557Y-98966466D01*
X118112037Y-98796627D01*
X118094641Y-98620000D01*
X118112037Y-98443373D01*
X118163557Y-98273534D01*
X118247222Y-98117009D01*
X118276552Y-98081271D01*
X118359814Y-97979814D01*
X118461271Y-97896552D01*
X118497009Y-97867222D01*
X118653534Y-97783557D01*
X118823373Y-97732037D01*
X118889557Y-97725519D01*
X118955740Y-97719000D01*
X119044260Y-97719000D01*
X119110442Y-97725518D01*
X119110442Y-97725518D01*
G37*
G36*
X186651000Y-99201000D02*
G01*
X185749000Y-99201000D01*
X185749000Y-98299000D01*
X186651000Y-98299000D01*
X186651000Y-99201000D01*
X186651000Y-99201000D01*
G37*
G36*
X188251000Y-99201000D02*
G01*
X187349000Y-99201000D01*
X187349000Y-98299000D01*
X188251000Y-98299000D01*
X188251000Y-99201000D01*
X188251000Y-99201000D01*
G37*
G36*
X167326000Y-99101000D02*
G01*
X158674000Y-99101000D01*
X158674000Y-97499000D01*
X167326000Y-97499000D01*
X167326000Y-99101000D01*
X167326000Y-99101000D01*
G37*
G36*
X140551000Y-98811000D02*
G01*
X139149000Y-98811000D01*
X139149000Y-97909000D01*
X140551000Y-97909000D01*
X140551000Y-98811000D01*
X140551000Y-98811000D01*
G37*
G36*
X146851000Y-98811000D02*
G01*
X145449000Y-98811000D01*
X145449000Y-97909000D01*
X146851000Y-97909000D01*
X146851000Y-98811000D01*
X146851000Y-98811000D01*
G37*
G36*
X176451000Y-98701000D02*
G01*
X175649000Y-98701000D01*
X175649000Y-97299000D01*
X176451000Y-97299000D01*
X176451000Y-98701000D01*
X176451000Y-98701000D01*
G37*
G36*
X178351000Y-98701000D02*
G01*
X177549000Y-98701000D01*
X177549000Y-97299000D01*
X178351000Y-97299000D01*
X178351000Y-98701000D01*
X178351000Y-98701000D01*
G37*
G36*
X134610443Y-95225519D02*
G01*
X134676627Y-95232037D01*
X134846466Y-95283557D01*
X135002991Y-95367222D01*
X135038729Y-95396552D01*
X135140186Y-95479814D01*
X135219951Y-95577009D01*
X135252778Y-95617009D01*
X135336443Y-95773534D01*
X135387963Y-95943373D01*
X135405359Y-96120000D01*
X135387963Y-96296627D01*
X135336443Y-96466466D01*
X135252778Y-96622991D01*
X135229791Y-96651000D01*
X135140186Y-96760186D01*
X135051731Y-96832778D01*
X135002991Y-96872778D01*
X134846466Y-96956443D01*
X134676627Y-97007963D01*
X134610442Y-97014482D01*
X134544260Y-97021000D01*
X134455740Y-97021000D01*
X134389558Y-97014482D01*
X134323373Y-97007963D01*
X134153534Y-96956443D01*
X133997009Y-96872778D01*
X133948269Y-96832778D01*
X133859814Y-96760186D01*
X133770209Y-96651000D01*
X133747222Y-96622991D01*
X133663557Y-96466466D01*
X133612037Y-96296627D01*
X133594641Y-96120000D01*
X133612037Y-95943373D01*
X133663557Y-95773534D01*
X133747222Y-95617009D01*
X133780049Y-95577009D01*
X133859814Y-95479814D01*
X133961271Y-95396552D01*
X133997009Y-95367222D01*
X134153534Y-95283557D01*
X134323373Y-95232037D01*
X134389557Y-95225519D01*
X134455740Y-95219000D01*
X134544260Y-95219000D01*
X134610443Y-95225519D01*
X134610443Y-95225519D01*
G37*
G36*
X129610443Y-95225519D02*
G01*
X129676627Y-95232037D01*
X129846466Y-95283557D01*
X130002991Y-95367222D01*
X130038729Y-95396552D01*
X130140186Y-95479814D01*
X130219951Y-95577009D01*
X130252778Y-95617009D01*
X130336443Y-95773534D01*
X130387963Y-95943373D01*
X130405359Y-96120000D01*
X130387963Y-96296627D01*
X130336443Y-96466466D01*
X130252778Y-96622991D01*
X130229791Y-96651000D01*
X130140186Y-96760186D01*
X130051731Y-96832778D01*
X130002991Y-96872778D01*
X129846466Y-96956443D01*
X129676627Y-97007963D01*
X129610442Y-97014482D01*
X129544260Y-97021000D01*
X129455740Y-97021000D01*
X129389558Y-97014482D01*
X129323373Y-97007963D01*
X129153534Y-96956443D01*
X128997009Y-96872778D01*
X128948269Y-96832778D01*
X128859814Y-96760186D01*
X128770209Y-96651000D01*
X128747222Y-96622991D01*
X128663557Y-96466466D01*
X128612037Y-96296627D01*
X128594641Y-96120000D01*
X128612037Y-95943373D01*
X128663557Y-95773534D01*
X128747222Y-95617009D01*
X128780049Y-95577009D01*
X128859814Y-95479814D01*
X128961271Y-95396552D01*
X128997009Y-95367222D01*
X129153534Y-95283557D01*
X129323373Y-95232037D01*
X129389557Y-95225519D01*
X129455740Y-95219000D01*
X129544260Y-95219000D01*
X129610443Y-95225519D01*
X129610443Y-95225519D01*
G37*
G36*
X124360442Y-95185518D02*
G01*
X124426627Y-95192037D01*
X124596466Y-95243557D01*
X124752991Y-95327222D01*
X124788729Y-95356552D01*
X124890186Y-95439814D01*
X124973448Y-95541271D01*
X125002778Y-95577009D01*
X125086443Y-95733534D01*
X125137963Y-95903373D01*
X125155359Y-96080000D01*
X125137963Y-96256627D01*
X125086443Y-96426466D01*
X125002778Y-96582991D01*
X124973448Y-96618729D01*
X124890186Y-96720186D01*
X124788729Y-96803448D01*
X124752991Y-96832778D01*
X124596466Y-96916443D01*
X124426627Y-96967963D01*
X124360442Y-96974482D01*
X124294260Y-96981000D01*
X124205740Y-96981000D01*
X124139558Y-96974482D01*
X124073373Y-96967963D01*
X123903534Y-96916443D01*
X123747009Y-96832778D01*
X123711271Y-96803448D01*
X123609814Y-96720186D01*
X123526552Y-96618729D01*
X123497222Y-96582991D01*
X123413557Y-96426466D01*
X123362037Y-96256627D01*
X123344641Y-96080000D01*
X123362037Y-95903373D01*
X123413557Y-95733534D01*
X123497222Y-95577009D01*
X123526552Y-95541271D01*
X123609814Y-95439814D01*
X123711271Y-95356552D01*
X123747009Y-95327222D01*
X123903534Y-95243557D01*
X124073373Y-95192037D01*
X124139557Y-95185519D01*
X124205740Y-95179000D01*
X124294260Y-95179000D01*
X124360442Y-95185518D01*
X124360442Y-95185518D01*
G37*
G36*
X119110442Y-95185518D02*
G01*
X119176627Y-95192037D01*
X119346466Y-95243557D01*
X119502991Y-95327222D01*
X119538729Y-95356552D01*
X119640186Y-95439814D01*
X119723448Y-95541271D01*
X119752778Y-95577009D01*
X119836443Y-95733534D01*
X119887963Y-95903373D01*
X119905359Y-96080000D01*
X119887963Y-96256627D01*
X119836443Y-96426466D01*
X119752778Y-96582991D01*
X119723448Y-96618729D01*
X119640186Y-96720186D01*
X119538729Y-96803448D01*
X119502991Y-96832778D01*
X119346466Y-96916443D01*
X119176627Y-96967963D01*
X119110442Y-96974482D01*
X119044260Y-96981000D01*
X118955740Y-96981000D01*
X118889558Y-96974482D01*
X118823373Y-96967963D01*
X118653534Y-96916443D01*
X118497009Y-96832778D01*
X118461271Y-96803448D01*
X118359814Y-96720186D01*
X118276552Y-96618729D01*
X118247222Y-96582991D01*
X118163557Y-96426466D01*
X118112037Y-96256627D01*
X118094641Y-96080000D01*
X118112037Y-95903373D01*
X118163557Y-95733534D01*
X118247222Y-95577009D01*
X118276552Y-95541271D01*
X118359814Y-95439814D01*
X118461271Y-95356552D01*
X118497009Y-95327222D01*
X118653534Y-95243557D01*
X118823373Y-95192037D01*
X118889557Y-95185519D01*
X118955740Y-95179000D01*
X119044260Y-95179000D01*
X119110442Y-95185518D01*
X119110442Y-95185518D01*
G37*
G36*
X142301000Y-96651000D02*
G01*
X141299000Y-96651000D01*
X141299000Y-94849000D01*
X142301000Y-94849000D01*
X142301000Y-96651000D01*
X142301000Y-96651000D01*
G37*
G36*
X145201000Y-96651000D02*
G01*
X144199000Y-96651000D01*
X144199000Y-94849000D01*
X145201000Y-94849000D01*
X145201000Y-96651000D01*
X145201000Y-96651000D01*
G37*
G36*
X184070442Y-94605518D02*
G01*
X184136627Y-94612037D01*
X184306466Y-94663557D01*
X184462991Y-94747222D01*
X184491013Y-94770219D01*
X184600186Y-94859814D01*
X184683448Y-94961271D01*
X184712778Y-94997009D01*
X184796443Y-95153534D01*
X184847963Y-95323373D01*
X184865359Y-95500000D01*
X184847963Y-95676627D01*
X184796443Y-95846466D01*
X184712778Y-96002991D01*
X184683448Y-96038729D01*
X184600186Y-96140186D01*
X184498729Y-96223448D01*
X184462991Y-96252778D01*
X184306466Y-96336443D01*
X184136627Y-96387963D01*
X184070442Y-96394482D01*
X184004260Y-96401000D01*
X183915740Y-96401000D01*
X183849558Y-96394482D01*
X183783373Y-96387963D01*
X183613534Y-96336443D01*
X183457009Y-96252778D01*
X183421271Y-96223448D01*
X183319814Y-96140186D01*
X183236552Y-96038729D01*
X183207222Y-96002991D01*
X183123557Y-95846466D01*
X183072037Y-95676627D01*
X183054641Y-95500000D01*
X183072037Y-95323373D01*
X183123557Y-95153534D01*
X183207222Y-94997009D01*
X183236552Y-94961271D01*
X183319814Y-94859814D01*
X183428987Y-94770219D01*
X183457009Y-94747222D01*
X183613534Y-94663557D01*
X183783373Y-94612037D01*
X183849558Y-94605518D01*
X183915740Y-94599000D01*
X184004260Y-94599000D01*
X184070442Y-94605518D01*
X184070442Y-94605518D01*
G37*
G36*
X187401000Y-96401000D02*
G01*
X185599000Y-96401000D01*
X185599000Y-94599000D01*
X187401000Y-94599000D01*
X187401000Y-96401000D01*
X187401000Y-96401000D01*
G37*
G36*
X176451000Y-96201000D02*
G01*
X175649000Y-96201000D01*
X175649000Y-94799000D01*
X176451000Y-94799000D01*
X176451000Y-96201000D01*
X176451000Y-96201000D01*
G37*
G36*
X178351000Y-96201000D02*
G01*
X177549000Y-96201000D01*
X177549000Y-94799000D01*
X178351000Y-94799000D01*
X178351000Y-96201000D01*
X178351000Y-96201000D01*
G37*
G36*
X160733642Y-93229781D02*
G01*
X160879414Y-93290162D01*
X160879416Y-93290163D01*
X161010608Y-93377822D01*
X161122178Y-93489392D01*
X161209837Y-93620584D01*
X161209838Y-93620586D01*
X161270219Y-93766358D01*
X161301000Y-93921107D01*
X161301000Y-94078893D01*
X161270219Y-94233642D01*
X161209838Y-94379414D01*
X161209837Y-94379416D01*
X161122178Y-94510608D01*
X161010608Y-94622178D01*
X160879416Y-94709837D01*
X160879415Y-94709838D01*
X160879414Y-94709838D01*
X160733642Y-94770219D01*
X160578893Y-94801000D01*
X160421107Y-94801000D01*
X160266358Y-94770219D01*
X160120586Y-94709838D01*
X160120585Y-94709838D01*
X160120584Y-94709837D01*
X159989392Y-94622178D01*
X159877822Y-94510608D01*
X159790163Y-94379416D01*
X159790162Y-94379414D01*
X159729781Y-94233642D01*
X159699000Y-94078893D01*
X159699000Y-93921107D01*
X159729781Y-93766358D01*
X159790162Y-93620586D01*
X159790163Y-93620584D01*
X159877822Y-93489392D01*
X159989392Y-93377822D01*
X160120584Y-93290163D01*
X160120586Y-93290162D01*
X160266358Y-93229781D01*
X160421107Y-93199000D01*
X160578893Y-93199000D01*
X160733642Y-93229781D01*
X160733642Y-93229781D01*
G37*
G36*
X165613642Y-93229781D02*
G01*
X165759414Y-93290162D01*
X165759416Y-93290163D01*
X165890608Y-93377822D01*
X166002178Y-93489392D01*
X166089837Y-93620584D01*
X166089838Y-93620586D01*
X166150219Y-93766358D01*
X166181000Y-93921107D01*
X166181000Y-94078893D01*
X166150219Y-94233642D01*
X166089838Y-94379414D01*
X166089837Y-94379416D01*
X166002178Y-94510608D01*
X165890608Y-94622178D01*
X165759416Y-94709837D01*
X165759415Y-94709838D01*
X165759414Y-94709838D01*
X165613642Y-94770219D01*
X165458893Y-94801000D01*
X165301107Y-94801000D01*
X165146358Y-94770219D01*
X165000586Y-94709838D01*
X165000585Y-94709838D01*
X165000584Y-94709837D01*
X164869392Y-94622178D01*
X164757822Y-94510608D01*
X164670163Y-94379416D01*
X164670162Y-94379414D01*
X164609781Y-94233642D01*
X164579000Y-94078893D01*
X164579000Y-93921107D01*
X164609781Y-93766358D01*
X164670162Y-93620586D01*
X164670163Y-93620584D01*
X164757822Y-93489392D01*
X164869392Y-93377822D01*
X165000584Y-93290163D01*
X165000586Y-93290162D01*
X165146358Y-93229781D01*
X165301107Y-93199000D01*
X165458893Y-93199000D01*
X165613642Y-93229781D01*
X165613642Y-93229781D01*
G37*
G36*
X129610442Y-92685518D02*
G01*
X129676627Y-92692037D01*
X129846466Y-92743557D01*
X130002991Y-92827222D01*
X130038729Y-92856552D01*
X130140186Y-92939814D01*
X130219951Y-93037009D01*
X130252778Y-93077009D01*
X130252779Y-93077011D01*
X130334438Y-93229782D01*
X130336443Y-93233534D01*
X130387963Y-93403373D01*
X130405359Y-93580000D01*
X130387963Y-93756627D01*
X130336443Y-93926466D01*
X130252778Y-94082991D01*
X130223448Y-94118729D01*
X130140186Y-94220186D01*
X130051731Y-94292778D01*
X130002991Y-94332778D01*
X129846466Y-94416443D01*
X129676627Y-94467963D01*
X129610443Y-94474481D01*
X129544260Y-94481000D01*
X129455740Y-94481000D01*
X129389557Y-94474481D01*
X129323373Y-94467963D01*
X129153534Y-94416443D01*
X128997009Y-94332778D01*
X128948269Y-94292778D01*
X128859814Y-94220186D01*
X128776552Y-94118729D01*
X128747222Y-94082991D01*
X128663557Y-93926466D01*
X128612037Y-93756627D01*
X128594641Y-93580000D01*
X128612037Y-93403373D01*
X128663557Y-93233534D01*
X128665563Y-93229782D01*
X128747221Y-93077011D01*
X128747222Y-93077009D01*
X128780049Y-93037009D01*
X128859814Y-92939814D01*
X128961271Y-92856552D01*
X128997009Y-92827222D01*
X129153534Y-92743557D01*
X129323373Y-92692037D01*
X129389558Y-92685518D01*
X129455740Y-92679000D01*
X129544260Y-92679000D01*
X129610442Y-92685518D01*
X129610442Y-92685518D01*
G37*
G36*
X134610442Y-92685518D02*
G01*
X134676627Y-92692037D01*
X134846466Y-92743557D01*
X135002991Y-92827222D01*
X135038729Y-92856552D01*
X135140186Y-92939814D01*
X135219951Y-93037009D01*
X135252778Y-93077009D01*
X135252779Y-93077011D01*
X135334438Y-93229782D01*
X135336443Y-93233534D01*
X135387963Y-93403373D01*
X135405359Y-93580000D01*
X135387963Y-93756627D01*
X135336443Y-93926466D01*
X135252778Y-94082991D01*
X135223448Y-94118729D01*
X135140186Y-94220186D01*
X135051731Y-94292778D01*
X135002991Y-94332778D01*
X134846466Y-94416443D01*
X134676627Y-94467963D01*
X134610443Y-94474481D01*
X134544260Y-94481000D01*
X134455740Y-94481000D01*
X134389557Y-94474481D01*
X134323373Y-94467963D01*
X134153534Y-94416443D01*
X133997009Y-94332778D01*
X133948269Y-94292778D01*
X133859814Y-94220186D01*
X133776552Y-94118729D01*
X133747222Y-94082991D01*
X133663557Y-93926466D01*
X133612037Y-93756627D01*
X133594641Y-93580000D01*
X133612037Y-93403373D01*
X133663557Y-93233534D01*
X133665563Y-93229782D01*
X133747221Y-93077011D01*
X133747222Y-93077009D01*
X133780049Y-93037009D01*
X133859814Y-92939814D01*
X133961271Y-92856552D01*
X133997009Y-92827222D01*
X134153534Y-92743557D01*
X134323373Y-92692037D01*
X134389557Y-92685519D01*
X134455740Y-92679000D01*
X134544260Y-92679000D01*
X134610442Y-92685518D01*
X134610442Y-92685518D01*
G37*
G36*
X124360442Y-92645518D02*
G01*
X124426627Y-92652037D01*
X124596466Y-92703557D01*
X124752991Y-92787222D01*
X124788729Y-92816552D01*
X124890186Y-92899814D01*
X124973448Y-93001271D01*
X125002778Y-93037009D01*
X125086443Y-93193534D01*
X125137963Y-93363373D01*
X125155359Y-93540000D01*
X125137963Y-93716627D01*
X125086443Y-93886466D01*
X125002778Y-94042991D01*
X124973448Y-94078729D01*
X124890186Y-94180186D01*
X124825047Y-94233643D01*
X124752991Y-94292778D01*
X124596466Y-94376443D01*
X124426627Y-94427963D01*
X124360442Y-94434482D01*
X124294260Y-94441000D01*
X124205740Y-94441000D01*
X124139557Y-94434481D01*
X124073373Y-94427963D01*
X123903534Y-94376443D01*
X123747009Y-94292778D01*
X123674953Y-94233643D01*
X123609814Y-94180186D01*
X123526552Y-94078729D01*
X123497222Y-94042991D01*
X123413557Y-93886466D01*
X123362037Y-93716627D01*
X123344641Y-93540000D01*
X123362037Y-93363373D01*
X123413557Y-93193534D01*
X123497222Y-93037009D01*
X123526552Y-93001271D01*
X123609814Y-92899814D01*
X123711271Y-92816552D01*
X123747009Y-92787222D01*
X123903534Y-92703557D01*
X124073373Y-92652037D01*
X124139558Y-92645518D01*
X124205740Y-92639000D01*
X124294260Y-92639000D01*
X124360442Y-92645518D01*
X124360442Y-92645518D01*
G37*
G36*
X119110442Y-92645518D02*
G01*
X119176627Y-92652037D01*
X119346466Y-92703557D01*
X119502991Y-92787222D01*
X119538729Y-92816552D01*
X119640186Y-92899814D01*
X119723448Y-93001271D01*
X119752778Y-93037009D01*
X119836443Y-93193534D01*
X119887963Y-93363373D01*
X119905359Y-93540000D01*
X119887963Y-93716627D01*
X119836443Y-93886466D01*
X119752778Y-94042991D01*
X119723448Y-94078729D01*
X119640186Y-94180186D01*
X119575047Y-94233643D01*
X119502991Y-94292778D01*
X119346466Y-94376443D01*
X119176627Y-94427963D01*
X119110442Y-94434482D01*
X119044260Y-94441000D01*
X118955740Y-94441000D01*
X118889557Y-94434481D01*
X118823373Y-94427963D01*
X118653534Y-94376443D01*
X118497009Y-94292778D01*
X118424953Y-94233643D01*
X118359814Y-94180186D01*
X118276552Y-94078729D01*
X118247222Y-94042991D01*
X118163557Y-93886466D01*
X118112037Y-93716627D01*
X118094641Y-93540000D01*
X118112037Y-93363373D01*
X118163557Y-93193534D01*
X118247222Y-93037009D01*
X118276552Y-93001271D01*
X118359814Y-92899814D01*
X118461271Y-92816552D01*
X118497009Y-92787222D01*
X118653534Y-92703557D01*
X118823373Y-92652037D01*
X118889558Y-92645518D01*
X118955740Y-92639000D01*
X119044260Y-92639000D01*
X119110442Y-92645518D01*
X119110442Y-92645518D01*
G37*
G36*
X184070443Y-92065519D02*
G01*
X184136627Y-92072037D01*
X184306466Y-92123557D01*
X184462991Y-92207222D01*
X184498729Y-92236552D01*
X184600186Y-92319814D01*
X184683448Y-92421271D01*
X184712778Y-92457009D01*
X184796443Y-92613534D01*
X184847963Y-92783373D01*
X184865359Y-92960000D01*
X184847963Y-93136627D01*
X184796443Y-93306466D01*
X184712778Y-93462991D01*
X184691111Y-93489392D01*
X184600186Y-93600186D01*
X184498729Y-93683448D01*
X184462991Y-93712778D01*
X184306466Y-93796443D01*
X184136627Y-93847963D01*
X184070442Y-93854482D01*
X184004260Y-93861000D01*
X183915740Y-93861000D01*
X183849557Y-93854481D01*
X183783373Y-93847963D01*
X183613534Y-93796443D01*
X183457009Y-93712778D01*
X183421271Y-93683448D01*
X183319814Y-93600186D01*
X183228889Y-93489392D01*
X183207222Y-93462991D01*
X183123557Y-93306466D01*
X183072037Y-93136627D01*
X183054641Y-92960000D01*
X183072037Y-92783373D01*
X183123557Y-92613534D01*
X183207222Y-92457009D01*
X183236552Y-92421271D01*
X183319814Y-92319814D01*
X183421271Y-92236552D01*
X183457009Y-92207222D01*
X183613534Y-92123557D01*
X183783373Y-92072037D01*
X183849557Y-92065519D01*
X183915740Y-92059000D01*
X184004260Y-92059000D01*
X184070443Y-92065519D01*
X184070443Y-92065519D01*
G37*
G36*
X186610443Y-92065519D02*
G01*
X186676627Y-92072037D01*
X186846466Y-92123557D01*
X187002991Y-92207222D01*
X187038729Y-92236552D01*
X187140186Y-92319814D01*
X187223448Y-92421271D01*
X187252778Y-92457009D01*
X187336443Y-92613534D01*
X187387963Y-92783373D01*
X187405359Y-92960000D01*
X187387963Y-93136627D01*
X187336443Y-93306466D01*
X187252778Y-93462991D01*
X187231111Y-93489392D01*
X187140186Y-93600186D01*
X187038729Y-93683448D01*
X187002991Y-93712778D01*
X186846466Y-93796443D01*
X186676627Y-93847963D01*
X186610442Y-93854482D01*
X186544260Y-93861000D01*
X186455740Y-93861000D01*
X186389557Y-93854481D01*
X186323373Y-93847963D01*
X186153534Y-93796443D01*
X185997009Y-93712778D01*
X185961271Y-93683448D01*
X185859814Y-93600186D01*
X185768889Y-93489392D01*
X185747222Y-93462991D01*
X185663557Y-93306466D01*
X185612037Y-93136627D01*
X185594641Y-92960000D01*
X185612037Y-92783373D01*
X185663557Y-92613534D01*
X185747222Y-92457009D01*
X185776552Y-92421271D01*
X185859814Y-92319814D01*
X185961271Y-92236552D01*
X185997009Y-92207222D01*
X186153534Y-92123557D01*
X186323373Y-92072037D01*
X186389557Y-92065519D01*
X186455740Y-92059000D01*
X186544260Y-92059000D01*
X186610443Y-92065519D01*
X186610443Y-92065519D01*
G37*
G36*
X129610442Y-90145518D02*
G01*
X129676627Y-90152037D01*
X129846466Y-90203557D01*
X130002991Y-90287222D01*
X130038729Y-90316552D01*
X130140186Y-90399814D01*
X130223448Y-90501271D01*
X130252778Y-90537009D01*
X130336443Y-90693534D01*
X130387963Y-90863373D01*
X130405359Y-91040000D01*
X130387963Y-91216627D01*
X130336443Y-91386466D01*
X130252778Y-91542991D01*
X130223448Y-91578729D01*
X130140186Y-91680186D01*
X130038729Y-91763448D01*
X130002991Y-91792778D01*
X129846466Y-91876443D01*
X129676627Y-91927963D01*
X129610442Y-91934482D01*
X129544260Y-91941000D01*
X129455740Y-91941000D01*
X129389558Y-91934482D01*
X129323373Y-91927963D01*
X129153534Y-91876443D01*
X128997009Y-91792778D01*
X128961271Y-91763448D01*
X128859814Y-91680186D01*
X128776552Y-91578729D01*
X128747222Y-91542991D01*
X128663557Y-91386466D01*
X128612037Y-91216627D01*
X128594641Y-91040000D01*
X128612037Y-90863373D01*
X128663557Y-90693534D01*
X128747222Y-90537009D01*
X128776552Y-90501271D01*
X128859814Y-90399814D01*
X128961271Y-90316552D01*
X128997009Y-90287222D01*
X129153534Y-90203557D01*
X129323373Y-90152037D01*
X129389558Y-90145518D01*
X129455740Y-90139000D01*
X129544260Y-90139000D01*
X129610442Y-90145518D01*
X129610442Y-90145518D01*
G37*
G36*
X139610442Y-90145518D02*
G01*
X139676627Y-90152037D01*
X139846466Y-90203557D01*
X140002991Y-90287222D01*
X140038729Y-90316552D01*
X140140186Y-90399814D01*
X140223448Y-90501271D01*
X140252778Y-90537009D01*
X140336443Y-90693534D01*
X140387963Y-90863373D01*
X140405359Y-91040000D01*
X140387963Y-91216627D01*
X140336443Y-91386466D01*
X140252778Y-91542991D01*
X140223448Y-91578729D01*
X140140186Y-91680186D01*
X140038729Y-91763448D01*
X140002991Y-91792778D01*
X139846466Y-91876443D01*
X139676627Y-91927963D01*
X139610442Y-91934482D01*
X139544260Y-91941000D01*
X139455740Y-91941000D01*
X139389558Y-91934482D01*
X139323373Y-91927963D01*
X139153534Y-91876443D01*
X138997009Y-91792778D01*
X138961271Y-91763448D01*
X138859814Y-91680186D01*
X138776552Y-91578729D01*
X138747222Y-91542991D01*
X138663557Y-91386466D01*
X138612037Y-91216627D01*
X138594641Y-91040000D01*
X138612037Y-90863373D01*
X138663557Y-90693534D01*
X138747222Y-90537009D01*
X138776552Y-90501271D01*
X138859814Y-90399814D01*
X138961271Y-90316552D01*
X138997009Y-90287222D01*
X139153534Y-90203557D01*
X139323373Y-90152037D01*
X139389558Y-90145518D01*
X139455740Y-90139000D01*
X139544260Y-90139000D01*
X139610442Y-90145518D01*
X139610442Y-90145518D01*
G37*
G36*
X134610442Y-90145518D02*
G01*
X134676627Y-90152037D01*
X134846466Y-90203557D01*
X135002991Y-90287222D01*
X135038729Y-90316552D01*
X135140186Y-90399814D01*
X135223448Y-90501271D01*
X135252778Y-90537009D01*
X135336443Y-90693534D01*
X135387963Y-90863373D01*
X135405359Y-91040000D01*
X135387963Y-91216627D01*
X135336443Y-91386466D01*
X135252778Y-91542991D01*
X135223448Y-91578729D01*
X135140186Y-91680186D01*
X135038729Y-91763448D01*
X135002991Y-91792778D01*
X134846466Y-91876443D01*
X134676627Y-91927963D01*
X134610442Y-91934482D01*
X134544260Y-91941000D01*
X134455740Y-91941000D01*
X134389558Y-91934482D01*
X134323373Y-91927963D01*
X134153534Y-91876443D01*
X133997009Y-91792778D01*
X133961271Y-91763448D01*
X133859814Y-91680186D01*
X133776552Y-91578729D01*
X133747222Y-91542991D01*
X133663557Y-91386466D01*
X133612037Y-91216627D01*
X133594641Y-91040000D01*
X133612037Y-90863373D01*
X133663557Y-90693534D01*
X133747222Y-90537009D01*
X133776552Y-90501271D01*
X133859814Y-90399814D01*
X133961271Y-90316552D01*
X133997009Y-90287222D01*
X134153534Y-90203557D01*
X134323373Y-90152037D01*
X134389558Y-90145518D01*
X134455740Y-90139000D01*
X134544260Y-90139000D01*
X134610442Y-90145518D01*
X134610442Y-90145518D01*
G37*
G36*
X119901000Y-91901000D02*
G01*
X118099000Y-91901000D01*
X118099000Y-90099000D01*
X119901000Y-90099000D01*
X119901000Y-91901000D01*
X119901000Y-91901000D01*
G37*
G36*
X125151000Y-91901000D02*
G01*
X123349000Y-91901000D01*
X123349000Y-90099000D01*
X125151000Y-90099000D01*
X125151000Y-91901000D01*
X125151000Y-91901000D01*
G37*
G36*
X184070442Y-89525518D02*
G01*
X184136627Y-89532037D01*
X184306466Y-89583557D01*
X184462991Y-89667222D01*
X184498729Y-89696552D01*
X184600186Y-89779814D01*
X184683448Y-89881271D01*
X184712778Y-89917009D01*
X184796443Y-90073534D01*
X184847963Y-90243373D01*
X184865359Y-90420000D01*
X184847963Y-90596627D01*
X184796443Y-90766466D01*
X184712778Y-90922991D01*
X184683448Y-90958729D01*
X184600186Y-91060186D01*
X184498729Y-91143448D01*
X184462991Y-91172778D01*
X184306466Y-91256443D01*
X184136627Y-91307963D01*
X184070442Y-91314482D01*
X184004260Y-91321000D01*
X183915740Y-91321000D01*
X183849557Y-91314481D01*
X183783373Y-91307963D01*
X183613534Y-91256443D01*
X183457009Y-91172778D01*
X183421271Y-91143448D01*
X183319814Y-91060186D01*
X183236552Y-90958729D01*
X183207222Y-90922991D01*
X183123557Y-90766466D01*
X183072037Y-90596627D01*
X183054641Y-90420000D01*
X183072037Y-90243373D01*
X183123557Y-90073534D01*
X183207222Y-89917009D01*
X183236552Y-89881271D01*
X183319814Y-89779814D01*
X183421271Y-89696552D01*
X183457009Y-89667222D01*
X183613534Y-89583557D01*
X183783373Y-89532037D01*
X183849557Y-89525519D01*
X183915740Y-89519000D01*
X184004260Y-89519000D01*
X184070442Y-89525518D01*
X184070442Y-89525518D01*
G37*
G36*
X186610442Y-89525518D02*
G01*
X186676627Y-89532037D01*
X186846466Y-89583557D01*
X187002991Y-89667222D01*
X187038729Y-89696552D01*
X187140186Y-89779814D01*
X187223448Y-89881271D01*
X187252778Y-89917009D01*
X187336443Y-90073534D01*
X187387963Y-90243373D01*
X187405359Y-90420000D01*
X187387963Y-90596627D01*
X187336443Y-90766466D01*
X187252778Y-90922991D01*
X187223448Y-90958729D01*
X187140186Y-91060186D01*
X187038729Y-91143448D01*
X187002991Y-91172778D01*
X186846466Y-91256443D01*
X186676627Y-91307963D01*
X186610442Y-91314482D01*
X186544260Y-91321000D01*
X186455740Y-91321000D01*
X186389557Y-91314481D01*
X186323373Y-91307963D01*
X186153534Y-91256443D01*
X185997009Y-91172778D01*
X185961271Y-91143448D01*
X185859814Y-91060186D01*
X185776552Y-90958729D01*
X185747222Y-90922991D01*
X185663557Y-90766466D01*
X185612037Y-90596627D01*
X185594641Y-90420000D01*
X185612037Y-90243373D01*
X185663557Y-90073534D01*
X185747222Y-89917009D01*
X185776552Y-89881271D01*
X185859814Y-89779814D01*
X185961271Y-89696552D01*
X185997009Y-89667222D01*
X186153534Y-89583557D01*
X186323373Y-89532037D01*
X186389557Y-89525519D01*
X186455740Y-89519000D01*
X186544260Y-89519000D01*
X186610442Y-89525518D01*
X186610442Y-89525518D01*
G37*
G36*
X166676000Y-90551000D02*
G01*
X165324000Y-90551000D01*
X165324000Y-89449000D01*
X166676000Y-89449000D01*
X166676000Y-90551000D01*
X166676000Y-90551000D01*
G37*
G36*
X161676000Y-90551000D02*
G01*
X160324000Y-90551000D01*
X160324000Y-89449000D01*
X161676000Y-89449000D01*
X161676000Y-90551000D01*
X161676000Y-90551000D01*
G37*
G36*
X156701000Y-90351000D02*
G01*
X155299000Y-90351000D01*
X155299000Y-89549000D01*
X156701000Y-89549000D01*
X156701000Y-90351000D01*
X156701000Y-90351000D01*
G37*
G36*
X154201000Y-90351000D02*
G01*
X152799000Y-90351000D01*
X152799000Y-89549000D01*
X154201000Y-89549000D01*
X154201000Y-90351000D01*
X154201000Y-90351000D01*
G37*
G36*
X149201000Y-90351000D02*
G01*
X147799000Y-90351000D01*
X147799000Y-89549000D01*
X149201000Y-89549000D01*
X149201000Y-90351000D01*
X149201000Y-90351000D01*
G37*
G36*
X164201000Y-90351000D02*
G01*
X162799000Y-90351000D01*
X162799000Y-89549000D01*
X164201000Y-89549000D01*
X164201000Y-90351000D01*
X164201000Y-90351000D01*
G37*
G36*
X159201000Y-90351000D02*
G01*
X157799000Y-90351000D01*
X157799000Y-89549000D01*
X159201000Y-89549000D01*
X159201000Y-90351000D01*
X159201000Y-90351000D01*
G37*
G36*
X151701000Y-90351000D02*
G01*
X150299000Y-90351000D01*
X150299000Y-89549000D01*
X151701000Y-89549000D01*
X151701000Y-90351000D01*
X151701000Y-90351000D01*
G37*
G36*
X169201000Y-90351000D02*
G01*
X167799000Y-90351000D01*
X167799000Y-89549000D01*
X169201000Y-89549000D01*
X169201000Y-90351000D01*
X169201000Y-90351000D01*
G37*
G36*
X146701000Y-90351000D02*
G01*
X145299000Y-90351000D01*
X145299000Y-89549000D01*
X146701000Y-89549000D01*
X146701000Y-90351000D01*
X146701000Y-90351000D01*
G37*
G36*
X144201000Y-90351000D02*
G01*
X142799000Y-90351000D01*
X142799000Y-89549000D01*
X144201000Y-89549000D01*
X144201000Y-90351000D01*
X144201000Y-90351000D01*
G37*
G36*
X140401000Y-89401000D02*
G01*
X138599000Y-89401000D01*
X138599000Y-87599000D01*
X140401000Y-87599000D01*
X140401000Y-89401000D01*
X140401000Y-89401000D01*
G37*
G36*
X135401000Y-89401000D02*
G01*
X133599000Y-89401000D01*
X133599000Y-87599000D01*
X135401000Y-87599000D01*
X135401000Y-89401000D01*
X135401000Y-89401000D01*
G37*
G36*
X130401000Y-89401000D02*
G01*
X128599000Y-89401000D01*
X128599000Y-87599000D01*
X130401000Y-87599000D01*
X130401000Y-89401000D01*
X130401000Y-89401000D01*
G37*
G36*
X161676000Y-88551000D02*
G01*
X160324000Y-88551000D01*
X160324000Y-87449000D01*
X161676000Y-87449000D01*
X161676000Y-88551000D01*
X161676000Y-88551000D01*
G37*
G36*
X166676000Y-88551000D02*
G01*
X165324000Y-88551000D01*
X165324000Y-87449000D01*
X166676000Y-87449000D01*
X166676000Y-88551000D01*
X166676000Y-88551000D01*
G37*
G36*
X144201000Y-88451000D02*
G01*
X142799000Y-88451000D01*
X142799000Y-87649000D01*
X144201000Y-87649000D01*
X144201000Y-88451000D01*
X144201000Y-88451000D01*
G37*
G36*
X146701000Y-88451000D02*
G01*
X145299000Y-88451000D01*
X145299000Y-87649000D01*
X146701000Y-87649000D01*
X146701000Y-88451000D01*
X146701000Y-88451000D01*
G37*
G36*
X149201000Y-88451000D02*
G01*
X147799000Y-88451000D01*
X147799000Y-87649000D01*
X149201000Y-87649000D01*
X149201000Y-88451000D01*
X149201000Y-88451000D01*
G37*
G36*
X164201000Y-88451000D02*
G01*
X162799000Y-88451000D01*
X162799000Y-87649000D01*
X164201000Y-87649000D01*
X164201000Y-88451000D01*
X164201000Y-88451000D01*
G37*
G36*
X169201000Y-88451000D02*
G01*
X167799000Y-88451000D01*
X167799000Y-87649000D01*
X169201000Y-87649000D01*
X169201000Y-88451000D01*
X169201000Y-88451000D01*
G37*
G36*
X151701000Y-88451000D02*
G01*
X150299000Y-88451000D01*
X150299000Y-87649000D01*
X151701000Y-87649000D01*
X151701000Y-88451000D01*
X151701000Y-88451000D01*
G37*
G36*
X154201000Y-88451000D02*
G01*
X152799000Y-88451000D01*
X152799000Y-87649000D01*
X154201000Y-87649000D01*
X154201000Y-88451000D01*
X154201000Y-88451000D01*
G37*
G36*
X156701000Y-88451000D02*
G01*
X155299000Y-88451000D01*
X155299000Y-87649000D01*
X156701000Y-87649000D01*
X156701000Y-88451000D01*
X156701000Y-88451000D01*
G37*
G36*
X159201000Y-88451000D02*
G01*
X157799000Y-88451000D01*
X157799000Y-87649000D01*
X159201000Y-87649000D01*
X159201000Y-88451000D01*
X159201000Y-88451000D01*
G37*
G36*
X181806000Y-86951000D02*
G01*
X180154000Y-86951000D01*
X180154000Y-85549000D01*
X181806000Y-85549000D01*
X181806000Y-86951000D01*
X181806000Y-86951000D01*
G37*
G36*
X173846000Y-86951000D02*
G01*
X172194000Y-86951000D01*
X172194000Y-85549000D01*
X173846000Y-85549000D01*
X173846000Y-86951000D01*
X173846000Y-86951000D01*
G37*
G36*
X119375256Y-82391298D02*
G01*
X119481579Y-82412447D01*
X119782042Y-82536903D01*
X120052451Y-82717585D01*
X120282415Y-82947549D01*
X120463097Y-83217958D01*
X120587553Y-83518421D01*
X120651000Y-83837391D01*
X120651000Y-84162609D01*
X120587553Y-84481579D01*
X120463097Y-84782042D01*
X120282415Y-85052451D01*
X120052451Y-85282415D01*
X119782042Y-85463097D01*
X119481579Y-85587553D01*
X119375256Y-85608702D01*
X119162611Y-85651000D01*
X118837389Y-85651000D01*
X118624744Y-85608702D01*
X118518421Y-85587553D01*
X118217958Y-85463097D01*
X117947549Y-85282415D01*
X117717585Y-85052451D01*
X117536903Y-84782042D01*
X117412447Y-84481579D01*
X117349000Y-84162609D01*
X117349000Y-83837391D01*
X117412447Y-83518421D01*
X117536903Y-83217958D01*
X117717585Y-82947549D01*
X117947549Y-82717585D01*
X118217958Y-82536903D01*
X118518421Y-82412447D01*
X118624744Y-82391298D01*
X118837389Y-82349000D01*
X119162611Y-82349000D01*
X119375256Y-82391298D01*
X119375256Y-82391298D01*
G37*
G36*
X186375256Y-82391298D02*
G01*
X186481579Y-82412447D01*
X186782042Y-82536903D01*
X187052451Y-82717585D01*
X187282415Y-82947549D01*
X187463097Y-83217958D01*
X187587553Y-83518421D01*
X187651000Y-83837391D01*
X187651000Y-84162609D01*
X187587553Y-84481579D01*
X187463097Y-84782042D01*
X187282415Y-85052451D01*
X187052451Y-85282415D01*
X186782042Y-85463097D01*
X186481579Y-85587553D01*
X186375256Y-85608702D01*
X186162611Y-85651000D01*
X185837389Y-85651000D01*
X185624744Y-85608702D01*
X185518421Y-85587553D01*
X185217958Y-85463097D01*
X184947549Y-85282415D01*
X184717585Y-85052451D01*
X184536903Y-84782042D01*
X184412447Y-84481579D01*
X184349000Y-84162609D01*
X184349000Y-83837391D01*
X184412447Y-83518421D01*
X184536903Y-83217958D01*
X184717585Y-82947549D01*
X184947549Y-82717585D01*
X185217958Y-82536903D01*
X185518421Y-82412447D01*
X185624744Y-82391298D01*
X185837389Y-82349000D01*
X186162611Y-82349000D01*
X186375256Y-82391298D01*
X186375256Y-82391298D01*
G37*
G36*
X133681000Y-84326000D02*
G01*
X132519000Y-84326000D01*
X132519000Y-83574000D01*
X133681000Y-83574000D01*
X133681000Y-84326000D01*
X133681000Y-84326000D01*
G37*
G36*
X131481000Y-84326000D02*
G01*
X130319000Y-84326000D01*
X130319000Y-81674000D01*
X131481000Y-81674000D01*
X131481000Y-84326000D01*
X131481000Y-84326000D01*
G37*
G36*
X152151000Y-83951000D02*
G01*
X151249000Y-83951000D01*
X151249000Y-83049000D01*
X152151000Y-83049000D01*
X152151000Y-83951000D01*
X152151000Y-83951000D01*
G37*
G36*
X148751000Y-83951000D02*
G01*
X147849000Y-83951000D01*
X147849000Y-83049000D01*
X148751000Y-83049000D01*
X148751000Y-83951000D01*
X148751000Y-83951000D01*
G37*
G36*
X147151000Y-83951000D02*
G01*
X146249000Y-83951000D01*
X146249000Y-83049000D01*
X147151000Y-83049000D01*
X147151000Y-83951000D01*
X147151000Y-83951000D01*
G37*
G36*
X153751000Y-83951000D02*
G01*
X152849000Y-83951000D01*
X152849000Y-83049000D01*
X153751000Y-83049000D01*
X153751000Y-83951000D01*
X153751000Y-83951000D01*
G37*
G36*
X181806000Y-82451000D02*
G01*
X180154000Y-82451000D01*
X180154000Y-81049000D01*
X181806000Y-81049000D01*
X181806000Y-82451000D01*
X181806000Y-82451000D01*
G37*
G36*
X173846000Y-82451000D02*
G01*
X172194000Y-82451000D01*
X172194000Y-81049000D01*
X173846000Y-81049000D01*
X173846000Y-82451000D01*
X173846000Y-82451000D01*
G37*
G36*
X153751000Y-82451000D02*
G01*
X152849000Y-82451000D01*
X152849000Y-81549000D01*
X153751000Y-81549000D01*
X153751000Y-82451000D01*
X153751000Y-82451000D01*
G37*
G36*
X152151000Y-82451000D02*
G01*
X151249000Y-82451000D01*
X151249000Y-81549000D01*
X152151000Y-81549000D01*
X152151000Y-82451000D01*
X152151000Y-82451000D01*
G37*
G36*
X148751000Y-82451000D02*
G01*
X147849000Y-82451000D01*
X147849000Y-81549000D01*
X148751000Y-81549000D01*
X148751000Y-82451000D01*
X148751000Y-82451000D01*
G37*
G36*
X147151000Y-82451000D02*
G01*
X146249000Y-82451000D01*
X146249000Y-81549000D01*
X147151000Y-81549000D01*
X147151000Y-82451000D01*
X147151000Y-82451000D01*
G37*
G36*
X160151000Y-82451000D02*
G01*
X159249000Y-82451000D01*
X159249000Y-81549000D01*
X160151000Y-81549000D01*
X160151000Y-82451000D01*
X160151000Y-82451000D01*
G37*
G36*
X161751000Y-82451000D02*
G01*
X160849000Y-82451000D01*
X160849000Y-81549000D01*
X161751000Y-81549000D01*
X161751000Y-82451000D01*
X161751000Y-82451000D01*
G37*
G36*
X133681000Y-82426000D02*
G01*
X132519000Y-82426000D01*
X132519000Y-81674000D01*
X133681000Y-81674000D01*
X133681000Y-82426000D01*
X133681000Y-82426000D01*
G37*
M02*
