G04 #@! TF.GenerationSoftware,KiCad,Pcbnew,(5.1.2)-2*
G04 #@! TF.CreationDate,2019-08-09T14:56:55+02:00*
G04 #@! TF.ProjectId,Fan controller,46616e20-636f-46e7-9472-6f6c6c65722e,rev?*
G04 #@! TF.SameCoordinates,Original*
G04 #@! TF.FileFunction,Profile,NP*
%FSLAX46Y46*%
G04 Gerber Fmt 4.6, Leading zero omitted, Abs format (unit mm)*
G04 Created by KiCad (PCBNEW (5.1.2)-2) date 2019-08-09 14:56:55*
%MOMM*%
%LPD*%
G04 APERTURE LIST*
%ADD10C,0.050000*%
G04 APERTURE END LIST*
D10*
X115000000Y-120000000D02*
X115000000Y-80000000D01*
X190000000Y-120000000D02*
X115000000Y-120000000D01*
X190000000Y-80000000D02*
X190000000Y-120000000D01*
X115000000Y-80000000D02*
X190000000Y-80000000D01*
M02*
